source2Target.StarterSource2Target.main()
	TRACE: Starting main of class source2Target.StarterSource2Target
source2Target.StarterSource2Target.main()
	TRACE: Going through files in C:\Users\g.barri\Documents\FCA_technology\repository-FCA\Greenplum\datalake\bl_scm_ind\functions\bl_scm_ind_pr_ass_stab_cli.sql
source2Target.StarterSource2Target.checkFile()
	TRACE: Checking file bl_scm_ind_pr_ass_stab_cli.sql
source2Target.Source2TargetMapping.scanForINSERTs()
	TRACE: Searching for INSERT INTO in bl_scm_ind_pr_ass_stab_cli.sql (C:\Users\g.barri\Documents\FCA_technology\repository-FCA\Greenplum\datalake\bl_scm_ind\functions\bl_scm_ind_pr_ass_stab_cli.sql)
source2Target.ExposedWithSources.addNewMapping()
	WARN: You tried to add a new mapping for the target column 'ADMIN' but it has been already mapped
source2Target.ExposedWithSources.addNewMapping()
	WARN: You tried to add a new mapping for the target column LOCALTIMESTAMP but it has been already mapped
source2Target.StarterSource2Target.goThrough()
	TRACE: Mapping from the columns of	tl_analytics.de_ass_stab_cli	toward	[]	:[CREATED_BY,[BGEXPR<<<'ADMIN']|FLG_EXCLUDE,[BGEXPR<<<'N']|CODCLI,[ASS_STAB_CLI.codcli]|CREATION_DATE,[LOCALTIMESTAMP]|IS_ACTIVE,[BGEXPR<<<'Y']|LAST_UPDATE_DATE,null|LAST_UPDATE_BY,null|CODSTAB,[ASS_STAB_CLI.codstab]|]
source2Target.Source2TargetMapping.scanForUPDATEs()
	TRACE: Searching for UPDATE in bl_scm_ind_pr_ass_stab_cli.sql (C:\Users\g.barri\Documents\FCA_technology\repository-FCA\Greenplum\datalake\bl_scm_ind\functions\bl_scm_ind_pr_ass_stab_cli.sql)
source2Target.Source2TargetMapping.visit()
	WARN: La istanza di update UPDATE tl_analytics.de_ass_stab_cli SET FLG_EXCLUDE = 'N', IS_ACTIVE = 'Y', LAST_UPDATE_BY = 'ADMIN', LAST_UPDATE_DATE = LOCALTIMESTAMP WHERE CODSTAB = ASS_STAB_CLI.codstab AND CODCLI = ASS_STAB_CLI.codcli AND IS_ACTIVE = 'N' non contiene un from
source2Target.StarterSource2Target.goThrough()
	DEBUG: Mapping from the columns of	tl_analytics.DE_ASS_STAB_CLI	toward	[]	:[FLG_EXCLUDE,['N']|IS_ACTIVE,['Y']|LAST_UPDATE_DATE,[LOCALTIMESTAMP]|LAST_UPDATE_BY,['ADMIN']|]
source2Target.StarterSource2Target.main()
	TRACE: printing results to file: C:\Users\g.barri\Desktop\sourceMapping\results.txt
source2Target.StarterSource2Target.main()
	TRACE: Ending main of class source2Target.StarterSource2Target
