fix_miscellanea.Fix_trim_add_NULLIF2.main()
	TRACE: Starting replacing TRIM calls
fix_miscellanea.Fix_trim_add_NULLIF2.visitFile()
	TRACE: visiting C:\Users\g.barri\Documents\FCA_technology\repository-FCA\Greenplum\datalake\bl_mfg\functions\bl_mfg_delete_orders_canc_flag.sql
fix_miscellanea.Fix_trim_add_NULLIF2.visitFile()
	TRACE: visiting C:\Users\g.barri\Documents\FCA_technology\repository-FCA\Greenplum\datalake\bl_mfg\functions\bl_mfg_mp_check_end_catena_ewo.sql
