insertCall.Starter.main()
	TRACE: Starting registration fase in TAG replecement
insertCall.Starter.main()
	TRACE: Ending registration phase in TAG replecement
insertCall.Starter.main()
	TRACE: start TAG replecement
insertCall.Starter.main()
	TRACE: end TAG replecement
