fix_miscellanea.AddStorageSessionToTableDDL.main()
	TRACE: Starting insert storage parameter calls
loaders.AbstractLoader.loadMap()
	INFO: Loading data from sheet Foglio1
loaders.AbstractLoader.popolateMap()
	INFO: PK made of column: Table Owner
loaders.AbstractLoader.popolateMap()
	INFO: PK made of column: Table Name
loaders.AbstractLoader.popolateMap()
	INFO: Exporting column: AppendOnly
loaders.AbstractLoader.popolateMap()
	INFO: PK made of column: Owner
loaders.AbstractLoader.popolateMap()
	INFO: PK made of column: External Table
loaders.AbstractLoader.popolateMap()
	INFO: Exporting column: Target Schema
loaders.AbstractLoader.popolateMap()
	INFO: Exporting column: External Table
loaders.AbstractLoader.popolateMap()
	INFO: Exporting column: Target Table
loaders.AbstractLoader.popolateMap()
	INFO: Exporting column: Migration
loaders.AbstractLoader.popolateMap()
	INFO: PK made of column: Owner
loaders.AbstractLoader.popolateMap()
	INFO: PK made of column: Table
loaders.AbstractLoader.popolateMap()
	INFO: Exporting column: Target Schema
loaders.AbstractLoader.popolateMap()
	INFO: Exporting column: Table
loaders.AbstractLoader.popolateMap()
	INFO: Exporting column: Migration
loaders.LoaderMultipleSheetsDBExcel.loadMap()
	ERROR: The PK aba21.XX_RECOVERY_ORD_OPT_DOC_FAT used for mapping from C:\Users\g.barri\Downloads\BA2 - DWH Analytics (17).xlsx is not unique!	[tl_sal,XX_RECOVERY_ORD_OPT_DOC_FAT,et_recovery_ord_opt_doc_fat]	replaced by	[dg_maintenance,XX_RECOVERY_ORD_OPT_DOC_FAT]
loaders.AbstractLoader.popolateMap()
	INFO: PK made of column: Owner
loaders.AbstractLoader.popolateMap()
	INFO: PK made of column: Sequence
loaders.AbstractLoader.popolateMap()
	INFO: Exporting column: Target Schema
loaders.AbstractLoader.popolateMap()
	INFO: Exporting column: Sequence
loaders.AbstractLoader.popolateMap()
	INFO: Exporting column: Migration
loaders.AbstractLoader.popolateMap()
	INFO: PK made of column: Owner
loaders.AbstractLoader.popolateMap()
	INFO: PK made of column: View
loaders.AbstractLoader.popolateMap()
	INFO: Exporting column: Target Schema
loaders.AbstractLoader.popolateMap()
	INFO: Exporting column: View
loaders.AbstractLoader.popolateMap()
	INFO: Exporting column: Migration
loaders.AbstractLoader.popolateMap()
	INFO: PK made of column: Owner
loaders.AbstractLoader.popolateMap()
	INFO: PK made of column: Procedure
loaders.AbstractLoader.popolateMap()
	INFO: Exporting column: Target Schema
loaders.AbstractLoader.popolateMap()
	INFO: Exporting column: Procedure
loaders.AbstractLoader.popolateMap()
	INFO: Exporting column: Migration
loaders.AbstractLoader.popolateMap()
	INFO: PK made of column: Owner
loaders.AbstractLoader.popolateMap()
	INFO: PK made of column: Object
loaders.AbstractLoader.popolateMap()
	INFO: Exporting column: Target Schema
loaders.AbstractLoader.popolateMap()
	INFO: Exporting column: Object
loaders.AbstractLoader.popolateMap()
	INFO: Exporting column: PXF Target Name
loaders.AbstractLoader.popolateMap()
	INFO: Exporting column: Migration
schemaMapping.LoaderSchemaMap.printMappingToFile()
	TRACE: Schema replacement map as config file printed at C:\Users\g.barri\Downloads\replace.map
schemaMapping.LoaderSchemaMap.printMappingToFile2()
	TRACE: Inverse Schema replacement map as config file printed at C:\Users\g.barri\Downloads\replace.mapinverse
fix_miscellanea.AddStorageSessionToTableDDL.visitFile()
	TRACE: visiting C:\Users\g.barri\Desktop\tmp\tl_analytics_bh_anag_costruttore_tab - Copia.sql
fix_miscellanea.AddStorageSessionToTableDDL.main()
	TRACE: Ended replacing TRIM calls
