insertCall.Starter.main()
	TRACE: Starting registration fase in TAG replecement
insertCall.Starter.main()
	TRACE: Ending registration fase in TAG replecement
insertCall.Starter.main()
	TRACE: start TAG replecement
insertCall.InsertCaller.insert()
	INFO: create_lang.sql does not contain any function. The replacement of the TAGs is skipped.
insertCall.InsertCaller.insert()
	INFO: dg_utilities_tb_process_log_tab.sql does not contain any function. The replacement of the TAGs is skipped.
insertCall.InsertCaller.insert()
	INFO: create_lang.sql does not contain any function. The replacement of the TAGs is skipped.
insertCall.InsertCaller.insert()
	INFO: dg_utilities_tb_process_log_tab.sql does not contain any function. The replacement of the TAGs is skipped.
