fix_PRG_ANALYZE_TABLE.Fix_PRG_ANALYZE_TABLE.main()
	TRACE: Starting replacing class fix_PRG_ANALYZE_TABLE.PRG_ANALYZE_TABLE calls
fix_PRG_ANALYZE_TABLE.Fix_PRG_ANALYZE_TABLE.visitFile()
	TRACE: visiting C:\Users\g.barri\Documents\FCA_technology\xml_and_ispirer\output\ABA21_WVN_MP_ST_AUDIT_RESULT\tl_net_wvn_mp_st_audit_result.sql
schemaMapping.LoaderSchemaMap.loadMap()
	ERROR: Loading of the schema replace map failed! C:\Users\g.barri\Downloads\BA2 - DWH Analytics (6).xlsx (Impossibile accedere al file. Il file è utilizzato da un altro processo)
fix_PRG_ANALYZE_TABLE.PRG_ANALYZE_TABLE.toNewFunction()
	ERROR: object DBA21.ST_AUDIT_RESULT not found in schema replace mapping
fix_PRG_ANALYZE_TABLE.Fix_PRG_ANALYZE_TABLE.alterCall()
	TRACE: replacing:
      PERFORM dg_utilities.PRG_ANALYZE_TABLE('ST_AUDIT_RESULT','ESTIMATE');

      PERFORM dg_utilities.PR_ANALYZE( 'tl_net' , 'ST_AUDIT_RESULT' );

fix_PRG_ANALYZE_TABLE.Fix_PRG_ANALYZE_TABLE.main()
	TRACE: Ended replacing class fix_PRG_ANALYZE_TABLE.PRG_ANALYZE_TABLE calls
