insertCall.Starter.main()
	TRACE: Starting registration fase in TAG replecement
insertCall.Starter.main()
	TRACE: Ending registration phase in TAG replecement
insertCall.Starter.main()
	TRACE: start TAG replecement
insertCall.InsertCaller.insert()
	TRACE: Controlling file tl_scm_ind_mp_st_mc_ssolq180.sql (C:\Users\g.barri\Documents\FCA_technology\repository-FCA\Greenplum\datalake\tl_scm_ind\functions\tl_scm_ind_mp_st_mc_ssolq180.sql
functions.InsertableFunctionSpace.stringToBeInserted()
	TRACE: PK tl_scm_ind.MP_ST_MC_SSOLQ180 not found. Swicthing to searching for tl_scm_ind.MP_ST_MC_SSOLQ180.%, %=anything else
functions.InsertableFunctionSpace.stringToBeInserted()
	TRACE: Associated tl_scm_ind.MP_ST_MC_SSOLQ180.XXDWH.EXT_MC_SSOLQ180_121 with function class functions.Pr_admin_format_check: funzione pr_admin_format_check con tag <|PR_INITIALIZE-pre|>
functions.InsertableFunctionSpace.stringToBeInserted()
	TRACE: Associated tl_scm_ind.MP_ST_MC_SSOLQ180.XXDWH.EXT_MC_SSOLQ180_123 with function class functions.Pr_admin_format_check: funzione pr_admin_format_check con tag <|PR_INITIALIZE-pre|>
functions.InsertableFunctionSpace.stringToBeInserted()
	TRACE: Associated tl_scm_ind.MP_ST_MC_SSOLQ180.XXDWH.EXT_MC_SSOLQ180_124 with function class functions.Pr_admin_format_check: funzione pr_admin_format_check con tag <|PR_INITIALIZE-pre|>
functions.InsertableFunctionSpace.stringToBeInserted()
	TRACE: Associated tl_scm_ind.MP_ST_MC_SSOLQ180.XXDWH.EXT_MC_SSOLQ180_192_GLA1 with function class functions.Pr_admin_format_check: funzione pr_admin_format_check con tag <|PR_INITIALIZE-pre|>
functions.InsertableFunctionSpace.stringToBeInserted()
	TRACE: Associated tl_scm_ind.MP_ST_MC_SSOLQ180.XXDWH.EXT_MC_SSOLQ180_192 with function class functions.Pr_admin_format_check: funzione pr_admin_format_check con tag <|PR_INITIALIZE-pre|>
functions.InsertableFunctionSpace.stringToBeInserted()
	TRACE: Associated tl_scm_ind.MP_ST_MC_SSOLQ180.XXDWH.EXT_MC_SSOLQ180_139_TESTATA with function class functions.Pr_admin_format_check: funzione pr_admin_format_check con tag <|PR_INITIALIZE-pre|>
functions.InsertableFunctionSpace.stringToBeInserted()
	TRACE: Associated tl_scm_ind.MP_ST_MC_SSOLQ180.XXDWH.EXT_MC_SSOLQ180_123_GLA1 with function class functions.Pr_admin_format_check: funzione pr_admin_format_check con tag <|PR_INITIALIZE-pre|>
functions.InsertableFunctionSpace.stringToBeInserted()
	TRACE: Associated tl_scm_ind.MP_ST_MC_SSOLQ180.XXDWH.EXT_MC_SSOLQ180_123_TESTATA with function class functions.Pr_admin_format_check: funzione pr_admin_format_check con tag <|PR_INITIALIZE-pre|>
functions.InsertableFunctionSpace.stringToBeInserted()
	TRACE: Associated tl_scm_ind.MP_ST_MC_SSOLQ180.XXDWH.EXT_MC_SSOLQ180_139 with function class functions.Pr_admin_format_check: funzione pr_admin_format_check con tag <|PR_INITIALIZE-pre|>
functions.InsertableFunctionSpace.stringToBeInserted()
	TRACE: Associated tl_scm_ind.MP_ST_MC_SSOLQ180.XXDWH.EXT_MC_SSOLQ180_139_GLA1 with function class functions.Pr_admin_format_check: funzione pr_admin_format_check con tag <|PR_INITIALIZE-pre|>
functions.InsertableFunctionSpace.stringToBeInserted()
	TRACE: Associated tl_scm_ind.MP_ST_MC_SSOLQ180.XXDWH.EXT_MC_SSOLQ180_171_GLA1 with function class functions.Pr_admin_format_check: funzione pr_admin_format_check con tag <|PR_INITIALIZE-pre|>
functions.InsertableFunctionSpace.stringToBeInserted()
	TRACE: Associated tl_scm_ind.MP_ST_MC_SSOLQ180.XXDWH.EXT_MC_SSOLQ180_121_GLA1 with function class functions.Pr_admin_format_check: funzione pr_admin_format_check con tag <|PR_INITIALIZE-pre|>
functions.InsertableFunctionSpace.stringToBeInserted()
	TRACE: Associated tl_scm_ind.MP_ST_MC_SSOLQ180.XXDWH.EXT_MC_SSOLQ180_124_GLA1 with function class functions.Pr_admin_format_check: funzione pr_admin_format_check con tag <|PR_INITIALIZE-pre|>
functions.InsertableFunctionSpace.stringToBeInserted()
	TRACE: Associated tl_scm_ind.MP_ST_MC_SSOLQ180.XXDWH.EXT_MC_SSOLQ180_171_TESTATA with function class functions.Pr_admin_format_check: funzione pr_admin_format_check con tag <|PR_INITIALIZE-pre|>
functions.InsertableFunctionSpace.stringToBeInserted()
	TRACE: Associated tl_scm_ind.MP_ST_MC_SSOLQ180.XXDWH.EXT_MC_SSOLQ180_124_TESTATA with function class functions.Pr_admin_format_check: funzione pr_admin_format_check con tag <|PR_INITIALIZE-pre|>
functions.InsertableFunctionSpace.stringToBeInserted()
	TRACE: Associated tl_scm_ind.MP_ST_MC_SSOLQ180.XXDWH.EXT_MC_SSOLQ180_192_TESTATA with function class functions.Pr_admin_format_check: funzione pr_admin_format_check con tag <|PR_INITIALIZE-pre|>
functions.InsertableFunctionSpace.stringToBeInserted()
	TRACE: Associated tl_scm_ind.MP_ST_MC_SSOLQ180.XXDWH.EXT_MC_SSOLQ180_171 with function class functions.Pr_admin_format_check: funzione pr_admin_format_check con tag <|PR_INITIALIZE-pre|>
functions.InsertableFunctionSpace.stringToBeInserted()
	TRACE: Associated tl_scm_ind.MP_ST_MC_SSOLQ180.XXDWH.EXT_MC_SSOLQ180_121_TESTATA with function class functions.Pr_admin_format_check: funzione pr_admin_format_check con tag <|PR_INITIALIZE-pre|>
insertCall.InsertCaller.insert()
	INFO: File tl_scm_ind_mp_st_mc_ssolq180.sql has been changed with the following TAG replacement:
--      --<|USED_PR_INITIALIZE-pre|>
          --##--
          --  Check sui constraint:
          	  PERFORM dg_utilities.pr_admin_format_check('tl_scm_ind', 'et_mc_ssolq180_121', ID_LOAD, 'mp_st_mc_ssolq180');
          --##--
          --  Check sui constraint:
          	  PERFORM dg_utilities.pr_admin_format_check('tl_scm_ind', 'et_mc_ssolq180_123', ID_LOAD, 'mp_st_mc_ssolq180');
          --##--
          --  Check sui constraint:
          	  PERFORM dg_utilities.pr_admin_format_check('tl_scm_ind', 'et_mc_ssolq180_124', ID_LOAD, 'mp_st_mc_ssolq180');
          --##--
          --  Check sui constraint:
          	  PERFORM dg_utilities.pr_admin_format_check('tl_scm_ind', 'et_mc_ssolq180_192_gla1', ID_LOAD, 'mp_st_mc_ssolq180');
          --##--
          --  Check sui constraint:
          	  PERFORM dg_utilities.pr_admin_format_check('tl_scm_ind', 'et_mc_ssolq180_192', ID_LOAD, 'mp_st_mc_ssolq180');
          --##--
          --  Check sui constraint:
          	  PERFORM dg_utilities.pr_admin_format_check('tl_scm_ind', 'et_mc_ssolq180_139_testata', ID_LOAD, 'mp_st_mc_ssolq180');
          --##--
          --  Check sui constraint:
          	  PERFORM dg_utilities.pr_admin_format_check('tl_scm_ind', 'et_mc_ssolq180_123_gla1', ID_LOAD, 'mp_st_mc_ssolq180');
          --##--
          --  Check sui constraint:
          	  PERFORM dg_utilities.pr_admin_format_check('tl_scm_ind', 'et_mc_ssolq180_123_testata', ID_LOAD, 'mp_st_mc_ssolq180');
          --##--
          --  Check sui constraint:
          	  PERFORM dg_utilities.pr_admin_format_check('tl_scm_ind', 'et_mc_ssolq180_139', ID_LOAD, 'mp_st_mc_ssolq180');
          --##--
          --  Check sui constraint:
          	  PERFORM dg_utilities.pr_admin_format_check('tl_scm_ind', 'et_mc_ssolq180_139_gla1', ID_LOAD, 'mp_st_mc_ssolq180');
          --##--
          --  Check sui constraint:
          	  PERFORM dg_utilities.pr_admin_format_check('tl_scm_ind', 'et_mc_ssolq180_171_gla1', ID_LOAD, 'mp_st_mc_ssolq180');
          --##--
          --  Check sui constraint:
          	  PERFORM dg_utilities.pr_admin_format_check('tl_scm_ind', 'et_mc_ssolq180_121_gla1', ID_LOAD, 'mp_st_mc_ssolq180');
          --##--
          --  Check sui constraint:
          	  PERFORM dg_utilities.pr_admin_format_check('tl_scm_ind', 'et_mc_ssolq180_124_gla1', ID_LOAD, 'mp_st_mc_ssolq180');
          --##--
          --  Check sui constraint:
          	  PERFORM dg_utilities.pr_admin_format_check('tl_scm_ind', 'et_mc_ssolq180_171_testata', ID_LOAD, 'mp_st_mc_ssolq180');
          --##--
          --  Check sui constraint:
          	  PERFORM dg_utilities.pr_admin_format_check('tl_scm_ind', 'et_mc_ssolq180_124_testata', ID_LOAD, 'mp_st_mc_ssolq180');
          --##--
          --  Check sui constraint:
          	  PERFORM dg_utilities.pr_admin_format_check('tl_scm_ind', 'et_mc_ssolq180_192_testata', ID_LOAD, 'mp_st_mc_ssolq180');
          --##--
          --  Check sui constraint:
          	  PERFORM dg_utilities.pr_admin_format_check('tl_scm_ind', 'et_mc_ssolq180_171', ID_LOAD, 'mp_st_mc_ssolq180');
          --##--
          --  Check sui constraint:
          	  PERFORM dg_utilities.pr_admin_format_check('tl_scm_ind', 'et_mc_ssolq180_121_testata', ID_LOAD, 'mp_st_mc_ssolq180');
          
          --##--
functions.InsertableFunctionSpace.stringToBeInserted()
	TRACE: PK tl_scm_ind.MP_ST_MC_SSOLQ180 not found. Swicthing to searching for tl_scm_ind.MP_ST_MC_SSOLQ180.%, %=anything else
functions.InsertableFunctionSpace.stringToBeInserted()
	TRACE: PK tl_scm_ind.MP_ST_MC_SSOLQ180 not found. Swicthing to searching for tl_scm_ind.MP_ST_MC_SSOLQ180.%, %=anything else
insertCall.Starter.main()
	TRACE: end TAG replecement
