insertCall.Starter.main()
	TRACE: Starting registration fase in TAG replecement
insertCall.LoaderTAGreplaceFabFavro.popolateMap()
	WARN: BE CAREFUL: using only the object name MP_WT_INVOICE instead of schema.object as PK led to a duplicate key!!!
	Existing mapping: (MP_WT_INVOICE,bl_scm_ind.MP_WT_INVOICE), adding: (MP_WT_INVOICE,tl_scm_ind.MP_WT_INVOICE)
insertCall.LoaderTAGreplaceFabFavro.popolateMap()
	WARN: BE CAREFUL: using only the object name VS_WT_SUPPLY_SUMMARY instead of schema.object as PK led to a duplicate key!!!
	Existing mapping: (VS_WT_SUPPLY_SUMMARY,bl_scm_ind.VS_WT_SUPPLY_SUMMARY), adding: (VS_WT_SUPPLY_SUMMARY,tl_scm_ind.VS_WT_SUPPLY_SUMMARY)
insertCall.LoaderTAGreplaceFabFavro.popolateMap()
	WARN: BE CAREFUL: using only the object name MP_DM_MONTH instead of schema.object as PK led to a duplicate key!!!
	Existing mapping: (MP_DM_MONTH,bl_mfg.MP_DM_MONTH), adding: (MP_DM_MONTH,bl_scm_ind.MP_DM_MONTH)
insertCall.LoaderTAGreplaceFabFavro.popolateMap()
	WARN: BE CAREFUL: using only the object name MP_DM_STABILIMENTI instead of schema.object as PK led to a duplicate key!!!
	Existing mapping: (MP_DM_STABILIMENTI,bl_scm_ind.MP_DM_STABILIMENTI), adding: (MP_DM_STABILIMENTI,bl_mfg.MP_DM_STABILIMENTI)
insertCall.LoaderTAGreplaceFabFavro.popolateMap()
	WARN: BE CAREFUL: using only the object name DM_DAY instead of schema.object as PK led to a duplicate key!!!
	Existing mapping: (DM_DAY,bl_mfg.DM_DAY), adding: (DM_DAY,bl_scm_ind.DM_DAY)
insertCall.LoaderTAGreplaceFabFavro.popolateMap()
	WARN: BE CAREFUL: using only the object name HTML_EMAIL instead of schema.object as PK led to a duplicate key!!!
	Existing mapping: (HTML_EMAIL,dg_utilities.HTML_EMAIL), adding: (HTML_EMAIL,bl_scm_ind.HTML_EMAIL)
insertCall.LoaderTAGreplaceFabFavro.popolateMap()
	WARN: BE CAREFUL: using only the object name DM_MONTH instead of schema.object as PK led to a duplicate key!!!
	Existing mapping: (DM_MONTH,bl_scm_ind.DM_MONTH), adding: (DM_MONTH,bl_mfg.DM_MONTH)
insertCall.LoaderTAGreplaceFabFavro.popolateMap()
	WARN: BE CAREFUL: using only the object name MP_DM_WEEK instead of schema.object as PK led to a duplicate key!!!
	Existing mapping: (MP_DM_WEEK,bl_mfg.MP_DM_WEEK), adding: (MP_DM_WEEK,bl_scm_ind.MP_DM_WEEK)
insertCall.LoaderTAGreplaceFabFavro.popolateMap()
	WARN: BE CAREFUL: using only the object name VS_WT_DETAIL_SUPPLY_SUMMARY instead of schema.object as PK led to a duplicate key!!!
	Existing mapping: (VS_WT_DETAIL_SUPPLY_SUMMARY,tl_scm_ind.VS_WT_DETAIL_SUPPLY_SUMMARY), adding: (VS_WT_DETAIL_SUPPLY_SUMMARY,bl_scm_ind.VS_WT_DETAIL_SUPPLY_SUMMARY)
insertCall.LoaderTAGreplaceFabFavro.popolateMap()
	WARN: BE CAREFUL: using only the object name VS_WT_PLANT_SUPPLY_SUMMARY instead of schema.object as PK led to a duplicate key!!!
	Existing mapping: (VS_WT_PLANT_SUPPLY_SUMMARY,bl_scm_ind.VS_WT_PLANT_SUPPLY_SUMMARY), adding: (VS_WT_PLANT_SUPPLY_SUMMARY,tl_scm_ind.VS_WT_PLANT_SUPPLY_SUMMARY)
insertCall.LoaderTAGreplaceFabFavro.popolateMap()
	WARN: BE CAREFUL: using only the object name VS_WT_PLANT_LAYOFF_SUMMARY instead of schema.object as PK led to a duplicate key!!!
	Existing mapping: (VS_WT_PLANT_LAYOFF_SUMMARY,tl_scm_ind.VS_WT_PLANT_LAYOFF_SUMMARY), adding: (VS_WT_PLANT_LAYOFF_SUMMARY,bl_scm_ind.VS_WT_PLANT_LAYOFF_SUMMARY)
insertCall.LoaderTAGreplaceFabFavro.popolateMap()
	WARN: BE CAREFUL: using only the object name VS_WT_TOT_SUPPLY_SUMMARY instead of schema.object as PK led to a duplicate key!!!
	Existing mapping: (VS_WT_TOT_SUPPLY_SUMMARY,bl_scm_ind.VS_WT_TOT_SUPPLY_SUMMARY), adding: (VS_WT_TOT_SUPPLY_SUMMARY,tl_scm_ind.VS_WT_TOT_SUPPLY_SUMMARY)
insertCall.LoaderTAGreplaceFabFavro.popolateMap()
	WARN: BE CAREFUL: using only the object name DM_DUMMY_TABLE instead of schema.object as PK led to a duplicate key!!!
	Existing mapping: (DM_DUMMY_TABLE,bl_scm_ind.DM_DUMMY_TABLE), adding: (DM_DUMMY_TABLE,bl_mfg.DM_DUMMY_TABLE)
insertCall.LoaderTAGreplaceFabFavro.popolateMap()
	WARN: BE CAREFUL: using only the object name FN_JOB_NUM instead of schema.object as PK led to a duplicate key!!!
	Existing mapping: (FN_JOB_NUM,bl_scm_ind.FN_JOB_NUM), adding: (FN_JOB_NUM,dg_utilities.FN_JOB_NUM)
insertCall.LoaderTAGreplaceFabFavro.popolateMap()
	WARN: BE CAREFUL: using only the object name DM_STABILIMENTI instead of schema.object as PK led to a duplicate key!!!
	Existing mapping: (DM_STABILIMENTI,bl_scm_ind.DM_STABILIMENTI), adding: (DM_STABILIMENTI,bl_mfg.DM_STABILIMENTI)
insertCall.LoaderTAGreplaceFabFavro.popolateMap()
	WARN: BE CAREFUL: using only the object name DM_WEEK instead of schema.object as PK led to a duplicate key!!!
	Existing mapping: (DM_WEEK,bl_scm_ind.DM_WEEK), adding: (DM_WEEK,bl_mfg.DM_WEEK)
insertCall.LoaderTAGreplaceFabFavro.popolateMap()
	WARN: BE CAREFUL: using only the object name MP_DM_DAY instead of schema.object as PK led to a duplicate key!!!
	Existing mapping: (MP_DM_DAY,bl_mfg.MP_DM_DAY), adding: (MP_DM_DAY,bl_scm_ind.MP_DM_DAY)
insertCall.LoaderTAGreplaceFabFavro.popolateMap()
	WARN: BE CAREFUL: using only the object name VS_WT_SUMMARY_DELTA_PO_PREC instead of schema.object as PK led to a duplicate key!!!
	Existing mapping: (VS_WT_SUMMARY_DELTA_PO_PREC,bl_scm_ind.VS_WT_SUMMARY_DELTA_PO_PREC), adding: (VS_WT_SUMMARY_DELTA_PO_PREC,tl_scm_ind.VS_WT_SUMMARY_DELTA_PO_PREC)
insertCall.LoaderTAGreplaceFabFavro.popolateMap()
	WARN: BE CAREFUL: using only the object name MP_WT_INVOICE instead of schema.object as PK led to a duplicate key!!!
	Existing mapping: (MP_WT_INVOICE,bl_scm_ind.MP_WT_INVOICE), adding: (MP_WT_INVOICE,tl_scm_ind.MP_WT_INVOICE)
insertCall.LoaderTAGreplaceFabFavro.popolateMap()
	WARN: BE CAREFUL: using only the object name VS_WT_SUPPLY_SUMMARY instead of schema.object as PK led to a duplicate key!!!
	Existing mapping: (VS_WT_SUPPLY_SUMMARY,bl_scm_ind.VS_WT_SUPPLY_SUMMARY), adding: (VS_WT_SUPPLY_SUMMARY,tl_scm_ind.VS_WT_SUPPLY_SUMMARY)
insertCall.LoaderTAGreplaceFabFavro.popolateMap()
	WARN: BE CAREFUL: using only the object name MP_DM_MONTH instead of schema.object as PK led to a duplicate key!!!
	Existing mapping: (MP_DM_MONTH,bl_mfg.MP_DM_MONTH), adding: (MP_DM_MONTH,bl_scm_ind.MP_DM_MONTH)
insertCall.LoaderTAGreplaceFabFavro.popolateMap()
	WARN: BE CAREFUL: using only the object name MP_DM_STABILIMENTI instead of schema.object as PK led to a duplicate key!!!
	Existing mapping: (MP_DM_STABILIMENTI,bl_scm_ind.MP_DM_STABILIMENTI), adding: (MP_DM_STABILIMENTI,bl_mfg.MP_DM_STABILIMENTI)
insertCall.LoaderTAGreplaceFabFavro.popolateMap()
	WARN: BE CAREFUL: using only the object name DM_DAY instead of schema.object as PK led to a duplicate key!!!
	Existing mapping: (DM_DAY,bl_mfg.DM_DAY), adding: (DM_DAY,bl_scm_ind.DM_DAY)
insertCall.LoaderTAGreplaceFabFavro.popolateMap()
	WARN: BE CAREFUL: using only the object name HTML_EMAIL instead of schema.object as PK led to a duplicate key!!!
	Existing mapping: (HTML_EMAIL,dg_utilities.HTML_EMAIL), adding: (HTML_EMAIL,bl_scm_ind.HTML_EMAIL)
insertCall.LoaderTAGreplaceFabFavro.popolateMap()
	WARN: BE CAREFUL: using only the object name DM_MONTH instead of schema.object as PK led to a duplicate key!!!
	Existing mapping: (DM_MONTH,bl_scm_ind.DM_MONTH), adding: (DM_MONTH,bl_mfg.DM_MONTH)
insertCall.LoaderTAGreplaceFabFavro.popolateMap()
	WARN: BE CAREFUL: using only the object name MP_DM_WEEK instead of schema.object as PK led to a duplicate key!!!
	Existing mapping: (MP_DM_WEEK,bl_mfg.MP_DM_WEEK), adding: (MP_DM_WEEK,bl_scm_ind.MP_DM_WEEK)
insertCall.LoaderTAGreplaceFabFavro.popolateMap()
	WARN: BE CAREFUL: using only the object name VS_WT_DETAIL_SUPPLY_SUMMARY instead of schema.object as PK led to a duplicate key!!!
	Existing mapping: (VS_WT_DETAIL_SUPPLY_SUMMARY,tl_scm_ind.VS_WT_DETAIL_SUPPLY_SUMMARY), adding: (VS_WT_DETAIL_SUPPLY_SUMMARY,bl_scm_ind.VS_WT_DETAIL_SUPPLY_SUMMARY)
insertCall.LoaderTAGreplaceFabFavro.popolateMap()
	WARN: BE CAREFUL: using only the object name VS_WT_PLANT_SUPPLY_SUMMARY instead of schema.object as PK led to a duplicate key!!!
	Existing mapping: (VS_WT_PLANT_SUPPLY_SUMMARY,bl_scm_ind.VS_WT_PLANT_SUPPLY_SUMMARY), adding: (VS_WT_PLANT_SUPPLY_SUMMARY,tl_scm_ind.VS_WT_PLANT_SUPPLY_SUMMARY)
insertCall.LoaderTAGreplaceFabFavro.popolateMap()
	WARN: BE CAREFUL: using only the object name VS_WT_PLANT_LAYOFF_SUMMARY instead of schema.object as PK led to a duplicate key!!!
	Existing mapping: (VS_WT_PLANT_LAYOFF_SUMMARY,tl_scm_ind.VS_WT_PLANT_LAYOFF_SUMMARY), adding: (VS_WT_PLANT_LAYOFF_SUMMARY,bl_scm_ind.VS_WT_PLANT_LAYOFF_SUMMARY)
insertCall.LoaderTAGreplaceFabFavro.popolateMap()
	WARN: BE CAREFUL: using only the object name VS_WT_TOT_SUPPLY_SUMMARY instead of schema.object as PK led to a duplicate key!!!
	Existing mapping: (VS_WT_TOT_SUPPLY_SUMMARY,bl_scm_ind.VS_WT_TOT_SUPPLY_SUMMARY), adding: (VS_WT_TOT_SUPPLY_SUMMARY,tl_scm_ind.VS_WT_TOT_SUPPLY_SUMMARY)
insertCall.LoaderTAGreplaceFabFavro.popolateMap()
	WARN: BE CAREFUL: using only the object name DM_DUMMY_TABLE instead of schema.object as PK led to a duplicate key!!!
	Existing mapping: (DM_DUMMY_TABLE,bl_scm_ind.DM_DUMMY_TABLE), adding: (DM_DUMMY_TABLE,bl_mfg.DM_DUMMY_TABLE)
insertCall.LoaderTAGreplaceFabFavro.popolateMap()
	WARN: BE CAREFUL: using only the object name FN_JOB_NUM instead of schema.object as PK led to a duplicate key!!!
	Existing mapping: (FN_JOB_NUM,bl_scm_ind.FN_JOB_NUM), adding: (FN_JOB_NUM,dg_utilities.FN_JOB_NUM)
insertCall.LoaderTAGreplaceFabFavro.popolateMap()
	WARN: BE CAREFUL: using only the object name DM_STABILIMENTI instead of schema.object as PK led to a duplicate key!!!
	Existing mapping: (DM_STABILIMENTI,bl_scm_ind.DM_STABILIMENTI), adding: (DM_STABILIMENTI,bl_mfg.DM_STABILIMENTI)
insertCall.LoaderTAGreplaceFabFavro.popolateMap()
	WARN: BE CAREFUL: using only the object name DM_WEEK instead of schema.object as PK led to a duplicate key!!!
	Existing mapping: (DM_WEEK,bl_scm_ind.DM_WEEK), adding: (DM_WEEK,bl_mfg.DM_WEEK)
insertCall.LoaderTAGreplaceFabFavro.popolateMap()
	WARN: BE CAREFUL: using only the object name MP_DM_DAY instead of schema.object as PK led to a duplicate key!!!
	Existing mapping: (MP_DM_DAY,bl_mfg.MP_DM_DAY), adding: (MP_DM_DAY,bl_scm_ind.MP_DM_DAY)
insertCall.LoaderTAGreplaceFabFavro.popolateMap()
	WARN: BE CAREFUL: using only the object name VS_WT_SUMMARY_DELTA_PO_PREC instead of schema.object as PK led to a duplicate key!!!
	Existing mapping: (VS_WT_SUMMARY_DELTA_PO_PREC,bl_scm_ind.VS_WT_SUMMARY_DELTA_PO_PREC), adding: (VS_WT_SUMMARY_DELTA_PO_PREC,tl_scm_ind.VS_WT_SUMMARY_DELTA_PO_PREC)
