fix_miscellanea.Fix_trim_add_NULLIF2.main()
	TRACE: Starting replacing TRIM calls
fix_miscellanea.Fix_trim_add_NULLIF2.visitFile()
	TRACE: visiting C:\Users\g.barri\Documents\FCA_technology\repository-FCA\Greenplum\datalake\tl_analytics\views\xxdwhapp_vs_dw_day.sql
fix_miscellanea.Fix_trim_add_NULLIF2.main()
	TRACE: Ended replacing TRIM calls
