fix_miscellanea.Fix_FN_JOB_NUM.main()
	TRACE: Starting to replace "PV_OUT_JOBNUM  NUMERIC DEFAULT FN_JOB_NUM;"
fix_miscellanea.Fix_FN_JOB_NUM.main()
	TRACE: Working on the directory C:\Users\g.barri\Desktop\wrk2
fix_miscellanea.Fix_FN_JOB_NUM.main()
	TRACE: start to cycle over files
fix_miscellanea.Fix_FN_JOB_NUM.visitFile()
	TRACE: Substituted in	C:\Users\g.barri\Desktop\wrk2\LAST_60_5647\XXDWHAPP_MP_DW_ANAG_PO_CUSTOMER\tl_scm_ind_mp_dw_anag_po_customer.sql	   PV_OUT_JOBNUM  NUMERIC DEFAULT FN_JOB_NUM;	with	   PV_OUT_JOBNUM  NUMERIC DEFAULT dg_utilities.FN_JOB_NUM();
fix_miscellanea.Fix_FN_JOB_NUM.visitFile()
	TRACE: Substituted in	C:\Users\g.barri\Desktop\wrk2\LAST_60_5647\XXDWHAPP_MP_DW_RANGE_RULES\tl_scm_ind_mp_dw_range_rules.sql	   PV_OUT_JOBNUM  NUMERIC DEFAULT FN_JOB_NUM;	with	   PV_OUT_JOBNUM  NUMERIC DEFAULT dg_utilities.FN_JOB_NUM();
fix_miscellanea.Fix_FN_JOB_NUM.visitFile()
	TRACE: Substituted in	C:\Users\g.barri\Desktop\wrk2\LAST_60_5647\XXDWHAPP_MP_DW_SC_PROGRAMMI_PIVOT_SAP\tl_scm_ind_mp_dw_sc_programmi_pivot_sap.sql	   PV_OUT_JOBNUM  NUMERIC DEFAULT FN_JOB_NUM;	with	   PV_OUT_JOBNUM  NUMERIC DEFAULT dg_utilities.FN_JOB_NUM();
fix_miscellanea.Fix_FN_JOB_NUM.visitFile()
	TRACE: Substituted in	C:\Users\g.barri\Desktop\wrk2\LAST_60_5647\XXDWHAPP_MP_DW_SC_PROG_SAP\tl_scm_ind_mp_dw_sc_prog_sap.sql	   PV_OUT_JOBNUM  NUMERIC DEFAULT FN_JOB_NUM;	with	   PV_OUT_JOBNUM  NUMERIC DEFAULT dg_utilities.FN_JOB_NUM();
fix_miscellanea.Fix_FN_JOB_NUM.visitFile()
	TRACE: Substituted in	C:\Users\g.barri\Desktop\wrk2\LAST_60_5647\XXDWHAPP_MP_DW_SC_SAP_GG_BI\tl_scm_ind_mp_dw_sc_sap_gg_bi.sql	   PV_OUT_JOBNUM  NUMERIC DEFAULT FN_JOB_NUM;	with	   PV_OUT_JOBNUM  NUMERIC DEFAULT dg_utilities.FN_JOB_NUM();
fix_miscellanea.Fix_FN_JOB_NUM.visitFile()
	TRACE: Substituted in	C:\Users\g.barri\Desktop\wrk2\LAST_60_5647\XXDWHAPP_MP_DW_SC_SAP_WW_BI\tl_scm_ind_mp_dw_sc_sap_ww_bi.sql	   PV_OUT_JOBNUM  NUMERIC DEFAULT FN_JOB_NUM;	with	   PV_OUT_JOBNUM  NUMERIC DEFAULT dg_utilities.FN_JOB_NUM();
utilities.SQLSearcher.detectFormerOracleSchema()
	WARN: the object XXDWHAPP.MP_DW_SOGLIE_STABILITA does not have a valid inverse.
fix_miscellanea.Fix_FN_JOB_NUM.newDeclare()
	ERROR: Unable to detect original Oracle schema for file xxdwhapp_mp_dw_soglie_stabilita.sql (C:\Users\g.barri\Desktop\wrk2\LAST_60_5647\XXDWHAPP_MP_DW_SOGLIE_STABILITA\xxdwhapp_mp_dw_soglie_stabilita.sql
fix_miscellanea.Fix_FN_JOB_NUM.visitFile()
	ERROR: intercepted exception Unable to detect original Oracle schema for file xxdwhapp_mp_dw_soglie_stabilita.sql (C:\Users\g.barri\Desktop\wrk2\LAST_60_5647\XXDWHAPP_MP_DW_SOGLIE_STABILITA\xxdwhapp_mp_dw_soglie_stabilita.sql
fix_miscellanea.Fix_FN_JOB_NUM.visitFile()
	TRACE: Substituted in	C:\Users\g.barri\Desktop\wrk2\LAST_60_5647\XXDWHAPP_MP_DW_STABILIMENTI\tl_analytics_mp_dw_stabilimenti.sql	   PV_OUT_JOBNUM  NUMERIC DEFAULT FN_JOB_NUM;	with	   PV_OUT_JOBNUM  NUMERIC DEFAULT dg_utilities.FN_JOB_NUM();
fix_miscellanea.Fix_FN_JOB_NUM.visitFile()
	TRACE: Substituted in	C:\Users\g.barri\Desktop\wrk2\LAST_60_5647\XXDWHAPP_MP_DW_STABILIMENTI_CODFORN\tl_analytics_mp_dw_stabilimenti_codforn.sql	   PV_OUT_JOBNUM  NUMERIC DEFAULT FN_JOB_NUM;	with	   PV_OUT_JOBNUM  NUMERIC DEFAULT dg_utilities.FN_JOB_NUM();
fix_miscellanea.Fix_FN_JOB_NUM.visitFile()
	TRACE: Substituted in	C:\Users\g.barri\Desktop\wrk2\LAST_60_5647\XXDWHAPP_MP_DW_STANDARD_TRANSPORT\tl_scm_ind_mp_dw_standard_transport.sql	   PV_OUT_JOBNUM  NUMERIC DEFAULT FN_JOB_NUM;	with	   PV_OUT_JOBNUM  NUMERIC DEFAULT dg_utilities.FN_JOB_NUM();
fix_miscellanea.Fix_FN_JOB_NUM.visitFile()
	TRACE: Substituted in	C:\Users\g.barri\Desktop\wrk2\LAST_60_5647\XXDWHAPP_MP_DW_TAC\tl_scm_ind_mp_dw_tac.sql	   PV_OUT_JOBNUM  NUMERIC DEFAULT FN_JOB_NUM;	with	   PV_OUT_JOBNUM  NUMERIC DEFAULT dg_utilities.FN_JOB_NUM();
fix_miscellanea.Fix_FN_JOB_NUM.visitFile()
	TRACE: Substituted in	C:\Users\g.barri\Desktop\wrk2\LAST_60_5647\XXDWHAPP_MP_DW_TAC_FGA\tl_scm_ind_mp_dw_tac_fga.sql	   PV_OUT_JOBNUM  NUMERIC DEFAULT FN_JOB_NUM;	with	   PV_OUT_JOBNUM  NUMERIC DEFAULT dg_utilities.FN_JOB_NUM();
fix_miscellanea.Fix_FN_JOB_NUM.visitFile()
	TRACE: Substituted in	C:\Users\g.barri\Desktop\wrk2\LAST_60_5647\XXDWHAPP_MP_DW_TARGETS\tl_scm_ind_mp_dw_targets.sql	   PV_OUT_JOBNUM  NUMERIC DEFAULT FN_JOB_NUM;	with	   PV_OUT_JOBNUM  NUMERIC DEFAULT dg_utilities.FN_JOB_NUM();
fix_miscellanea.Fix_FN_JOB_NUM.visitFile()
	TRACE: Substituted in	C:\Users\g.barri\Desktop\wrk2\LAST_60_5647\XXDWHAPP_MP_DW_TRANS_PN_CHRYSL_FULL\tl_scm_ind_mp_dw_trans_pn_chrysl_full.sql	   PV_OUT_JOBNUM  NUMERIC DEFAULT FN_JOB_NUM;	with	   PV_OUT_JOBNUM  NUMERIC DEFAULT dg_utilities.FN_JOB_NUM();
fix_miscellanea.Fix_FN_JOB_NUM.visitFile()
	TRACE: Substituted in	C:\Users\g.barri\Desktop\wrk2\LAST_60_5647\XXDWHAPP_MP_DW_TRCM_COMSPE\tl_scm_ind_mp_dw_trcm_comspe.sql	   PV_OUT_JOBNUM  NUMERIC DEFAULT FN_JOB_NUM;	with	   PV_OUT_JOBNUM  NUMERIC DEFAULT dg_utilities.FN_JOB_NUM();
fix_miscellanea.Fix_FN_JOB_NUM.visitFile()
	TRACE: Substituted in	C:\Users\g.barri\Desktop\wrk2\LAST_60_5647\XXSCHAPP_MP_DM_ANAGRAFICA_TRANS_DISEGNI\bl_scm_ind_mp_dm_anagrafica_trans_disegni.sql	   PV_OUT_JOBNUM  NUMERIC DEFAULT FN_JOB_NUM;	with	   PV_OUT_JOBNUM  NUMERIC DEFAULT bl_scm_ind.FN_JOB_NUM();
fix_miscellanea.Fix_FN_JOB_NUM.visitFile()
	TRACE: Substituted in	C:\Users\g.barri\Desktop\wrk2\LAST_60_5647\XXSCHAPP_MP_DM_ASS_FEATURES_BI\bl_scm_ind_mp_dm_ass_features_bi.sql	   PV_OUT_JOBNUM  NUMERIC DEFAULT FN_JOB_NUM;	with	   PV_OUT_JOBNUM  NUMERIC DEFAULT bl_scm_ind.FN_JOB_NUM();
fix_miscellanea.Fix_FN_JOB_NUM.visitFile()
	TRACE: Substituted in	C:\Users\g.barri\Desktop\wrk2\LAST_60_5647\XXSCHAPP_MP_FT_ADM_LOG_IRF_GLOBAL\bl_scm_ind_mp_ft_adm_log_irf_global.sql	   PV_OUT_JOBNUM  NUMERIC DEFAULT FN_JOB_NUM;	with	   PV_OUT_JOBNUM  NUMERIC DEFAULT bl_scm_ind.FN_JOB_NUM();
fix_miscellanea.Fix_FN_JOB_NUM.visitFile()
	TRACE: Substituted in	C:\Users\g.barri\Desktop\wrk2\LAST_60_5647\XXSCHAPP_MP_FT_ALERT_IRF_GLOBAL\bl_scm_ind_mp_ft_alert_irf_global.sql	   PV_OUT_JOBNUM  NUMERIC DEFAULT FN_JOB_NUM;	with	   PV_OUT_JOBNUM  NUMERIC DEFAULT bl_scm_ind.FN_JOB_NUM();
fix_miscellanea.Fix_FN_JOB_NUM.main()
	TRACE: Ended the replaces of "PV_OUT_JOBNUM  NUMERIC DEFAULT FN_JOB_NUM;"
