fix_miscellanea.Fix_log_variable_declaration.main()
	TRACE: Starting to fix the values assigned to PV_JOB_CATENA_ID and PV_RTA_LOB_NAME
fix_miscellanea.Fix_log_variable_declaration.main()
	TRACE: Working on the directory C:\Users\g.barri\Desktop\wrk\XXDWHAPP_MP_ST_CAUSALI_MDR
fix_miscellanea.Fix_log_variable_declaration.main()
	TRACE: start to cycle over files
fix_miscellanea.Fix_log_variable_declaration.main()
	TRACE: Ended the replaces of the values assigned to PV_JOB_CATENA_ID and PV_RTA_LOB_NAME
