schemaMapping.LoaderSchemaMap.popolateMap()
	TRACE: Retrivieng Table
schemaMapping.LoaderSchemaMap.popolateMap()
	TRACE: --Completed Table
schemaMapping.LoaderSchemaMap.popolateMap()
	TRACE: Retrivieng External Table
schemaMapping.LoaderSchemaMap.popolateMap()
	TRACE: --Completed External Table
schemaMapping.LoaderSchemaMap.popolateMap()
	TRACE: Retrivieng View
schemaMapping.LoaderSchemaMap.popolateMap()
	TRACE: --Completed View
schemaMapping.LoaderSchemaMap.popolateMap()
	TRACE: Retrivieng Procedure
schemaMapping.LoaderSchemaMap.popolateMap()
	TRACE: --Completed Procedure
schemaMapping.LoaderSchemaMap.popolateMap()
	TRACE: Retrivieng Sequence
schemaMapping.LoaderSchemaMap.popolateMap()
	TRACE: --Completed Sequence
schemaMapping.LoaderSchemaMap.popolateMap()
	TRACE: Retrivieng DbLink Object
schemaMapping.LoaderSchemaMap.popolateMap()
	TRACE: --Completed DbLink Object
schemaMapping.LoaderSchemaMap.loadMap()
	TRACE: --Checking if multiple istances are relevated
schemaMapping.LoaderSchemaMap.loadMap()
	ERROR: the replace map for the schema of	DEI3DE.DW_DETODE	in file C:\Users\g.barri\Downloads\BA2 - DWH Analytics (6).xlsx is not unique! We keep the first one found	[tl_scm_com.DW_DETODE, tl_scm_com.DW_DETODE, tl_scm_com.DW_DETODE]	
schemaMapping.LoaderSchemaMap.printMappingToFile()
	TRACE: Schema replacement map as config file printed at C:\Users\g.barri\Downloads\replace.map
