movements.Move.main()
	INFO: Starting main of class movements.Move
dirTree.BasicRuledFolder.<init>()
	DEBUG: new folder test3 at 
C:\Users\g.barri\Desktop\test3
dirTree.BasicRuledFolder.<init>()
	DEBUG: new folder tl_scm_ind at 
C:\Users\g.barri\Desktop\test3\tl_scm_ind
dirTree.BasicRuledFolder.<init>()
	DEBUG: new folder tl_pur at 
C:\Users\g.barri\Desktop\test3\tl_pur
dirTree.BasicRuledFolder.<init>()
	DEBUG: new folder tl_mfg at 
C:\Users\g.barri\Desktop\test3\tl_mfg
dirTree.BasicRuledFolder.<init>()
	DEBUG: new folder tl_analytics at 
C:\Users\g.barri\Desktop\test3\tl_analytics
dirTree.BasicRuledFolder.<init>()
	DEBUG: new folder oracompat at 
C:\Users\g.barri\Desktop\test3\oracompat
dirTree.BasicRuledFolder.<init>()
	DEBUG: new folder lg_mfg at 
C:\Users\g.barri\Desktop\test3\lg_mfg
dirTree.BasicRuledFolder.<init>()
	DEBUG: new folder ds_mfg at 
C:\Users\g.barri\Desktop\test3\ds_mfg
dirTree.BasicRuledFolder.<init>()
	DEBUG: new folder dg_utilities at 
C:\Users\g.barri\Desktop\test3\dg_utilities
dirTree.BasicRuledFolder.<init>()
	DEBUG: new folder bl_scm_ind at 
C:\Users\g.barri\Desktop\test3\bl_scm_ind
dirTree.BasicRuledFolder.<init>()
	DEBUG: new folder bl_mfg at 
C:\Users\g.barri\Desktop\test3\bl_mfg
dirTree.BasicRuledFolder.<init>()
	DEBUG: new folder views at 
C:\Users\g.barri\Desktop\test3\tl_scm_ind\views
dirTree.BasicRuledFolder.<init>()
	DEBUG: new folder tables at 
C:\Users\g.barri\Desktop\test3\tl_scm_ind\tables
dirTree.BasicRuledFolder.<init>()
	DEBUG: new folder functions at 
C:\Users\g.barri\Desktop\test3\tl_scm_ind\functions
dirTree.BasicRuledFolder.<init>()
	DEBUG: new folder views at 
C:\Users\g.barri\Desktop\test3\bl_mfg\views
dirTree.BasicRuledFolder.<init>()
	DEBUG: new folder tables at 
C:\Users\g.barri\Desktop\test3\bl_mfg\tables
dirTree.BasicRuledFolder.<init>()
	DEBUG: new folder functions at 
C:\Users\g.barri\Desktop\test3\bl_mfg\functions
dirTree.BasicRuledFolder.<init>()
	DEBUG: new folder views at 
C:\Users\g.barri\Desktop\test3\bl_scm_ind\views
dirTree.BasicRuledFolder.<init>()
	DEBUG: new folder tables at 
C:\Users\g.barri\Desktop\test3\bl_scm_ind\tables
dirTree.BasicRuledFolder.<init>()
	DEBUG: new folder functions at 
C:\Users\g.barri\Desktop\test3\bl_scm_ind\functions
dirTree.BasicRuledFolder.<init>()
	DEBUG: new folder tables at 
C:\Users\g.barri\Desktop\test3\dg_utilities\tables
dirTree.BasicRuledFolder.<init>()
	DEBUG: new folder functions at 
C:\Users\g.barri\Desktop\test3\dg_utilities\functions
dirTree.BasicRuledFolder.<init>()
	DEBUG: new folder tables at 
C:\Users\g.barri\Desktop\test3\ds_mfg\tables
dirTree.BasicRuledFolder.<init>()
	DEBUG: new folder functions at 
C:\Users\g.barri\Desktop\test3\lg_mfg\functions
dirTree.BasicRuledFolder.<init>()
	DEBUG: new folder functions at 
C:\Users\g.barri\Desktop\test3\oracompat\functions
dirTree.BasicRuledFolder.<init>()
	DEBUG: new folder views at 
C:\Users\g.barri\Desktop\test3\tl_analytics\views
dirTree.BasicRuledFolder.<init>()
	DEBUG: new folder tables at 
C:\Users\g.barri\Desktop\test3\tl_analytics\tables
dirTree.BasicRuledFolder.<init>()
	DEBUG: new folder function at 
C:\Users\g.barri\Desktop\test3\tl_analytics\function
dirTree.BasicRuledFolder.<init>()
	DEBUG: new folder views at 
C:\Users\g.barri\Desktop\test3\tl_mfg\views
dirTree.BasicRuledFolder.<init>()
	DEBUG: new folder tables at 
C:\Users\g.barri\Desktop\test3\tl_mfg\tables
dirTree.BasicRuledFolder.<init>()
	DEBUG: new folder functions at 
C:\Users\g.barri\Desktop\test3\tl_mfg\functions
dirTree.BasicRuledFolder.<init>()
	DEBUG: new folder views at 
C:\Users\g.barri\Desktop\test3\tl_pur\views
dirTree.BasicRuledFolder.<init>()
	DEBUG: new folder tables at 
C:\Users\g.barri\Desktop\test3\tl_pur\tables
dirTree.BasicRuledFolder.<init>()
	DEBUG: new folder functions at 
C:\Users\g.barri\Desktop\test3\tl_pur\functions
dirTree.BasicRuledFolder.<init>()
	DEBUG: new folder tl_scm_com at 
C:\Users\g.barri\Desktop\test3\tl_scm_com
dirTree.BasicRuledFolder.<init>()
	DEBUG: new folder views at 
C:\Users\g.barri\Desktop\test3\tl_scm_com\views
dirTree.BasicRuledFolder.<init>()
	DEBUG: new folder tables at 
C:\Users\g.barri\Desktop\test3\tl_scm_com\tables
dirTree.BasicRuledFolder.<init>()
	DEBUG: new folder cns at 
C:\Users\g.barri\Desktop\test3\tl_scm_com\tables\cns
dirTree.BasicRuledFolder.<init>()
	DEBUG: new folder idx at 
C:\Users\g.barri\Desktop\test3\tl_scm_com\tables\idx
dirTree.BasicRuledFolder.<init>()
	DEBUG: new folder functions at 
C:\Users\g.barri\Desktop\test3\tl_scm_com\functions
dirTree.BasicRuledFolder.<init>()
	DEBUG: new folder tl_thp at 
C:\Users\g.barri\Desktop\test3\tl_thp
dirTree.BasicRuledFolder.<init>()
	DEBUG: new folder views at 
C:\Users\g.barri\Desktop\test3\tl_thp\views
dirTree.BasicRuledFolder.<init>()
	DEBUG: new folder tables at 
C:\Users\g.barri\Desktop\test3\tl_thp\tables
dirTree.BasicRuledFolder.<init>()
	DEBUG: new folder cns at 
C:\Users\g.barri\Desktop\test3\tl_thp\tables\cns
dirTree.BasicRuledFolder.<init>()
	DEBUG: new folder idx at 
C:\Users\g.barri\Desktop\test3\tl_thp\tables\idx
dirTree.BasicRuledFolder.<init>()
	DEBUG: new folder functions at 
C:\Users\g.barri\Desktop\test3\tl_thp\functions
dirTree.BasicRuledFolder.<init>()
	DEBUG: new folder tl_sal at 
C:\Users\g.barri\Desktop\test3\tl_sal
dirTree.BasicRuledFolder.<init>()
	DEBUG: new folder views at 
C:\Users\g.barri\Desktop\test3\tl_sal\views
dirTree.BasicRuledFolder.<init>()
	DEBUG: new folder tables at 
C:\Users\g.barri\Desktop\test3\tl_sal\tables
dirTree.BasicRuledFolder.<init>()
	DEBUG: new folder cns at 
C:\Users\g.barri\Desktop\test3\tl_sal\tables\cns
dirTree.BasicRuledFolder.<init>()
	DEBUG: new folder idx at 
C:\Users\g.barri\Desktop\test3\tl_sal\tables\idx
dirTree.BasicRuledFolder.<init>()
	DEBUG: new folder functions at 
C:\Users\g.barri\Desktop\test3\tl_sal\functions
dirTree.BasicRuledFolder.<init>()
	DEBUG: new folder tl_qlt at 
C:\Users\g.barri\Desktop\test3\tl_qlt
dirTree.BasicRuledFolder.<init>()
	DEBUG: new folder views at 
C:\Users\g.barri\Desktop\test3\tl_qlt\views
dirTree.BasicRuledFolder.<init>()
	DEBUG: new folder tables at 
C:\Users\g.barri\Desktop\test3\tl_qlt\tables
dirTree.BasicRuledFolder.<init>()
	DEBUG: new folder cns at 
C:\Users\g.barri\Desktop\test3\tl_qlt\tables\cns
dirTree.BasicRuledFolder.<init>()
	DEBUG: new folder idx at 
C:\Users\g.barri\Desktop\test3\tl_qlt\tables\idx
dirTree.BasicRuledFolder.<init>()
	DEBUG: new folder functions at 
C:\Users\g.barri\Desktop\test3\tl_qlt\functions
dirTree.BasicRuledFolder.<init>()
	DEBUG: new folder tl_fin at 
C:\Users\g.barri\Desktop\test3\tl_fin
dirTree.BasicRuledFolder.<init>()
	DEBUG: new folder views at 
C:\Users\g.barri\Desktop\test3\tl_fin\views
dirTree.BasicRuledFolder.<init>()
	DEBUG: new folder tables at 
C:\Users\g.barri\Desktop\test3\tl_fin\tables
dirTree.BasicRuledFolder.<init>()
	DEBUG: new folder cns at 
C:\Users\g.barri\Desktop\test3\tl_fin\tables\cns
dirTree.BasicRuledFolder.<init>()
	DEBUG: new folder idx at 
C:\Users\g.barri\Desktop\test3\tl_fin\tables\idx
dirTree.BasicRuledFolder.<init>()
	DEBUG: new folder functions at 
C:\Users\g.barri\Desktop\test3\tl_fin\functions
dirTree.BasicRuledFolder.<init>()
	DEBUG: new folder pl_colors at 
C:\Users\g.barri\Desktop\test3\pl_colors
dirTree.BasicRuledFolder.<init>()
	DEBUG: new folder views at 
C:\Users\g.barri\Desktop\test3\pl_colors\views
dirTree.BasicRuledFolder.<init>()
	DEBUG: new folder tables at 
C:\Users\g.barri\Desktop\test3\pl_colors\tables
dirTree.BasicRuledFolder.<init>()
	DEBUG: new folder cns at 
C:\Users\g.barri\Desktop\test3\pl_colors\tables\cns
dirTree.BasicRuledFolder.<init>()
	DEBUG: new folder idx at 
C:\Users\g.barri\Desktop\test3\pl_colors\tables\idx
dirTree.BasicRuledFolder.<init>()
	DEBUG: new folder functions at 
C:\Users\g.barri\Desktop\test3\pl_colors\functions
dirTree.BasicRuledFolder.<init>()
	DEBUG: new folder bl_sal at 
C:\Users\g.barri\Desktop\test3\bl_sal
dirTree.BasicRuledFolder.<init>()
	DEBUG: new folder views at 
C:\Users\g.barri\Desktop\test3\bl_sal\views
dirTree.BasicRuledFolder.<init>()
	DEBUG: new folder tables at 
C:\Users\g.barri\Desktop\test3\bl_sal\tables
dirTree.BasicRuledFolder.<init>()
	DEBUG: new folder cns at 
C:\Users\g.barri\Desktop\test3\bl_sal\tables\cns
dirTree.BasicRuledFolder.<init>()
	DEBUG: new folder idx at 
C:\Users\g.barri\Desktop\test3\bl_sal\tables\idx
dirTree.BasicRuledFolder.<init>()
	DEBUG: new folder functions at 
C:\Users\g.barri\Desktop\test3\bl_sal\functions
dirTree.BasicRuledFolder.<init>()
	DEBUG: new folder tl_afs at 
C:\Users\g.barri\Desktop\test3\tl_afs
dirTree.BasicRuledFolder.<init>()
	DEBUG: new folder views at 
C:\Users\g.barri\Desktop\test3\tl_afs\views
dirTree.BasicRuledFolder.<init>()
	DEBUG: new folder tables at 
C:\Users\g.barri\Desktop\test3\tl_afs\tables
dirTree.BasicRuledFolder.<init>()
	DEBUG: new folder cns at 
C:\Users\g.barri\Desktop\test3\tl_afs\tables\cns
dirTree.BasicRuledFolder.<init>()
	DEBUG: new folder idx at 
C:\Users\g.barri\Desktop\test3\tl_afs\tables\idx
dirTree.BasicRuledFolder.<init>()
	DEBUG: new folder functions at 
C:\Users\g.barri\Desktop\test3\tl_afs\functions
dirTree.BasicRuledFolder.<init>()
	DEBUG: new folder tl_net at 
C:\Users\g.barri\Desktop\test3\tl_net
dirTree.BasicRuledFolder.<init>()
	DEBUG: new folder views at 
C:\Users\g.barri\Desktop\test3\tl_net\views
dirTree.BasicRuledFolder.<init>()
	DEBUG: new folder tables at 
C:\Users\g.barri\Desktop\test3\tl_net\tables
dirTree.BasicRuledFolder.<init>()
	DEBUG: new folder cns at 
C:\Users\g.barri\Desktop\test3\tl_net\tables\cns
dirTree.BasicRuledFolder.<init>()
	DEBUG: new folder idx at 
C:\Users\g.barri\Desktop\test3\tl_net\tables\idx
dirTree.BasicRuledFolder.<init>()
	DEBUG: new folder functions at 
C:\Users\g.barri\Desktop\test3\tl_net\functions
utilities.RepoSearcher.prepare()
	TRACE: Starting to prepare quick search in C:\Users\g.barri\Desktop\test3
utilities.SQLSearcher.scanFor()
	DEBUG: TIME	xxsch_ft_matrice_giorno_ddl.sql	35800922
utilities.SQLSearcher.scanFor()
	DEBUG: TIME	xxsch_ft_matrice_giorno_ddl.sql	13542294
utilities.SQLSearcher.scanFor()
	DEBUG: TIME	xxsch_ft_matrice_giorno_ddl.sql	3525911
utilities.RepoSearcher$MapperRootDirectory.visitFile()
	DEBUG: mapping file xxsch_ft_matrice_giorno_ddl.sql
utilities.SQLSearcher.scanFor()
	DEBUG: TIME	xxsch_ft_matrice_giorno_ddl.sql	8157556
utilities.SQLSearcher.scanFor()
	DEBUG: TIME	xxsch_ft_matrice_giorno_ddl.sql	7567934
utilities.SQLSearcher.scanFor()
	DEBUG: TIME	xxsch_ft_matrice_giorno_ddl.sql	2764593
utilities.SQLSearcher.scanFor()
	DEBUG: TIME	xxsch_ft_matrice_giorno_ddl.sql	3403566
utilities.RepoSearcher.prepare()
	TRACE: Ended preparation
utilities.SQLSearcher.scanFor()
	DEBUG: TIME	info	739213
utilities.SQLSearcher.scanFor()
	DEBUG: TIME	info	804497
utilities.SQLSearcher.scanFor()
	DEBUG: TIME	info	770570
utilities.SQLSearcher.scanFor()
	DEBUG: TIME	info	685237
utilities.SQLSearcher.scanFor()
	DEBUG: TIME	info	712482
utilities.SQLSearcher.scanFor()
	DEBUG: TIME	info	522281
utilities.SQLSearcher.scanFor()
	DEBUG: TIME	info	506345
utilities.SQLSearcher.scanFor()
	DEBUG: TIME	info	562891
utilities.SQLSearcher.scanFor()
	DEBUG: TIME	info	516112
utilities.SQLSearcher.scanFor()
	DEBUG: TIME	info	519197
utilities.SQLSearcher.scanFor()
	DEBUG: TIME	info	753092
utilities.SQLSearcher.scanFor()
	DEBUG: TIME	info	619438
utilities.SQLSearcher.scanFor()
	DEBUG: TIME	info	537702
utilities.SQLSearcher.scanFor()
	DEBUG: TIME	info	526907
utilities.SQLSearcher.scanFor()
	DEBUG: TIME	info	549526
utilities.SQLSearcher.scanFor()
	DEBUG: TIME	info	501205
utilities.SQLSearcher.scanFor()
	DEBUG: TIME	info	464192
utilities.SQLSearcher.scanFor()
	DEBUG: TIME	info	535132
utilities.SQLSearcher.scanFor()
	DEBUG: TIME	info	468305
utilities.SQLSearcher.scanFor()
	DEBUG: TIME	info	490409
utilities.SQLSearcher.scanFor()
	DEBUG: TIME	info	536675
utilities.SQLSearcher.scanFor()
	DEBUG: TIME	info	685751
utilities.SQLSearcher.scanFor()
	DEBUG: TIME	info	512514
utilities.SQLSearcher.scanFor()
	DEBUG: TIME	info	462136
utilities.SQLSearcher.scanFor()
	DEBUG: TIME	info	419984
utilities.SQLSearcher.scanFor()
	DEBUG: TIME	info	618923
utilities.SQLSearcher.scanFor()
	DEBUG: TIME	info	576771
utilities.SQLSearcher.scanFor()
	DEBUG: TIME	info	466249
utilities.SQLSearcher.scanFor()
	DEBUG: TIME	info	572658
utilities.SQLSearcher.scanFor()
	DEBUG: TIME	info	990587
utilities.SQLSearcher.scanFor()
	DEBUG: TIME	info	623036
utilities.SQLSearcher.scanFor()
	DEBUG: TIME	info	931469
utilities.SQLSearcher.scanFor()
	DEBUG: TIME	info	742811
utilities.SQLSearcher.scanFor()
	DEBUG: TIME	info	664160
utilities.SQLSearcher.scanFor()
	DEBUG: TIME	info	701173
utilities.SQLSearcher.scanFor()
	DEBUG: TIME	info	815293
utilities.SQLSearcher.scanFor()
	DEBUG: TIME	info	708370
utilities.SQLSearcher.scanFor()
	DEBUG: TIME	info	729960
utilities.SQLSearcher.scanFor()
	DEBUG: TIME	info	673413
utilities.SQLSearcher.scanFor()
	DEBUG: TIME	info	671357
utilities.SQLSearcher.scanFor()
	DEBUG: TIME	info	750008
utilities.SQLSearcher.scanFor()
	DEBUG: TIME	info	773654
utilities.SQLSearcher.scanFor()
	DEBUG: TIME	info	1304674
utilities.SQLSearcher.scanFor()
	DEBUG: TIME	info	1033767
utilities.SQLSearcher.scanFor()
	DEBUG: TIME	info	803470
utilities.SQLSearcher.scanFor()
	DEBUG: TIME	info	924273
utilities.SQLSearcher.scanFor()
	DEBUG: TIME	info	702201
utilities.SQLSearcher.scanFor()
	DEBUG: TIME	info	604016
utilities.SQLSearcher.scanFor()
	DEBUG: TIME	info	693461
utilities.SQLSearcher.scanFor()
	DEBUG: TIME	info	716595
utilities.SQLSearcher.scanFor()
	DEBUG: TIME	info	923245
utilities.SQLSearcher.scanFor()
	DEBUG: TIME	info	736128
utilities.SQLSearcher.scanFor()
	DEBUG: TIME	info	844594
utilities.SQLSearcher.scanFor()
	DEBUG: TIME	info	781366
utilities.SQLSearcher.scanFor()
	DEBUG: TIME	info	692948
utilities.SQLSearcher.scanFor()
	DEBUG: TIME	info	644626
utilities.SQLSearcher.scanFor()
	DEBUG: TIME	info	642570
utilities.SQLSearcher.scanFor()
	DEBUG: TIME	info	686265
utilities.SQLSearcher.scanFor()
	DEBUG: TIME	info	449799
utilities.SQLSearcher.scanFor()
	DEBUG: TIME	info	425125
utilities.SQLSearcher.scanFor()
	DEBUG: TIME	info	399422
utilities.SQLSearcher.scanFor()
	DEBUG: TIME	info	417928
utilities.SQLSearcher.scanFor()
	DEBUG: TIME	info	492980
utilities.SQLSearcher.scanFor()
	DEBUG: TIME	info	1503100
utilities.SQLSearcher.scanFor()
	DEBUG: TIME	info	681638
utilities.SQLSearcher.scanFor()
	DEBUG: TIME	info	543872
utilities.SQLSearcher.scanFor()
	DEBUG: TIME	info	525365
utilities.SQLSearcher.scanFor()
	DEBUG: TIME	info	569060
utilities.SQLSearcher.scanFor()
	DEBUG: TIME	info	473960
utilities.SQLSearcher.scanFor()
	DEBUG: TIME	info	445686
utilities.SQLSearcher.scanFor()
	DEBUG: TIME	info	597333
utilities.SQLSearcher.scanFor()
	DEBUG: TIME	info	571116
utilities.SQLSearcher.scanFor()
	DEBUG: TIME	info	502232
utilities.SQLSearcher.scanFor()
	DEBUG: TIME	info	532048
utilities.SQLSearcher.scanFor()
	DEBUG: TIME	info	516626
utilities.SQLSearcher.scanFor()
	DEBUG: TIME	info	505318
utilities.SQLSearcher.scanFor()
	DEBUG: TIME	info	540787
utilities.SQLSearcher.scanFor()
	DEBUG: TIME	info	549012
utilities.SQLSearcher.scanFor()
	DEBUG: TIME	info	511486
utilities.SQLSearcher.scanFor()
	DEBUG: TIME	info	511485
utilities.SQLSearcher.scanFor()
	DEBUG: TIME	info	476016
utilities.SQLSearcher.scanFor()
	DEBUG: TIME	info	564434
utilities.SQLSearcher.scanFor()
	DEBUG: TIME	info	568032
utilities.SQLSearcher.scanFor()
	DEBUG: TIME	info	500691
utilities.SQLSearcher.scanFor()
	DEBUG: TIME	info	592193
utilities.SQLSearcher.scanFor()
	DEBUG: TIME	info	595277
utilities.SQLSearcher.scanFor()
	DEBUG: TIME	info	791132
utilities.SQLSearcher.scanFor()
	DEBUG: TIME	info	759775
utilities.SQLSearcher.scanFor()
	DEBUG: TIME	info	821462
utilities.SQLSearcher.scanFor()
	DEBUG: TIME	info	645140
utilities.SQLSearcher.scanFor()
	DEBUG: TIME	info	504803
utilities.SQLSearcher.scanFor()
	DEBUG: TIME	info	596819
utilities.SQLSearcher.scanFor()
	DEBUG: TIME	info	554152
utilities.SQLSearcher.scanFor()
	DEBUG: TIME	info	529478
utilities.SQLSearcher.scanFor()
	DEBUG: TIME	info	506859
utilities.SQLSearcher.scanFor()
	DEBUG: TIME	info	497093
utilities.SQLSearcher.scanFor()
	DEBUG: TIME	info	452370
utilities.SQLSearcher.scanFor()
	DEBUG: TIME	info	472931
utilities.SQLSearcher.scanFor()
	DEBUG: TIME	info	512514
utilities.SQLSearcher.scanFor()
	DEBUG: TIME	info	468305
utilities.SQLSearcher.scanFor()
	DEBUG: TIME	info	411245
utilities.SQLSearcher.scanFor()
	DEBUG: TIME	info	403534
utilities.SQLSearcher.scanFor()
	DEBUG: TIME	info	428723
utilities.SQLSearcher.scanFor()
	DEBUG: TIME	info	401478
utilities.SQLSearcher.scanFor()
	DEBUG: TIME	info	451855
utilities.SQLSearcher.scanFor()
	DEBUG: TIME	info	449285
utilities.SQLSearcher.scanFor()
	DEBUG: TIME	info	452369
utilities.SQLSearcher.scanFor()
	DEBUG: TIME	info	448256
utilities.SQLSearcher.scanFor()
	DEBUG: TIME	info	395824
utilities.SQLSearcher.scanFor()
	DEBUG: TIME	info	382457
utilities.SQLSearcher.scanFor()
	DEBUG: TIME	info	361381
utilities.SQLSearcher.scanFor()
	DEBUG: TIME	info	375261
utilities.SQLSearcher.scanFor()
	DEBUG: TIME	info	527935
utilities.SQLSearcher.scanFor()
	DEBUG: TIME	info	569060
utilities.SQLSearcher.scanFor()
	DEBUG: TIME	info	594763
utilities.SQLSearcher.scanFor()
	DEBUG: TIME	info	561863
utilities.SQLSearcher.scanFor()
	DEBUG: TIME	info	525879
utilities.SQLSearcher.scanFor()
	DEBUG: TIME	info	455967
utilities.SQLSearcher.scanFor()
	DEBUG: TIME	info	481157
utilities.SQLSearcher.scanFor()
	DEBUG: TIME	info	586538
utilities.SQLSearcher.scanFor()
	DEBUG: TIME	info	534618
utilities.SQLSearcher.scanFor()
	DEBUG: TIME	info	541301
utilities.SQLSearcher.scanFor()
	DEBUG: TIME	info	481157
utilities.SQLSearcher.scanFor()
	DEBUG: TIME	info	440032
utilities.SQLSearcher.scanFor()
	DEBUG: TIME	info	440032
utilities.SQLSearcher.scanFor()
	DEBUG: TIME	info	489895
utilities.SQLSearcher.scanFor()
	DEBUG: TIME	info	598361
utilities.SQLSearcher.scanFor()
	DEBUG: TIME	info	560836
utilities.SQLSearcher.scanFor()
	DEBUG: TIME	info	459566
utilities.SQLSearcher.scanFor()
	DEBUG: TIME	info	476530
utilities.SQLSearcher.scanFor()
	DEBUG: TIME	info	439518
utilities.SQLSearcher.scanFor()
	DEBUG: TIME	info	459566
utilities.SQLSearcher.scanFor()
	DEBUG: TIME	info	492466
utilities.SQLSearcher.scanFor()
	DEBUG: TIME	info	486811
utilities.SQLSearcher.scanFor()
	DEBUG: TIME	info	467277
utilities.SQLSearcher.scanFor()
	DEBUG: TIME	info	513028
utilities.SQLSearcher.scanFor()
	DEBUG: TIME	info	464707
utilities.SQLSearcher.scanFor()
	DEBUG: TIME	info	458538
utilities.SQLSearcher.scanFor()
	DEBUG: TIME	info	487325
utilities.SQLSearcher.scanFor()
	DEBUG: TIME	info	532562
utilities.SQLSearcher.scanFor()
	DEBUG: TIME	info	535132
utilities.SQLSearcher.scanFor()
	DEBUG: TIME	info	614297
utilities.SQLSearcher.scanFor()
	DEBUG: TIME	info	592707
utilities.SQLSearcher.scanFor()
	DEBUG: TIME	info	695004
utilities.SQLSearcher.scanFor()
	DEBUG: TIME	info	535132
utilities.SQLSearcher.scanFor()
	DEBUG: TIME	info	553125
utilities.SQLSearcher.scanFor()
	DEBUG: TIME	info	515599
utilities.SQLSearcher.scanFor()
	DEBUG: TIME	info	418442
utilities.SQLSearcher.scanFor()
	DEBUG: TIME	info	427181
utilities.SQLSearcher.scanFor()
	DEBUG: TIME	info	443116
utilities.SQLSearcher.scanFor()
	DEBUG: TIME	info	411759
utilities.SQLSearcher.scanFor()
	DEBUG: TIME	info	448257
utilities.SQLSearcher.scanFor()
	DEBUG: TIME	info	469333
utilities.SQLSearcher.scanFor()
	DEBUG: TIME	info	426666
utilities.SQLSearcher.scanFor()
	DEBUG: TIME	info	539245
utilities.SQLSearcher.scanFor()
	DEBUG: TIME	info	521252
utilities.SQLSearcher.scanFor()
	DEBUG: TIME	info	486811
utilities.SQLSearcher.scanFor()
	DEBUG: TIME	info	507887
utilities.SQLSearcher.scanFor()
	DEBUG: TIME	info	454940
utilities.SQLSearcher.scanFor()
	DEBUG: TIME	info	528450
utilities.SQLSearcher.scanFor()
	DEBUG: TIME	info	540273
utilities.SQLSearcher.scanFor()
	DEBUG: TIME	info	525365
utilities.SQLSearcher.scanFor()
	DEBUG: TIME	info	473960
utilities.SQLSearcher.scanFor()
	DEBUG: TIME	info	517140
utilities.SQLSearcher.scanFor()
	DEBUG: TIME	info	484241
utilities.SQLSearcher.scanFor()
	DEBUG: TIME	info	540787
utilities.SQLSearcher.scanFor()
	DEBUG: TIME	info	534618
utilities.SQLSearcher.scanFor()
	DEBUG: TIME	info	528450
utilities.SQLSearcher.scanFor()
	DEBUG: TIME	info	615325
utilities.SQLSearcher.scanFor()
	DEBUG: TIME	info	665702
utilities.SQLSearcher.scanFor()
	DEBUG: TIME	info	902683
utilities.SQLSearcher.scanFor()
	DEBUG: TIME	info	640514
utilities.SQLSearcher.scanFor()
	DEBUG: TIME	info	611727
utilities.SQLSearcher.scanFor()
	DEBUG: TIME	info	731502
utilities.SQLSearcher.scanFor()
	DEBUG: TIME	info	520739
utilities.SQLSearcher.scanFor()
	DEBUG: TIME	info	505317
utilities.SQLSearcher.scanFor()
	DEBUG: TIME	info	501205
utilities.SQLSearcher.scanFor()
	DEBUG: TIME	info	485269
utilities.SQLSearcher.scanFor()
	DEBUG: TIME	info	496578
utilities.SQLSearcher.scanFor()
	DEBUG: TIME	info	482698
utilities.SQLSearcher.scanFor()
	DEBUG: TIME	info	428723
utilities.SQLSearcher.scanFor()
	DEBUG: TIME	info	426666
utilities.SQLSearcher.scanFor()
	DEBUG: TIME	info	423068
utilities.SQLSearcher.scanFor()
	DEBUG: TIME	info	424096
utilities.SQLSearcher.scanFor()
	DEBUG: TIME	info	871839
utilities.SQLSearcher.scanFor()
	DEBUG: TIME	info	496064
utilities.SQLSearcher.scanFor()
	DEBUG: TIME	info	455454
utilities.SQLSearcher.scanFor()
	DEBUG: TIME	info	415872
utilities.SQLSearcher.scanFor()
	DEBUG: TIME	info	429236
utilities.SQLSearcher.scanFor()
	DEBUG: TIME	info	444658
utilities.SQLSearcher.scanFor()
	DEBUG: TIME	info	476530
utilities.SQLSearcher.scanFor()
	DEBUG: TIME	info	412787
utilities.SQLSearcher.scanFor()
	DEBUG: TIME	info	400964
utilities.SQLSearcher.scanFor()
	DEBUG: TIME	info	346988
utilities.SQLSearcher.scanFor()
	DEBUG: TIME	info	399936
utilities.SQLSearcher.scanFor()
	DEBUG: TIME	info	377317
utilities.SQLSearcher.scanFor()
	DEBUG: TIME	info	547470
utilities.SQLSearcher.scanFor()
	DEBUG: TIME	info	685237
utilities.SQLSearcher.scanFor()
	DEBUG: TIME	info	677525
utilities.SQLSearcher.scanFor()
	DEBUG: TIME	info	606072
utilities.SQLSearcher.scanFor()
	DEBUG: TIME	info	477044
utilities.SQLSearcher.scanFor()
	DEBUG: TIME	info	497092
utilities.SQLSearcher.scanFor()
	DEBUG: TIME	info	516627
utilities.SQLSearcher.scanFor()
	DEBUG: TIME	info	460594
utilities.SQLSearcher.scanFor()
	DEBUG: TIME	info	593221
utilities.SQLSearcher.scanFor()
	DEBUG: TIME	info	549526
utilities.SQLSearcher.scanFor()
	DEBUG: TIME	info	558779
utilities.SQLSearcher.scanFor()
	DEBUG: TIME	info	474988
utilities.SQLSearcher.scanFor()
	DEBUG: TIME	info	515598
utilities.SQLSearcher.scanFor()
	DEBUG: TIME	info	508401
utilities.SQLSearcher.scanFor()
	DEBUG: TIME	info	724819
utilities.SQLSearcher.scanFor()
	DEBUG: TIME	info	583454
utilities.SQLSearcher.scanFor()
	DEBUG: TIME	info	560321
utilities.SQLSearcher.scanFor()
	DEBUG: TIME	info	698602
utilities.SQLSearcher.scanFor()
	DEBUG: TIME	info	632803
utilities.SQLSearcher.scanFor()
	DEBUG: TIME	info	611727
utilities.SQLSearcher.scanFor()
	DEBUG: TIME	info	590137
utilities.SQLSearcher.scanFor()
	DEBUG: TIME	info	559807
utilities.SQLSearcher.scanFor()
	DEBUG: TIME	info	524338
utilities.SQLSearcher.scanFor()
	DEBUG: TIME	info	505317
utilities.SQLSearcher.scanFor()
	DEBUG: TIME	info	469847
utilities.SQLSearcher.scanFor()
	DEBUG: TIME	info	462651
utilities.SQLSearcher.scanFor()
	DEBUG: TIME	info	653366
utilities.SQLSearcher.scanFor()
	DEBUG: TIME	info	583968
utilities.SQLSearcher.scanFor()
	DEBUG: TIME	info	539759
utilities.SQLSearcher.scanFor()
	DEBUG: TIME	info	517654
utilities.SQLSearcher.scanFor()
	DEBUG: TIME	info	429751
utilities.SQLSearcher.scanFor()
	DEBUG: TIME	info	428723
utilities.SQLSearcher.scanFor()
	DEBUG: TIME	info	406619
utilities.SQLSearcher.scanFor()
	DEBUG: TIME	info	392224
utilities.SQLSearcher.scanFor()
	DEBUG: TIME	info	387084
utilities.SQLSearcher.scanFor()
	DEBUG: TIME	info	494008
utilities.SQLSearcher.scanFor()
	DEBUG: TIME	info	688321
utilities.SQLSearcher.scanFor()
	DEBUG: TIME	info	489895
utilities.SQLSearcher.scanFor()
	DEBUG: TIME	info	382458
utilities.SQLSearcher.scanFor()
	DEBUG: TIME	info	665702
utilities.SQLSearcher.scanFor()
	DEBUG: TIME	info	424610
utilities.SQLSearcher.scanFor()
	DEBUG: TIME	info	442088
utilities.SQLSearcher.scanFor()
	DEBUG: TIME	info	611727
utilities.SQLSearcher.scanFor()
	DEBUG: TIME	info	647196
utilities.SQLSearcher.scanFor()
	DEBUG: TIME	info	833799
utilities.SQLSearcher.scanFor()
	DEBUG: TIME	info	782393
utilities.SQLSearcher.scanFor()
	DEBUG: TIME	info	663646
utilities.SQLSearcher.scanFor()
	DEBUG: TIME	info	793189
utilities.SQLSearcher.scanFor()
	DEBUG: TIME	info	579341
utilities.SQLSearcher.scanFor()
	DEBUG: TIME	info	541301
utilities.SQLSearcher.scanFor()
	DEBUG: TIME	info	545928
utilities.SQLSearcher.scanFor()
	DEBUG: TIME	info	617895
utilities.SQLSearcher.scanFor()
	DEBUG: TIME	info	773654
utilities.SQLSearcher.scanFor()
	DEBUG: TIME	info	634859
utilities.SQLSearcher.scanFor()
	DEBUG: TIME	info	513542
utilities.SQLSearcher.scanFor()
	DEBUG: TIME	info	525366
utilities.SQLSearcher.scanFor()
	DEBUG: TIME	info	504289
utilities.SQLSearcher.scanFor()
	DEBUG: TIME	info	489895
utilities.SQLSearcher.scanFor()
	DEBUG: TIME	info	504803
utilities.SQLSearcher.scanFor()
	DEBUG: TIME	info	490410
utilities.SQLSearcher.scanFor()
	DEBUG: TIME	info	514056
utilities.SQLSearcher.scanFor()
	DEBUG: TIME	info	508401
utilities.SQLSearcher.scanFor()
	DEBUG: TIME	info	437976
utilities.SQLSearcher.scanFor()
	DEBUG: TIME	info	550554
utilities.SQLSearcher.scanFor()
	DEBUG: TIME	info	587566
utilities.SQLSearcher.scanFor()
	DEBUG: TIME	info	504289
utilities.SQLSearcher.scanFor()
	DEBUG: TIME	info	544385
utilities.SQLSearcher.scanFor()
	DEBUG: TIME	info	591164
utilities.SQLSearcher.scanFor()
	DEBUG: TIME	info	481671
utilities.SQLSearcher.scanFor()
	DEBUG: TIME	info	449799
utilities.SQLSearcher.scanFor()
	DEBUG: TIME	info	520225
utilities.SQLSearcher.scanFor()
	DEBUG: TIME	info	428209
utilities.SQLSearcher.scanFor()
	DEBUG: TIME	info	388626
utilities.SQLSearcher.scanFor()
	DEBUG: TIME	info	438489
utilities.SQLSearcher.scanFor()
	DEBUG: TIME	info	373205
utilities.SQLSearcher.scanFor()
	DEBUG: TIME	info	360867
utilities.SQLSearcher.scanFor()
	DEBUG: TIME	info	333622
utilities.SQLSearcher.scanFor()
	DEBUG: TIME	info	417413
utilities.SQLSearcher.scanFor()
	DEBUG: TIME	info	429751
utilities.SQLSearcher.scanFor()
	DEBUG: TIME	info	389655
utilities.SQLSearcher.scanFor()
	DEBUG: TIME	info	440032
utilities.SQLSearcher.scanFor()
	DEBUG: TIME	info	461622
utilities.SQLSearcher.scanFor()
	DEBUG: TIME	info	427695
utilities.SQLSearcher.scanFor()
	DEBUG: TIME	info	394795
utilities.SQLSearcher.scanFor()
	DEBUG: TIME	info	463165
utilities.SQLSearcher.scanFor()
	DEBUG: TIME	info	487839
utilities.SQLSearcher.scanFor()
	DEBUG: TIME	info	453911
utilities.SQLSearcher.scanFor()
	DEBUG: TIME	info	422555
utilities.SQLSearcher.scanFor()
	DEBUG: TIME	info	435405
utilities.SQLSearcher.scanFor()
	DEBUG: TIME	info	429236
utilities.SQLSearcher.scanFor()
	DEBUG: TIME	info	412273
utilities.SQLSearcher.scanFor()
	DEBUG: TIME	info	466249
utilities.SQLSearcher.scanFor()
	DEBUG: TIME	info	418441
utilities.SQLSearcher.scanFor()
	DEBUG: TIME	info	463164
utilities.SQLSearcher.scanFor()
	DEBUG: TIME	info	597333
utilities.SQLSearcher.scanFor()
	DEBUG: TIME	info	479614
utilities.SQLSearcher.scanFor()
	DEBUG: TIME	info	443630
utilities.SQLSearcher.scanFor()
	DEBUG: TIME	info	455454
utilities.SQLSearcher.scanFor()
	DEBUG: TIME	info	459052
utilities.SQLSearcher.scanFor()
	DEBUG: TIME	info	491952
utilities.SQLSearcher.scanFor()
	DEBUG: TIME	info	492980
utilities.SQLSearcher.scanFor()
	DEBUG: TIME	info	452884
utilities.SQLSearcher.scanFor()
	DEBUG: TIME	info	421012
utilities.SQLSearcher.scanFor()
	DEBUG: TIME	info	435919
utilities.SQLSearcher.scanFor()
	DEBUG: TIME	info	425125
utilities.SQLSearcher.scanFor()
	DEBUG: TIME	info	478072
utilities.SQLSearcher.scanFor()
	DEBUG: TIME	info	453911
utilities.SQLSearcher.scanFor()
	DEBUG: TIME	info	470876
utilities.SQLSearcher.scanFor()
	DEBUG: TIME	info	475501
utilities.SQLSearcher.scanFor()
	DEBUG: TIME	info	491952
utilities.SQLSearcher.scanFor()
	DEBUG: TIME	info	995726
utilities.SQLSearcher.scanFor()
	DEBUG: TIME	info	526394
utilities.SQLSearcher.scanFor()
	DEBUG: TIME	info	474474
utilities.SQLSearcher.scanFor()
	DEBUG: TIME	info	465735
utilities.SQLSearcher.scanFor()
	DEBUG: TIME	info	380915
utilities.SQLSearcher.scanFor()
	DEBUG: TIME	info	421526
utilities.SQLSearcher.scanFor()
	DEBUG: TIME	info	370120
utilities.SQLSearcher.scanFor()
	DEBUG: TIME	info	415871
utilities.SQLSearcher.scanFor()
	DEBUG: TIME	info	408160
utilities.SQLSearcher.scanFor()
	DEBUG: TIME	info	421526
utilities.SQLSearcher.scanFor()
	DEBUG: TIME	info	408160
utilities.SQLSearcher.scanFor()
	DEBUG: TIME	info	396851
utilities.SQLSearcher.scanFor()
	DEBUG: TIME	info	413301
utilities.SQLSearcher.scanFor()
	DEBUG: TIME	info	623036
utilities.SQLSearcher.scanFor()
	DEBUG: TIME	info	506345
utilities.SQLSearcher.scanFor()
	DEBUG: TIME	info	576257
utilities.SQLSearcher.scanFor()
	DEBUG: TIME	info	784963
utilities.SQLSearcher.scanFor()
	DEBUG: TIME	info	901654
utilities.SQLSearcher.scanFor()
	DEBUG: TIME	info	774169
utilities.SQLSearcher.scanFor()
	DEBUG: TIME	info	727903
utilities.SQLSearcher.scanFor()
	DEBUG: TIME	info	742811
utilities.SQLSearcher.scanFor()
	DEBUG: TIME	info	578313
utilities.SQLSearcher.scanFor()
	DEBUG: TIME	info	508915
utilities.SQLSearcher.scanFor()
	DEBUG: TIME	info	522281
utilities.SQLSearcher.scanFor()
	DEBUG: TIME	info	628177
utilities.SQLSearcher.scanFor()
	DEBUG: TIME	info	500176
utilities.SQLSearcher.scanFor()
	DEBUG: TIME	info	462136
utilities.SQLSearcher.scanFor()
	DEBUG: TIME	info	575743
utilities.SQLSearcher.scanFor()
	DEBUG: TIME	info	530506
utilities.SQLSearcher.scanFor()
	DEBUG: TIME	info	538217
utilities.SQLSearcher.scanFor()
	DEBUG: TIME	info	551069
utilities.SQLSearcher.scanFor()
	DEBUG: TIME	info	471904
utilities.SQLSearcher.scanFor()
	DEBUG: TIME	info	474474
utilities.SQLSearcher.scanFor()
	DEBUG: TIME	info	484241
utilities.SQLSearcher.scanFor()
	DEBUG: TIME	info	473446
utilities.SQLSearcher.scanFor()
	DEBUG: TIME	info	460595
utilities.SQLSearcher.scanFor()
	DEBUG: TIME	info	443631
utilities.SQLSearcher.scanFor()
	DEBUG: TIME	info	567518
utilities.SQLSearcher.scanFor()
	DEBUG: TIME	info	483212
utilities.SQLSearcher.scanFor()
	DEBUG: TIME	info	477044
utilities.SQLSearcher.scanFor()
	DEBUG: TIME	info	454426
utilities.SQLSearcher.scanFor()
	DEBUG: TIME	info	375775
utilities.SQLSearcher.scanFor()
	DEBUG: TIME	info	358811
utilities.SQLSearcher.scanFor()
	DEBUG: TIME	info	463164
utilities.SQLSearcher.scanFor()
	DEBUG: TIME	info	401992
utilities.SQLSearcher.scanFor()
	DEBUG: TIME	info	390168
utilities.SQLSearcher.scanFor()
	DEBUG: TIME	info	370121
utilities.SQLSearcher.scanFor()
	DEBUG: TIME	info	409188
utilities.SQLSearcher.scanFor()
	DEBUG: TIME	info	361896
utilities.SQLSearcher.scanFor()
	DEBUG: TIME	info	397879
utilities.SQLSearcher.scanFor()
	DEBUG: TIME	info	349044
utilities.SQLSearcher.scanFor()
	DEBUG: TIME	info	353156
utilities.SQLSearcher.scanFor()
	DEBUG: TIME	info	355213
utilities.SQLSearcher.scanFor()
	DEBUG: TIME	info	354698
utilities.SQLSearcher.scanFor()
	DEBUG: TIME	info	342362
utilities.SQLSearcher.scanFor()
	DEBUG: TIME	info	387084
utilities.SQLSearcher.scanFor()
	DEBUG: TIME	info	348016
utilities.SQLSearcher.scanFor()
	DEBUG: TIME	info	404562
utilities.SQLSearcher.scanFor()
	DEBUG: TIME	info	561349
utilities.SQLSearcher.scanFor()
	DEBUG: TIME	info	497606
utilities.SQLSearcher.scanFor()
	DEBUG: TIME	info	445172
utilities.SQLSearcher.scanFor()
	DEBUG: TIME	info	394281
utilities.SQLSearcher.scanFor()
	DEBUG: TIME	info	418956
utilities.SQLSearcher.scanFor()
	DEBUG: TIME	info	447229
utilities.SQLSearcher.scanFor()
	DEBUG: TIME	info	437462
utilities.SQLSearcher.scanFor()
	DEBUG: TIME	info	424611
utilities.SQLSearcher.scanFor()
	DEBUG: TIME	info	418441
utilities.SQLSearcher.scanFor()
	DEBUG: TIME	info	378345
utilities.SQLSearcher.scanFor()
	DEBUG: TIME	info	439518
utilities.SQLSearcher.scanFor()
	DEBUG: TIME	info	405590
utilities.SQLSearcher.scanFor()
	DEBUG: TIME	info	403020
utilities.SQLSearcher.scanFor()
	DEBUG: TIME	info	412788
utilities.SQLSearcher.scanFor()
	DEBUG: TIME	xxsch_ft_matrice_giorno_ddl.sql	6361958
utilities.SQLSearcher.scanFor()
	DEBUG: TIME	xxsch_ft_matrice_giorno_ddl.sql	7323243
utilities.SQLSearcher.scanFor()
	DEBUG: TIME	xxsch_ft_matrice_giorno_ddl.sql	2190393
movements.Move.move()
	TRACE: looking into subdirectory C:\Users\g.barri\Desktop\test3\tl_scm_ind
utilities.SQLSearcher.scanFor()
	DEBUG: TIME	xxsch_ft_matrice_giorno_ddl.sql	6415934
utilities.SQLSearcher.scanFor()
	DEBUG: TIME	xxsch_ft_matrice_giorno_ddl.sql	7086263
utilities.SQLSearcher.scanFor()
	DEBUG: TIME	xxsch_ft_matrice_giorno_ddl.sql	2042345
utilities.SQLSearcher.scanFor()
	DEBUG: TIME	xxsch_ft_matrice_giorno_ddl.sql	2387791
movements.Move.move()
	TRACE: looking into subdirectory C:\Users\g.barri\Desktop\test3\tl_pur
utilities.SQLSearcher.scanFor()
	DEBUG: TIME	xxsch_ft_matrice_giorno_ddl.sql	5905476
utilities.SQLSearcher.scanFor()
	DEBUG: TIME	xxsch_ft_matrice_giorno_ddl.sql	7003500
utilities.SQLSearcher.scanFor()
	DEBUG: TIME	xxsch_ft_matrice_giorno_ddl.sql	2474666
utilities.SQLSearcher.scanFor()
	DEBUG: TIME	xxsch_ft_matrice_giorno_ddl.sql	2106602
movements.Move.move()
	TRACE: looking into subdirectory C:\Users\g.barri\Desktop\test3\tl_mfg
utilities.SQLSearcher.scanFor()
	DEBUG: TIME	xxsch_ft_matrice_giorno_ddl.sql	6471452
utilities.SQLSearcher.scanFor()
	DEBUG: TIME	xxsch_ft_matrice_giorno_ddl.sql	7132528
utilities.SQLSearcher.scanFor()
	DEBUG: TIME	xxsch_ft_matrice_giorno_ddl.sql	2040802
utilities.SQLSearcher.scanFor()
	DEBUG: TIME	xxsch_ft_matrice_giorno_ddl.sql	1895839
movements.Move.move()
	TRACE: looking into subdirectory C:\Users\g.barri\Desktop\test3\tl_analytics
utilities.SQLSearcher.scanFor()
	DEBUG: TIME	xxsch_ft_matrice_giorno_ddl.sql	6379951
utilities.SQLSearcher.scanFor()
	DEBUG: TIME	xxsch_ft_matrice_giorno_ddl.sql	6393830
utilities.SQLSearcher.scanFor()
	DEBUG: TIME	xxsch_ft_matrice_giorno_ddl.sql	1979116
utilities.SQLSearcher.scanFor()
	DEBUG: TIME	xxsch_ft_matrice_giorno_ddl.sql	2300915
movements.Move.move()
	TRACE: looking into subdirectory C:\Users\g.barri\Desktop\test3\oracompat
utilities.SQLSearcher.scanFor()
	DEBUG: TIME	xxsch_ft_matrice_giorno_ddl.sql	5983099
utilities.SQLSearcher.scanFor()
	DEBUG: TIME	xxsch_ft_matrice_giorno_ddl.sql	6342424
utilities.SQLSearcher.scanFor()
	DEBUG: TIME	xxsch_ft_matrice_giorno_ddl.sql	2103004
utilities.SQLSearcher.scanFor()
	DEBUG: TIME	xxsch_ft_matrice_giorno_ddl.sql	1939020
movements.Move.move()
	TRACE: looking into subdirectory C:\Users\g.barri\Desktop\test3\lg_mfg
utilities.SQLSearcher.scanFor()
	DEBUG: TIME	xxsch_ft_matrice_giorno_ddl.sql	6824609
utilities.SQLSearcher.scanFor()
	DEBUG: TIME	xxsch_ft_matrice_giorno_ddl.sql	6401027
utilities.SQLSearcher.scanFor()
	DEBUG: TIME	xxsch_ft_matrice_giorno_ddl.sql	1964722
utilities.SQLSearcher.scanFor()
	DEBUG: TIME	xxsch_ft_matrice_giorno_ddl.sql	2915213
movements.Move.move()
	TRACE: looking into subdirectory C:\Users\g.barri\Desktop\test3\ds_mfg
utilities.SQLSearcher.scanFor()
	DEBUG: TIME	xxsch_ft_matrice_giorno_ddl.sql	7173139
utilities.SQLSearcher.scanFor()
	DEBUG: TIME	xxsch_ft_matrice_giorno_ddl.sql	6529540
utilities.SQLSearcher.scanFor()
	DEBUG: TIME	xxsch_ft_matrice_giorno_ddl.sql	2491116
utilities.SQLSearcher.scanFor()
	DEBUG: TIME	xxsch_ft_matrice_giorno_ddl.sql	1909204
movements.Move.move()
	TRACE: looking into subdirectory C:\Users\g.barri\Desktop\test3\dg_utilities
utilities.SQLSearcher.scanFor()
	DEBUG: TIME	xxsch_ft_matrice_giorno_ddl.sql	7072897
utilities.SQLSearcher.scanFor()
	DEBUG: TIME	xxsch_ft_matrice_giorno_ddl.sql	6331115
utilities.SQLSearcher.scanFor()
	DEBUG: TIME	xxsch_ft_matrice_giorno_ddl.sql	1992995
utilities.SQLSearcher.scanFor()
	DEBUG: TIME	xxsch_ft_matrice_giorno_ddl.sql	2368770
movements.Move.move()
	TRACE: looking into subdirectory C:\Users\g.barri\Desktop\test3\bl_scm_ind
utilities.SQLSearcher.scanFor()
	DEBUG: TIME	xxsch_ft_matrice_giorno_ddl.sql	5820143
utilities.SQLSearcher.scanFor()
	DEBUG: TIME	xxsch_ft_matrice_giorno_ddl.sql	6717171
utilities.SQLSearcher.scanFor()
	DEBUG: TIME	xxsch_ft_matrice_giorno_ddl.sql	2529670
utilities.SQLSearcher.scanFor()
	DEBUG: TIME	xxsch_ft_matrice_giorno_ddl.sql	2059823
movements.Move.move()
	TRACE: looking into subdirectory C:\Users\g.barri\Desktop\test3\bl_scm_ind\views
utilities.SQLSearcher.scanFor()
	DEBUG: TIME	xxsch_ft_matrice_giorno_ddl.sql	6193862
utilities.SQLSearcher.scanFor()
	DEBUG: TIME	xxsch_ft_matrice_giorno_ddl.sql	6517204
utilities.SQLSearcher.scanFor()
	DEBUG: TIME	xxsch_ft_matrice_giorno_ddl.sql	1925654
movements.Move.move()
	TRACE: looking into subdirectory C:\Users\g.barri\Desktop\test3\bl_scm_ind\tables
utilities.SQLSearcher.scanFor()
	DEBUG: TIME	xxsch_ft_matrice_giorno_ddl.sql	6045300
utilities.SQLSearcher.scanFor()
	DEBUG: TIME	xxsch_ft_matrice_giorno_ddl.sql	6584030
utilities.SQLSearcher.scanFor()
	DEBUG: TIME	xxsch_ft_matrice_giorno_ddl.sql	2005333
movements.Move.moveFileWrap()
	TRACE: Moving file	xxsch_ft_matrice_giorno_ddl.sqlfrom	C:\Users\g.barri\Desktop\test3\xxsch_ft_matrice_giorno_ddl.sql
to	 C:\Users\g.barri\Desktop\test3\bl_scm_ind\tables\xxsch_ft_matrice_giorno_ddl.sql
utilities.SQLSearcher.scanFor()
	DEBUG: TIME	xxsch_ft_matrice_giorno_ddl.sql	6066890
utilities.SQLSearcher.scanFor()
	DEBUG: TIME	xxsch_ft_matrice_giorno_ddl.sql	6693010
utilities.SQLSearcher.scanFor()
	DEBUG: TIME	xxsch_ft_matrice_giorno_ddl.sql	2006875
utilities.SQLSearcher.scanFor()
	DEBUG: TIME	xxsch_ft_matrice_giorno_ddl.sql	2310168
utilities.RepoSearcher.quickSearchFor()
	TRACE: the following files defining the same object bl_scm_ind.FT_MATRICE_GIORNO has been found: []
movements.Move.moveFileWrap()
	ERROR: failed to move the file xxsch_ft_matrice_giorno_ddl.sql to C:\Users\g.barri\Desktop\test3\bl_scm_ind\tables\xxsch_ft_matrice_giorno_ddl.sql: java.nio.file.NoSuchFileException: C:\Users\g.barri\Desktop\test3\xxsch_ft_matrice_giorno_ddl.sql -> C:\Users\g.barri\Desktop\test3\bl_scm_ind\tables\xxsch_ft_matrice_giorno_ddl.sql
	at sun.nio.fs.WindowsException.translateToIOException(WindowsException.java:79)
	at sun.nio.fs.WindowsException.rethrowAsIOException(WindowsException.java:97)
	at sun.nio.fs.WindowsFileCopy.copy(WindowsFileCopy.java:205)
	at sun.nio.fs.WindowsFileSystemProvider.copy(WindowsFileSystemProvider.java:278)
	at java.nio.file.Files.copy(Files.java:1274)
	at movements.Move.moveFileWrap(Move.java:101)
	at movements.Move.move(Move.java:173)
	at movements.Move.move(Move.java:165)
	at movements.Move.move(Move.java:165)
	at movements.Move.goThrough(Move.java:148)
	at movements.Move.goThrough(Move.java:153)
	at movements.Move.main(Move.java:202)
utilities.SQLSearcher.scanFor()
	DEBUG: TIME	xxsch_ft_matrice_giorno_ddl.sql	6642119
utilities.SQLSearcher.scanFor()
	DEBUG: TIME	xxsch_ft_matrice_giorno_ddl.sql	6508978
utilities.SQLSearcher.scanFor()
	DEBUG: TIME	xxsch_ft_matrice_giorno_ddl.sql	2386763
utilities.SQLSearcher.scanFor()
	DEBUG: TIME	xxsch_ft_matrice_giorno_ddl.sql	2008417
movements.Move.moveFileWrap()
	TRACE: Moved ended
movements.Move.main()
	INFO: Ending main of class movements.Move
