movements.Move.main()
	INFO: Starting main of class movements.Move
dirTree.BasicRuledFolder.<init>()
	DEBUG: new folder datalake at 
C:\Users\g.barri\Documents\FCA_technology\repository-FCA\Greenplum\datalake
dirTree.BasicRuledFolder.<init>()
	DEBUG: new folder tl_scm_com at 
C:\Users\g.barri\Documents\FCA_technology\repository-FCA\Greenplum\datalake\tl_scm_com
dirTree.BasicRuledFolder.<init>()
	DEBUG: new folder views at 
C:\Users\g.barri\Documents\FCA_technology\repository-FCA\Greenplum\datalake\tl_scm_com\views
dirTree.BasicRuledFolder.<init>()
	DEBUG: new folder tables at 
C:\Users\g.barri\Documents\FCA_technology\repository-FCA\Greenplum\datalake\tl_scm_com\tables
dirTree.BasicRuledFolder.<init>()
	DEBUG: new folder cns at 
C:\Users\g.barri\Documents\FCA_technology\repository-FCA\Greenplum\datalake\tl_scm_com\tables\cns
dirTree.BasicRuledFolder.<init>()
	DEBUG: new folder idx at 
C:\Users\g.barri\Documents\FCA_technology\repository-FCA\Greenplum\datalake\tl_scm_com\tables\idx
dirTree.BasicRuledFolder.<init>()
	DEBUG: new folder functions at 
C:\Users\g.barri\Documents\FCA_technology\repository-FCA\Greenplum\datalake\tl_scm_com\functions
dirTree.BasicRuledFolder.<init>()
	DEBUG: new folder sequences at 
C:\Users\g.barri\Documents\FCA_technology\repository-FCA\Greenplum\datalake\tl_scm_com\sequences
dirTree.BasicRuledFolder.<init>()
	DEBUG: new folder tl_thp at 
C:\Users\g.barri\Documents\FCA_technology\repository-FCA\Greenplum\datalake\tl_thp
dirTree.BasicRuledFolder.<init>()
	DEBUG: new folder views at 
C:\Users\g.barri\Documents\FCA_technology\repository-FCA\Greenplum\datalake\tl_thp\views
dirTree.BasicRuledFolder.<init>()
	DEBUG: new folder tables at 
C:\Users\g.barri\Documents\FCA_technology\repository-FCA\Greenplum\datalake\tl_thp\tables
dirTree.BasicRuledFolder.<init>()
	DEBUG: new folder cns at 
C:\Users\g.barri\Documents\FCA_technology\repository-FCA\Greenplum\datalake\tl_thp\tables\cns
dirTree.BasicRuledFolder.<init>()
	DEBUG: new folder idx at 
C:\Users\g.barri\Documents\FCA_technology\repository-FCA\Greenplum\datalake\tl_thp\tables\idx
dirTree.BasicRuledFolder.<init>()
	DEBUG: new folder functions at 
C:\Users\g.barri\Documents\FCA_technology\repository-FCA\Greenplum\datalake\tl_thp\functions
dirTree.BasicRuledFolder.<init>()
	DEBUG: new folder sequences at 
C:\Users\g.barri\Documents\FCA_technology\repository-FCA\Greenplum\datalake\tl_thp\sequences
dirTree.BasicRuledFolder.<init>()
	DEBUG: new folder tl_sal at 
C:\Users\g.barri\Documents\FCA_technology\repository-FCA\Greenplum\datalake\tl_sal
dirTree.BasicRuledFolder.<init>()
	DEBUG: new folder views at 
C:\Users\g.barri\Documents\FCA_technology\repository-FCA\Greenplum\datalake\tl_sal\views
dirTree.BasicRuledFolder.<init>()
	DEBUG: new folder tables at 
C:\Users\g.barri\Documents\FCA_technology\repository-FCA\Greenplum\datalake\tl_sal\tables
dirTree.BasicRuledFolder.<init>()
	DEBUG: new folder cns at 
C:\Users\g.barri\Documents\FCA_technology\repository-FCA\Greenplum\datalake\tl_sal\tables\cns
dirTree.BasicRuledFolder.<init>()
	DEBUG: new folder idx at 
C:\Users\g.barri\Documents\FCA_technology\repository-FCA\Greenplum\datalake\tl_sal\tables\idx
dirTree.BasicRuledFolder.<init>()
	DEBUG: new folder functions at 
C:\Users\g.barri\Documents\FCA_technology\repository-FCA\Greenplum\datalake\tl_sal\functions
dirTree.BasicRuledFolder.<init>()
	DEBUG: new folder sequences at 
C:\Users\g.barri\Documents\FCA_technology\repository-FCA\Greenplum\datalake\tl_sal\sequences
dirTree.BasicRuledFolder.<init>()
	DEBUG: new folder tl_qlt at 
C:\Users\g.barri\Documents\FCA_technology\repository-FCA\Greenplum\datalake\tl_qlt
dirTree.BasicRuledFolder.<init>()
	DEBUG: new folder views at 
C:\Users\g.barri\Documents\FCA_technology\repository-FCA\Greenplum\datalake\tl_qlt\views
dirTree.BasicRuledFolder.<init>()
	DEBUG: new folder tables at 
C:\Users\g.barri\Documents\FCA_technology\repository-FCA\Greenplum\datalake\tl_qlt\tables
dirTree.BasicRuledFolder.<init>()
	DEBUG: new folder cns at 
C:\Users\g.barri\Documents\FCA_technology\repository-FCA\Greenplum\datalake\tl_qlt\tables\cns
dirTree.BasicRuledFolder.<init>()
	DEBUG: new folder idx at 
C:\Users\g.barri\Documents\FCA_technology\repository-FCA\Greenplum\datalake\tl_qlt\tables\idx
dirTree.BasicRuledFolder.<init>()
	DEBUG: new folder functions at 
C:\Users\g.barri\Documents\FCA_technology\repository-FCA\Greenplum\datalake\tl_qlt\functions
dirTree.BasicRuledFolder.<init>()
	DEBUG: new folder sequences at 
C:\Users\g.barri\Documents\FCA_technology\repository-FCA\Greenplum\datalake\tl_qlt\sequences
dirTree.BasicRuledFolder.<init>()
	DEBUG: new folder tl_fin at 
C:\Users\g.barri\Documents\FCA_technology\repository-FCA\Greenplum\datalake\tl_fin
dirTree.BasicRuledFolder.<init>()
	DEBUG: new folder views at 
C:\Users\g.barri\Documents\FCA_technology\repository-FCA\Greenplum\datalake\tl_fin\views
dirTree.BasicRuledFolder.<init>()
	DEBUG: new folder tables at 
C:\Users\g.barri\Documents\FCA_technology\repository-FCA\Greenplum\datalake\tl_fin\tables
dirTree.BasicRuledFolder.<init>()
	DEBUG: new folder cns at 
C:\Users\g.barri\Documents\FCA_technology\repository-FCA\Greenplum\datalake\tl_fin\tables\cns
dirTree.BasicRuledFolder.<init>()
	DEBUG: new folder idx at 
C:\Users\g.barri\Documents\FCA_technology\repository-FCA\Greenplum\datalake\tl_fin\tables\idx
dirTree.BasicRuledFolder.<init>()
	DEBUG: new folder functions at 
C:\Users\g.barri\Documents\FCA_technology\repository-FCA\Greenplum\datalake\tl_fin\functions
dirTree.BasicRuledFolder.<init>()
	DEBUG: new folder sequences at 
C:\Users\g.barri\Documents\FCA_technology\repository-FCA\Greenplum\datalake\tl_fin\sequences
dirTree.BasicRuledFolder.<init>()
	DEBUG: new folder pl_colors at 
C:\Users\g.barri\Documents\FCA_technology\repository-FCA\Greenplum\datalake\pl_colors
dirTree.BasicRuledFolder.<init>()
	DEBUG: new folder views at 
C:\Users\g.barri\Documents\FCA_technology\repository-FCA\Greenplum\datalake\pl_colors\views
dirTree.BasicRuledFolder.<init>()
	DEBUG: new folder tables at 
C:\Users\g.barri\Documents\FCA_technology\repository-FCA\Greenplum\datalake\pl_colors\tables
dirTree.BasicRuledFolder.<init>()
	DEBUG: new folder cns at 
C:\Users\g.barri\Documents\FCA_technology\repository-FCA\Greenplum\datalake\pl_colors\tables\cns
dirTree.BasicRuledFolder.<init>()
	DEBUG: new folder idx at 
C:\Users\g.barri\Documents\FCA_technology\repository-FCA\Greenplum\datalake\pl_colors\tables\idx
dirTree.BasicRuledFolder.<init>()
	DEBUG: new folder functions at 
C:\Users\g.barri\Documents\FCA_technology\repository-FCA\Greenplum\datalake\pl_colors\functions
dirTree.BasicRuledFolder.<init>()
	DEBUG: new folder sequences at 
C:\Users\g.barri\Documents\FCA_technology\repository-FCA\Greenplum\datalake\pl_colors\sequences
dirTree.BasicRuledFolder.<init>()
	DEBUG: new folder bl_sal at 
C:\Users\g.barri\Documents\FCA_technology\repository-FCA\Greenplum\datalake\bl_sal
dirTree.BasicRuledFolder.<init>()
	DEBUG: new folder views at 
C:\Users\g.barri\Documents\FCA_technology\repository-FCA\Greenplum\datalake\bl_sal\views
dirTree.BasicRuledFolder.<init>()
	DEBUG: new folder tables at 
C:\Users\g.barri\Documents\FCA_technology\repository-FCA\Greenplum\datalake\bl_sal\tables
dirTree.BasicRuledFolder.<init>()
	DEBUG: new folder cns at 
C:\Users\g.barri\Documents\FCA_technology\repository-FCA\Greenplum\datalake\bl_sal\tables\cns
dirTree.BasicRuledFolder.<init>()
	DEBUG: new folder idx at 
C:\Users\g.barri\Documents\FCA_technology\repository-FCA\Greenplum\datalake\bl_sal\tables\idx
dirTree.BasicRuledFolder.<init>()
	DEBUG: new folder functions at 
C:\Users\g.barri\Documents\FCA_technology\repository-FCA\Greenplum\datalake\bl_sal\functions
dirTree.BasicRuledFolder.<init>()
	DEBUG: new folder sequences at 
C:\Users\g.barri\Documents\FCA_technology\repository-FCA\Greenplum\datalake\bl_sal\sequences
dirTree.BasicRuledFolder.<init>()
	DEBUG: new folder tl_afs at 
C:\Users\g.barri\Documents\FCA_technology\repository-FCA\Greenplum\datalake\tl_afs
dirTree.BasicRuledFolder.<init>()
	DEBUG: new folder views at 
C:\Users\g.barri\Documents\FCA_technology\repository-FCA\Greenplum\datalake\tl_afs\views
dirTree.BasicRuledFolder.<init>()
	DEBUG: new folder tables at 
C:\Users\g.barri\Documents\FCA_technology\repository-FCA\Greenplum\datalake\tl_afs\tables
dirTree.BasicRuledFolder.<init>()
	DEBUG: new folder cns at 
C:\Users\g.barri\Documents\FCA_technology\repository-FCA\Greenplum\datalake\tl_afs\tables\cns
dirTree.BasicRuledFolder.<init>()
	DEBUG: new folder idx at 
C:\Users\g.barri\Documents\FCA_technology\repository-FCA\Greenplum\datalake\tl_afs\tables\idx
dirTree.BasicRuledFolder.<init>()
	DEBUG: new folder functions at 
C:\Users\g.barri\Documents\FCA_technology\repository-FCA\Greenplum\datalake\tl_afs\functions
dirTree.BasicRuledFolder.<init>()
	DEBUG: new folder sequences at 
C:\Users\g.barri\Documents\FCA_technology\repository-FCA\Greenplum\datalake\tl_afs\sequences
dirTree.BasicRuledFolder.<init>()
	DEBUG: new folder tl_net at 
C:\Users\g.barri\Documents\FCA_technology\repository-FCA\Greenplum\datalake\tl_net
dirTree.BasicRuledFolder.<init>()
	DEBUG: new folder views at 
C:\Users\g.barri\Documents\FCA_technology\repository-FCA\Greenplum\datalake\tl_net\views
dirTree.BasicRuledFolder.<init>()
	DEBUG: new folder tables at 
C:\Users\g.barri\Documents\FCA_technology\repository-FCA\Greenplum\datalake\tl_net\tables
dirTree.BasicRuledFolder.<init>()
	DEBUG: new folder cns at 
C:\Users\g.barri\Documents\FCA_technology\repository-FCA\Greenplum\datalake\tl_net\tables\cns
dirTree.BasicRuledFolder.<init>()
	DEBUG: new folder idx at 
C:\Users\g.barri\Documents\FCA_technology\repository-FCA\Greenplum\datalake\tl_net\tables\idx
dirTree.BasicRuledFolder.<init>()
	DEBUG: new folder functions at 
C:\Users\g.barri\Documents\FCA_technology\repository-FCA\Greenplum\datalake\tl_net\functions
dirTree.BasicRuledFolder.<init>()
	DEBUG: new folder sequences at 
C:\Users\g.barri\Documents\FCA_technology\repository-FCA\Greenplum\datalake\tl_net\sequences
dirTree.BasicRuledFolder.<init>()
	DEBUG: new folder tl_scm_ind at 
C:\Users\g.barri\Documents\FCA_technology\repository-FCA\Greenplum\datalake\tl_scm_ind
dirTree.BasicRuledFolder.<init>()
	DEBUG: new folder views at 
C:\Users\g.barri\Documents\FCA_technology\repository-FCA\Greenplum\datalake\tl_scm_ind\views
dirTree.BasicRuledFolder.<init>()
	DEBUG: new folder tables at 
C:\Users\g.barri\Documents\FCA_technology\repository-FCA\Greenplum\datalake\tl_scm_ind\tables
dirTree.BasicRuledFolder.<init>()
	DEBUG: new folder cns at 
C:\Users\g.barri\Documents\FCA_technology\repository-FCA\Greenplum\datalake\tl_scm_ind\tables\cns
dirTree.BasicRuledFolder.<init>()
	DEBUG: new folder idx at 
C:\Users\g.barri\Documents\FCA_technology\repository-FCA\Greenplum\datalake\tl_scm_ind\tables\idx
dirTree.BasicRuledFolder.<init>()
	DEBUG: new folder functions at 
C:\Users\g.barri\Documents\FCA_technology\repository-FCA\Greenplum\datalake\tl_scm_ind\functions
dirTree.BasicRuledFolder.<init>()
	DEBUG: new folder sequences at 
C:\Users\g.barri\Documents\FCA_technology\repository-FCA\Greenplum\datalake\tl_scm_ind\sequences
dirTree.BasicRuledFolder.<init>()
	DEBUG: new folder tl_pur at 
C:\Users\g.barri\Documents\FCA_technology\repository-FCA\Greenplum\datalake\tl_pur
dirTree.BasicRuledFolder.<init>()
	DEBUG: new folder views at 
C:\Users\g.barri\Documents\FCA_technology\repository-FCA\Greenplum\datalake\tl_pur\views
dirTree.BasicRuledFolder.<init>()
	DEBUG: new folder tables at 
C:\Users\g.barri\Documents\FCA_technology\repository-FCA\Greenplum\datalake\tl_pur\tables
dirTree.BasicRuledFolder.<init>()
	DEBUG: new folder cns at 
C:\Users\g.barri\Documents\FCA_technology\repository-FCA\Greenplum\datalake\tl_pur\tables\cns
dirTree.BasicRuledFolder.<init>()
	DEBUG: new folder idx at 
C:\Users\g.barri\Documents\FCA_technology\repository-FCA\Greenplum\datalake\tl_pur\tables\idx
dirTree.BasicRuledFolder.<init>()
	DEBUG: new folder functions at 
C:\Users\g.barri\Documents\FCA_technology\repository-FCA\Greenplum\datalake\tl_pur\functions
dirTree.BasicRuledFolder.<init>()
	DEBUG: new folder sequences at 
C:\Users\g.barri\Documents\FCA_technology\repository-FCA\Greenplum\datalake\tl_pur\sequences
dirTree.BasicRuledFolder.<init>()
	DEBUG: new folder tl_mfg at 
C:\Users\g.barri\Documents\FCA_technology\repository-FCA\Greenplum\datalake\tl_mfg
dirTree.BasicRuledFolder.<init>()
	DEBUG: new folder views at 
C:\Users\g.barri\Documents\FCA_technology\repository-FCA\Greenplum\datalake\tl_mfg\views
dirTree.BasicRuledFolder.<init>()
	DEBUG: new folder tables at 
C:\Users\g.barri\Documents\FCA_technology\repository-FCA\Greenplum\datalake\tl_mfg\tables
dirTree.BasicRuledFolder.<init>()
	DEBUG: new folder cns at 
C:\Users\g.barri\Documents\FCA_technology\repository-FCA\Greenplum\datalake\tl_mfg\tables\cns
dirTree.BasicRuledFolder.<init>()
	DEBUG: new folder idx at 
C:\Users\g.barri\Documents\FCA_technology\repository-FCA\Greenplum\datalake\tl_mfg\tables\idx
dirTree.BasicRuledFolder.<init>()
	DEBUG: new folder functions at 
C:\Users\g.barri\Documents\FCA_technology\repository-FCA\Greenplum\datalake\tl_mfg\functions
dirTree.BasicRuledFolder.<init>()
	DEBUG: new folder sequences at 
C:\Users\g.barri\Documents\FCA_technology\repository-FCA\Greenplum\datalake\tl_mfg\sequences
dirTree.BasicRuledFolder.<init>()
	DEBUG: new folder tl_analytics at 
C:\Users\g.barri\Documents\FCA_technology\repository-FCA\Greenplum\datalake\tl_analytics
dirTree.BasicRuledFolder.<init>()
	DEBUG: new folder views at 
C:\Users\g.barri\Documents\FCA_technology\repository-FCA\Greenplum\datalake\tl_analytics\views
dirTree.BasicRuledFolder.<init>()
	DEBUG: new folder tables at 
C:\Users\g.barri\Documents\FCA_technology\repository-FCA\Greenplum\datalake\tl_analytics\tables
dirTree.BasicRuledFolder.<init>()
	DEBUG: new folder cns at 
C:\Users\g.barri\Documents\FCA_technology\repository-FCA\Greenplum\datalake\tl_analytics\tables\cns
dirTree.BasicRuledFolder.<init>()
	DEBUG: new folder idx at 
C:\Users\g.barri\Documents\FCA_technology\repository-FCA\Greenplum\datalake\tl_analytics\tables\idx
dirTree.BasicRuledFolder.<init>()
	DEBUG: new folder functions at 
C:\Users\g.barri\Documents\FCA_technology\repository-FCA\Greenplum\datalake\tl_analytics\functions
dirTree.BasicRuledFolder.<init>()
	DEBUG: new folder sequences at 
C:\Users\g.barri\Documents\FCA_technology\repository-FCA\Greenplum\datalake\tl_analytics\sequences
dirTree.BasicRuledFolder.<init>()
	DEBUG: new folder oracompat at 
C:\Users\g.barri\Documents\FCA_technology\repository-FCA\Greenplum\datalake\oracompat
dirTree.BasicRuledFolder.<init>()
	DEBUG: new folder views at 
C:\Users\g.barri\Documents\FCA_technology\repository-FCA\Greenplum\datalake\oracompat\views
dirTree.BasicRuledFolder.<init>()
	DEBUG: new folder tables at 
C:\Users\g.barri\Documents\FCA_technology\repository-FCA\Greenplum\datalake\oracompat\tables
dirTree.BasicRuledFolder.<init>()
	DEBUG: new folder cns at 
C:\Users\g.barri\Documents\FCA_technology\repository-FCA\Greenplum\datalake\oracompat\tables\cns
dirTree.BasicRuledFolder.<init>()
	DEBUG: new folder idx at 
C:\Users\g.barri\Documents\FCA_technology\repository-FCA\Greenplum\datalake\oracompat\tables\idx
dirTree.BasicRuledFolder.<init>()
	DEBUG: new folder functions at 
C:\Users\g.barri\Documents\FCA_technology\repository-FCA\Greenplum\datalake\oracompat\functions
dirTree.BasicRuledFolder.<init>()
	DEBUG: new folder sequences at 
C:\Users\g.barri\Documents\FCA_technology\repository-FCA\Greenplum\datalake\oracompat\sequences
dirTree.BasicRuledFolder.<init>()
	DEBUG: new folder ds_mfg at 
C:\Users\g.barri\Documents\FCA_technology\repository-FCA\Greenplum\datalake\ds_mfg
dirTree.BasicRuledFolder.<init>()
	DEBUG: new folder views at 
C:\Users\g.barri\Documents\FCA_technology\repository-FCA\Greenplum\datalake\ds_mfg\views
dirTree.BasicRuledFolder.<init>()
	DEBUG: new folder tables at 
C:\Users\g.barri\Documents\FCA_technology\repository-FCA\Greenplum\datalake\ds_mfg\tables
dirTree.BasicRuledFolder.<init>()
	DEBUG: new folder cns at 
C:\Users\g.barri\Documents\FCA_technology\repository-FCA\Greenplum\datalake\ds_mfg\tables\cns
dirTree.BasicRuledFolder.<init>()
	DEBUG: new folder idx at 
C:\Users\g.barri\Documents\FCA_technology\repository-FCA\Greenplum\datalake\ds_mfg\tables\idx
dirTree.BasicRuledFolder.<init>()
	DEBUG: new folder functions at 
C:\Users\g.barri\Documents\FCA_technology\repository-FCA\Greenplum\datalake\ds_mfg\functions
dirTree.BasicRuledFolder.<init>()
	DEBUG: new folder sequences at 
C:\Users\g.barri\Documents\FCA_technology\repository-FCA\Greenplum\datalake\ds_mfg\sequences
dirTree.BasicRuledFolder.<init>()
	DEBUG: new folder dg_utilities at 
C:\Users\g.barri\Documents\FCA_technology\repository-FCA\Greenplum\datalake\dg_utilities
dirTree.BasicRuledFolder.<init>()
	DEBUG: new folder views at 
C:\Users\g.barri\Documents\FCA_technology\repository-FCA\Greenplum\datalake\dg_utilities\views
dirTree.BasicRuledFolder.<init>()
	DEBUG: new folder tables at 
C:\Users\g.barri\Documents\FCA_technology\repository-FCA\Greenplum\datalake\dg_utilities\tables
dirTree.BasicRuledFolder.<init>()
	DEBUG: new folder cns at 
C:\Users\g.barri\Documents\FCA_technology\repository-FCA\Greenplum\datalake\dg_utilities\tables\cns
dirTree.BasicRuledFolder.<init>()
	DEBUG: new folder idx at 
C:\Users\g.barri\Documents\FCA_technology\repository-FCA\Greenplum\datalake\dg_utilities\tables\idx
dirTree.BasicRuledFolder.<init>()
	DEBUG: new folder functions at 
C:\Users\g.barri\Documents\FCA_technology\repository-FCA\Greenplum\datalake\dg_utilities\functions
dirTree.BasicRuledFolder.<init>()
	DEBUG: new folder sequences at 
C:\Users\g.barri\Documents\FCA_technology\repository-FCA\Greenplum\datalake\dg_utilities\sequences
dirTree.BasicRuledFolder.<init>()
	DEBUG: new folder bl_scm_ind at 
C:\Users\g.barri\Documents\FCA_technology\repository-FCA\Greenplum\datalake\bl_scm_ind
dirTree.BasicRuledFolder.<init>()
	DEBUG: new folder views at 
C:\Users\g.barri\Documents\FCA_technology\repository-FCA\Greenplum\datalake\bl_scm_ind\views
dirTree.BasicRuledFolder.<init>()
	DEBUG: new folder tables at 
C:\Users\g.barri\Documents\FCA_technology\repository-FCA\Greenplum\datalake\bl_scm_ind\tables
dirTree.BasicRuledFolder.<init>()
	DEBUG: new folder cns at 
C:\Users\g.barri\Documents\FCA_technology\repository-FCA\Greenplum\datalake\bl_scm_ind\tables\cns
dirTree.BasicRuledFolder.<init>()
	DEBUG: new folder idx at 
C:\Users\g.barri\Documents\FCA_technology\repository-FCA\Greenplum\datalake\bl_scm_ind\tables\idx
dirTree.BasicRuledFolder.<init>()
	DEBUG: new folder functions at 
C:\Users\g.barri\Documents\FCA_technology\repository-FCA\Greenplum\datalake\bl_scm_ind\functions
dirTree.BasicRuledFolder.<init>()
	DEBUG: new folder sequences at 
C:\Users\g.barri\Documents\FCA_technology\repository-FCA\Greenplum\datalake\bl_scm_ind\sequences
dirTree.BasicRuledFolder.<init>()
	DEBUG: new folder bl_scm_com at 
C:\Users\g.barri\Documents\FCA_technology\repository-FCA\Greenplum\datalake\bl_scm_com
dirTree.BasicRuledFolder.<init>()
	DEBUG: new folder views at 
C:\Users\g.barri\Documents\FCA_technology\repository-FCA\Greenplum\datalake\bl_scm_com\views
dirTree.BasicRuledFolder.<init>()
	DEBUG: new folder tables at 
C:\Users\g.barri\Documents\FCA_technology\repository-FCA\Greenplum\datalake\bl_scm_com\tables
dirTree.BasicRuledFolder.<init>()
	DEBUG: new folder cns at 
C:\Users\g.barri\Documents\FCA_technology\repository-FCA\Greenplum\datalake\bl_scm_com\tables\cns
dirTree.BasicRuledFolder.<init>()
	DEBUG: new folder idx at 
C:\Users\g.barri\Documents\FCA_technology\repository-FCA\Greenplum\datalake\bl_scm_com\tables\idx
dirTree.BasicRuledFolder.<init>()
	DEBUG: new folder functions at 
C:\Users\g.barri\Documents\FCA_technology\repository-FCA\Greenplum\datalake\bl_scm_com\functions
dirTree.BasicRuledFolder.<init>()
	DEBUG: new folder sequences at 
C:\Users\g.barri\Documents\FCA_technology\repository-FCA\Greenplum\datalake\bl_scm_com\sequences
dirTree.BasicRuledFolder.<init>()
	DEBUG: new folder bl_mfg at 
C:\Users\g.barri\Documents\FCA_technology\repository-FCA\Greenplum\datalake\bl_mfg
dirTree.BasicRuledFolder.<init>()
	DEBUG: new folder views at 
C:\Users\g.barri\Documents\FCA_technology\repository-FCA\Greenplum\datalake\bl_mfg\views
dirTree.BasicRuledFolder.<init>()
	DEBUG: new folder tables at 
C:\Users\g.barri\Documents\FCA_technology\repository-FCA\Greenplum\datalake\bl_mfg\tables
dirTree.BasicRuledFolder.<init>()
	DEBUG: new folder cns at 
C:\Users\g.barri\Documents\FCA_technology\repository-FCA\Greenplum\datalake\bl_mfg\tables\cns
dirTree.BasicRuledFolder.<init>()
	DEBUG: new folder idx at 
C:\Users\g.barri\Documents\FCA_technology\repository-FCA\Greenplum\datalake\bl_mfg\tables\idx
dirTree.BasicRuledFolder.<init>()
	DEBUG: new folder functions at 
C:\Users\g.barri\Documents\FCA_technology\repository-FCA\Greenplum\datalake\bl_mfg\functions
dirTree.BasicRuledFolder.<init>()
	DEBUG: new folder sequences at 
C:\Users\g.barri\Documents\FCA_technology\repository-FCA\Greenplum\datalake\bl_mfg\sequences
dirTree.BasicRuledFolder.<init>()
	DEBUG: new folder cl_analytics at 
C:\Users\g.barri\Documents\FCA_technology\repository-FCA\Greenplum\datalake\cl_analytics
dirTree.BasicRuledFolder.<init>()
	DEBUG: new folder views at 
C:\Users\g.barri\Documents\FCA_technology\repository-FCA\Greenplum\datalake\cl_analytics\views
dirTree.BasicRuledFolder.<init>()
	DEBUG: new folder tables at 
C:\Users\g.barri\Documents\FCA_technology\repository-FCA\Greenplum\datalake\cl_analytics\tables
dirTree.BasicRuledFolder.<init>()
	DEBUG: new folder cns at 
C:\Users\g.barri\Documents\FCA_technology\repository-FCA\Greenplum\datalake\cl_analytics\tables\cns
dirTree.BasicRuledFolder.<init>()
	DEBUG: new folder idx at 
C:\Users\g.barri\Documents\FCA_technology\repository-FCA\Greenplum\datalake\cl_analytics\tables\idx
dirTree.BasicRuledFolder.<init>()
	DEBUG: new folder functions at 
C:\Users\g.barri\Documents\FCA_technology\repository-FCA\Greenplum\datalake\cl_analytics\functions
dirTree.BasicRuledFolder.<init>()
	DEBUG: new folder sequences at 
C:\Users\g.barri\Documents\FCA_technology\repository-FCA\Greenplum\datalake\cl_analytics\sequences
dirTree.BasicRuledFolder.<init>()
	DEBUG: new folder dg_maintenance at 
C:\Users\g.barri\Documents\FCA_technology\repository-FCA\Greenplum\datalake\dg_maintenance
dirTree.BasicRuledFolder.<init>()
	DEBUG: new folder views at 
C:\Users\g.barri\Documents\FCA_technology\repository-FCA\Greenplum\datalake\dg_maintenance\views
dirTree.BasicRuledFolder.<init>()
	DEBUG: new folder tables at 
C:\Users\g.barri\Documents\FCA_technology\repository-FCA\Greenplum\datalake\dg_maintenance\tables
dirTree.BasicRuledFolder.<init>()
	DEBUG: new folder cns at 
C:\Users\g.barri\Documents\FCA_technology\repository-FCA\Greenplum\datalake\dg_maintenance\tables\cns
dirTree.BasicRuledFolder.<init>()
	DEBUG: new folder idx at 
C:\Users\g.barri\Documents\FCA_technology\repository-FCA\Greenplum\datalake\dg_maintenance\tables\idx
dirTree.BasicRuledFolder.<init>()
	DEBUG: new folder functions at 
C:\Users\g.barri\Documents\FCA_technology\repository-FCA\Greenplum\datalake\dg_maintenance\functions
dirTree.BasicRuledFolder.<init>()
	DEBUG: new folder sequences at 
C:\Users\g.barri\Documents\FCA_technology\repository-FCA\Greenplum\datalake\dg_maintenance\sequences
insertCall.AbstractLoader.loadMap()
	INFO: Loading data from sheet Foglio1
insertCall.AbstractLoader.popolateMap()
	INFO: PK made of column: Table Owner
insertCall.AbstractLoader.popolateMap()
	INFO: PK made of column: Table Name
insertCall.AbstractLoader.popolateMap()
	INFO: Exporting column: AppendOnly
schemaMapping.LoaderSchemaMap.popolateMap()
	TRACE: Retrivieng Table
schemaMapping.LoaderSchemaMap.popolateMap()
	TRACE: --Completed Table
schemaMapping.LoaderSchemaMap.popolateMap()
	TRACE: Retrivieng External Table
schemaMapping.LoaderSchemaMap.popolateMap()
	TRACE: --Completed External Table
schemaMapping.LoaderSchemaMap.popolateMap()
	TRACE: Retrivieng View
schemaMapping.LoaderSchemaMap.popolateMap()
	TRACE: --Completed View
schemaMapping.LoaderSchemaMap.popolateMap()
	TRACE: Retrivieng Procedure
schemaMapping.LoaderSchemaMap.popolateMap()
	TRACE: --Completed Procedure
schemaMapping.LoaderSchemaMap.popolateMap()
	TRACE: Retrivieng Sequence
schemaMapping.LoaderSchemaMap.popolateMap()
	TRACE: --Completed Sequence
schemaMapping.LoaderSchemaMap.popolateMap()
	TRACE: Retrivieng DbLink Object
schemaMapping.LoaderSchemaMap.popolateMap()
	TRACE: --Completed DbLink Object
schemaMapping.LoaderSchemaMap.loadMap()
	TRACE: --Checking if multiple istances are relevated
schemaMapping.LoaderSchemaMap.loadMap()
	ERROR: the replace map for the schema of	DEI3DE.DW_DETODE	in file C:\Users\g.barri\Downloads\BA2 - DWH Analytics (15).xlsx is not unique! We keep the first one found	[tl_scm_com.DW_DETODE, tl_scm_com.DW_DETODE, tl_scm_com.DW_DETODE]	
schemaMapping.LoaderSchemaMap.printMappingToFile()
	TRACE: Schema replacement map as config file printed at C:\Users\g.barri\Downloads\replace.map
schemaMapping.LoaderSchemaMap.printMappingToFile2()
	TRACE: Schema replacement map as config file printed at C:\Users\g.barri\Downloads\replace.map
movements.Move.moveFileWrap()
	TRACE: Moving file	cl_analytics_bh_cvp_incl_mkt_ma_mo_ocf_cns.sqlfrom	C:\Users\g.barri\Desktop\ABA21_UTILZ_ABA21\cl_analytics_bh_cvp_incl_mkt_ma_mo_ocf_cns.sql
to	 C:\Users\g.barri\Documents\FCA_technology\repository-FCA\Greenplum\datalake\cl_analytics\tables\cns\cl_analytics_bh_cvp_incl_mkt_ma_mo_ocf_cns.sql
utilities.RepoSearcher.prepare()
	TRACE: Starting to prepare quick search in C:\Users\g.barri\Documents\FCA_technology\repository-FCA\Greenplum\datalake
utilities.RepoSearcher.prepare()
	TRACE: Ended preparation
utilities.RepoSearcher.quickSearchFor()
	TRACE: the following files defining the same object PK_BH_CVP_INCL_MKT_MA_MO_OCF has been found: [C:\Users\g.barri\Documents\FCA_technology\repository-FCA\Greenplum\datalake\tl_sal\tables\cns\tl_sal_bh_cvp_incl_mkt_ma_mo_ocf_cns.sql]
movements.Move.moveFileWrap()
	TRACE: A file which defines the same object as	cl_analytics_bh_cvp_incl_mkt_ma_mo_ocf_cns.sql	already exists. Original file:	C:\Users\g.barri\Desktop\ABA21_UTILZ_ABA21\cl_analytics_bh_cvp_incl_mkt_ma_mo_ocf_cns.sql
movements.Move.moveFileWrap()
	TRACE: Moved ended
movements.Move.moveFileWrap()
	TRACE: Moving file	cl_analytics_bh_cvp_incl_mkt_ma_mo_ocf_mc_cns.sqlfrom	C:\Users\g.barri\Desktop\ABA21_UTILZ_ABA21\cl_analytics_bh_cvp_incl_mkt_ma_mo_ocf_mc_cns.sql
to	 C:\Users\g.barri\Documents\FCA_technology\repository-FCA\Greenplum\datalake\cl_analytics\tables\cns\cl_analytics_bh_cvp_incl_mkt_ma_mo_ocf_mc_cns.sql
utilities.RepoSearcher.quickSearchFor()
	TRACE: the following files defining the same object PK_BH_CVP_INCL_MKT_MA_MO_OCFMC has been found: [C:\Users\g.barri\Documents\FCA_technology\repository-FCA\Greenplum\datalake\tl_sal\tables\cns\tl_sal_bh_cvp_incl_mkt_ma_mo_ocf_mc_cns.sql]
movements.Move.moveFileWrap()
	TRACE: A file which defines the same object as	cl_analytics_bh_cvp_incl_mkt_ma_mo_ocf_mc_cns.sql	already exists. Original file:	C:\Users\g.barri\Desktop\ABA21_UTILZ_ABA21\cl_analytics_bh_cvp_incl_mkt_ma_mo_ocf_mc_cns.sql
movements.Move.moveFileWrap()
	TRACE: Moved ended
movements.Move.moveFileWrap()
	TRACE: Moving file	cl_analytics_bh_cvp_incl_mkt_ma_mo_ocf_mc_tab.sqlfrom	C:\Users\g.barri\Desktop\ABA21_UTILZ_ABA21\cl_analytics_bh_cvp_incl_mkt_ma_mo_ocf_mc_tab.sql
to	 C:\Users\g.barri\Documents\FCA_technology\repository-FCA\Greenplum\datalake\cl_analytics\tables\cl_analytics_bh_cvp_incl_mkt_ma_mo_ocf_mc_tab.sql
insertCall.AbstractLoader.popolateMap()
	INFO: PK made of column: Target Schema
insertCall.AbstractLoader.popolateMap()
	INFO: PK made of column: External Table
insertCall.AbstractLoader.popolateMap()
	INFO: Exporting column: Target Table
insertCall.AbstractLoader.popolateMap()
	INFO: Exporting column: Migration
insertCall.AbstractLoader.popolateMap()
	INFO: PK made of column: Target Schema
insertCall.AbstractLoader.popolateMap()
	INFO: PK made of column: Table
insertCall.AbstractLoader.popolateMap()
	INFO: Exporting column: Migration
insertCall.AbstractLoader.popolateMap()
	INFO: PK made of column: Target Schema
insertCall.AbstractLoader.popolateMap()
	INFO: PK made of column: Sequence
insertCall.AbstractLoader.popolateMap()
	INFO: Exporting column: Migration
insertCall.AbstractLoader.popolateMap()
	INFO: PK made of column: Target Schema
insertCall.AbstractLoader.popolateMap()
	INFO: PK made of column: View
insertCall.AbstractLoader.popolateMap()
	INFO: Exporting column: Migration
insertCall.AbstractLoader.popolateMap()
	INFO: PK made of column: Target Schema
insertCall.AbstractLoader.popolateMap()
	INFO: PK made of column: Procedure
insertCall.AbstractLoader.popolateMap()
	INFO: Exporting column: Migration
insertCall.AbstractLoader.popolateMap()
	INFO: PK made of column: Target Schema
insertCall.AbstractLoader.popolateMap()
	INFO: PK made of column: Object
insertCall.AbstractLoader.popolateMap()
	INFO: Exporting column: PXF Target Name
insertCall.AbstractLoader.popolateMap()
	INFO: Exporting column: Migration
utilities.RepoSearcher.quickSearchFor()
	TRACE: the following files defining the same object cl_analytics.BH_CVP_INCL_MKT_MA_MO_OCF_MC has been found: []
movements.Move.moveFileWrap()
	TRACE: Moved ended
movements.Move.moveFileWrap()
	TRACE: Moving file	cl_analytics_bh_cvp_incl_mkt_ma_mo_ocf_tab.sqlfrom	C:\Users\g.barri\Desktop\ABA21_UTILZ_ABA21\cl_analytics_bh_cvp_incl_mkt_ma_mo_ocf_tab.sql
to	 C:\Users\g.barri\Documents\FCA_technology\repository-FCA\Greenplum\datalake\cl_analytics\tables\cl_analytics_bh_cvp_incl_mkt_ma_mo_ocf_tab.sql
utilities.RepoSearcher.quickSearchFor()
	TRACE: the following files defining the same object cl_analytics.BH_CVP_INCL_MKT_MA_MO_OCF has been found: []
movements.Move.moveFileWrap()
	TRACE: Moved ended
movements.Move.moveFileWrap()
	TRACE: Moving file	cl_analytics_bh_cvp_incl_mkt_ma_mo_opt_cns.sqlfrom	C:\Users\g.barri\Desktop\ABA21_UTILZ_ABA21\cl_analytics_bh_cvp_incl_mkt_ma_mo_opt_cns.sql
to	 C:\Users\g.barri\Documents\FCA_technology\repository-FCA\Greenplum\datalake\cl_analytics\tables\cns\cl_analytics_bh_cvp_incl_mkt_ma_mo_opt_cns.sql
utilities.RepoSearcher.quickSearchFor()
	TRACE: the following files defining the same object PK_BH_CVP_INCL_MKT_MA_MO_OPT has been found: [C:\Users\g.barri\Documents\FCA_technology\repository-FCA\Greenplum\datalake\tl_sal\tables\cns\tl_sal_bh_cvp_incl_mkt_ma_mo_opt_cns.sql]
movements.Move.moveFileWrap()
	TRACE: A file which defines the same object as	cl_analytics_bh_cvp_incl_mkt_ma_mo_opt_cns.sql	already exists. Original file:	C:\Users\g.barri\Desktop\ABA21_UTILZ_ABA21\cl_analytics_bh_cvp_incl_mkt_ma_mo_opt_cns.sql
movements.Move.moveFileWrap()
	TRACE: Moved ended
movements.Move.moveFileWrap()
	TRACE: Moving file	cl_analytics_bh_cvp_incl_mkt_ma_mo_opt_mc_cns.sqlfrom	C:\Users\g.barri\Desktop\ABA21_UTILZ_ABA21\cl_analytics_bh_cvp_incl_mkt_ma_mo_opt_mc_cns.sql
to	 C:\Users\g.barri\Documents\FCA_technology\repository-FCA\Greenplum\datalake\cl_analytics\tables\cns\cl_analytics_bh_cvp_incl_mkt_ma_mo_opt_mc_cns.sql
utilities.RepoSearcher.quickSearchFor()
	TRACE: the following files defining the same object PK_BH_CVP_INCL_MKT_MA_MO_OPTMC has been found: [C:\Users\g.barri\Documents\FCA_technology\repository-FCA\Greenplum\datalake\tl_sal\tables\cns\tl_sal_bh_cvp_incl_mkt_ma_mo_opt_mc_cns.sql]
movements.Move.moveFileWrap()
	TRACE: A file which defines the same object as	cl_analytics_bh_cvp_incl_mkt_ma_mo_opt_mc_cns.sql	already exists. Original file:	C:\Users\g.barri\Desktop\ABA21_UTILZ_ABA21\cl_analytics_bh_cvp_incl_mkt_ma_mo_opt_mc_cns.sql
movements.Move.moveFileWrap()
	TRACE: Moved ended
movements.Move.moveFileWrap()
	TRACE: Moving file	cl_analytics_bh_cvp_incl_mkt_ma_mo_opt_mc_tab.sqlfrom	C:\Users\g.barri\Desktop\ABA21_UTILZ_ABA21\cl_analytics_bh_cvp_incl_mkt_ma_mo_opt_mc_tab.sql
to	 C:\Users\g.barri\Documents\FCA_technology\repository-FCA\Greenplum\datalake\cl_analytics\tables\cl_analytics_bh_cvp_incl_mkt_ma_mo_opt_mc_tab.sql
utilities.RepoSearcher.quickSearchFor()
	TRACE: the following files defining the same object cl_analytics.BH_CVP_INCL_MKT_MA_MO_OPT_MC has been found: []
movements.Move.moveFileWrap()
	TRACE: Moved ended
movements.Move.moveFileWrap()
	TRACE: Moving file	cl_analytics_bh_cvp_incl_mkt_ma_mo_opt_tab.sqlfrom	C:\Users\g.barri\Desktop\ABA21_UTILZ_ABA21\cl_analytics_bh_cvp_incl_mkt_ma_mo_opt_tab.sql
to	 C:\Users\g.barri\Documents\FCA_technology\repository-FCA\Greenplum\datalake\cl_analytics\tables\cl_analytics_bh_cvp_incl_mkt_ma_mo_opt_tab.sql
utilities.RepoSearcher.quickSearchFor()
	TRACE: the following files defining the same object cl_analytics.BH_CVP_INCL_MKT_MA_MO_OPT has been found: []
movements.Move.moveFileWrap()
	TRACE: Moved ended
movements.Move.moveFileWrap()
	TRACE: Moving file	cl_analytics_wt_date_cvp_invoice_mm_mc_tab.sqlfrom	C:\Users\g.barri\Desktop\ABA21_UTILZ_ABA21\cl_analytics_wt_date_cvp_invoice_mm_mc_tab.sql
to	 C:\Users\g.barri\Documents\FCA_technology\repository-FCA\Greenplum\datalake\cl_analytics\tables\cl_analytics_wt_date_cvp_invoice_mm_mc_tab.sql
utilities.RepoSearcher.quickSearchFor()
	TRACE: the following files defining the same object cl_analytics.WT_DATE_CVP_INVOICE_MM_MC has been found: []
movements.Move.moveFileWrap()
	TRACE: Moved ended
movements.Move.checkFile()
	DEBUG: il file create_lang.sql, C:\Users\g.barri\Desktop\ABA21_UTILZ_ABA21\create_lang.sql
ï¿½ stato scartato perchï¿½ non riconosciuto.
movements.Move.moveFileWrap()
	TRACE: Moving file	dba70_xx_rc_log_tab.sqlfrom	C:\Users\g.barri\Desktop\ABA21_UTILZ_ABA21\dba70_xx_rc_log_tab.sql
to	 C:\Users\g.barri\Documents\FCA_technology\repository-FCA\Greenplum\datalake\bl_scm_com\tables\dba70_xx_rc_log_tab.sql
utilities.RepoSearcher.quickSearchFor()
	TRACE: the following files defining the same object bl_scm_com.XX_RC_LOG has been found: []
movements.Move.moveFileWrap()
	TRACE: Moved ended
movements.Move.moveFileWrap()
	TRACE: Moving file	dg_maintenance_ccbi_abend_conf_cns.sqlfrom	C:\Users\g.barri\Desktop\ABA21_UTILZ_ABA21\dg_maintenance_ccbi_abend_conf_cns.sql
to	 C:\Users\g.barri\Documents\FCA_technology\repository-FCA\Greenplum\datalake\dg_maintenance\tables\cns\dg_maintenance_ccbi_abend_conf_cns.sql
utilities.RepoSearcher.quickSearchFor()
	TRACE: the following files defining the same object FL_INVIO_ICT_CHK has been found: [C:\Users\g.barri\Documents\FCA_technology\repository-FCA\Greenplum\datalake\tl_analytics\tables\cns\tl_analytics_ccbi_abend_conf_cns.sql]
movements.Move.moveFileWrap()
	TRACE: A file which defines the same object as	dg_maintenance_ccbi_abend_conf_cns.sql	already exists. Original file:	C:\Users\g.barri\Desktop\ABA21_UTILZ_ABA21\dg_maintenance_ccbi_abend_conf_cns.sql
movements.Move.moveFileWrap()
	TRACE: Moved ended
movements.Move.moveFileWrap()
	TRACE: Moving file	dg_maintenance_ccbi_abend_conf_tab.sqlfrom	C:\Users\g.barri\Desktop\ABA21_UTILZ_ABA21\dg_maintenance_ccbi_abend_conf_tab.sql
to	 C:\Users\g.barri\Documents\FCA_technology\repository-FCA\Greenplum\datalake\dg_maintenance\tables\dg_maintenance_ccbi_abend_conf_tab.sql
utilities.RepoSearcher.quickSearchFor()
	TRACE: the following files defining the same object dg_maintenance.CCBI_ABEND_CONF has been found: []
movements.Move.moveFileWrap()
	TRACE: Moved ended
movements.Move.moveFileWrap()
	TRACE: Moving file	dg_maintenance_ccbi_ams_log_idx.sqlfrom	C:\Users\g.barri\Desktop\ABA21_UTILZ_ABA21\dg_maintenance_ccbi_ams_log_idx.sql
to	 C:\Users\g.barri\Documents\FCA_technology\repository-FCA\Greenplum\datalake\dg_maintenance\tables\idx\dg_maintenance_ccbi_ams_log_idx.sql
utilities.RepoSearcher.quickSearchFor()
	TRACE: the following files defining the same object 1 has been found: [C:\Users\g.barri\Documents\FCA_technology\repository-FCA\Greenplum\datalake\tl_analytics\tables\idx\tl_analytics_ccbi_ams_log_idx.sql, C:\Users\g.barri\Documents\FCA_technology\repository-FCA\Greenplum\datalake\tl_mfg\tables\idx\xxdwhapp_ams_log_idx.sql]
movements.Move.moveFileWrap()
	TRACE: A file which defines the same object as	dg_maintenance_ccbi_ams_log_idx.sql	already exists. Original file:	C:\Users\g.barri\Desktop\ABA21_UTILZ_ABA21\dg_maintenance_ccbi_ams_log_idx.sql
movements.Move.moveFileWrap()
	TRACE: Moved ended
movements.Move.moveFileWrap()
	TRACE: Moving file	dg_maintenance_ccbi_ams_log_tab.sqlfrom	C:\Users\g.barri\Desktop\ABA21_UTILZ_ABA21\dg_maintenance_ccbi_ams_log_tab.sql
to	 C:\Users\g.barri\Documents\FCA_technology\repository-FCA\Greenplum\datalake\dg_maintenance\tables\dg_maintenance_ccbi_ams_log_tab.sql
utilities.RepoSearcher.quickSearchFor()
	TRACE: the following files defining the same object dg_maintenance.CCBI_AMS_LOG has been found: []
movements.Move.moveFileWrap()
	TRACE: Moved ended
movements.Move.moveFileWrap()
	TRACE: Moving file	dg_maintenance_ccbi_ass_eventi_ord_tab.sqlfrom	C:\Users\g.barri\Desktop\ABA21_UTILZ_ABA21\dg_maintenance_ccbi_ass_eventi_ord_tab.sql
to	 C:\Users\g.barri\Documents\FCA_technology\repository-FCA\Greenplum\datalake\dg_maintenance\tables\dg_maintenance_ccbi_ass_eventi_ord_tab.sql
utilities.RepoSearcher.quickSearchFor()
	TRACE: the following files defining the same object dg_maintenance.CCBI_ASS_EVENTI_ORD has been found: []
movements.Move.moveFileWrap()
	TRACE: Moved ended
movements.Move.moveFileWrap()
	TRACE: Moving file	dg_maintenance_ccbi_cambio_mod_tab_set_cns.sqlfrom	C:\Users\g.barri\Desktop\ABA21_UTILZ_ABA21\dg_maintenance_ccbi_cambio_mod_tab_set_cns.sql
to	 C:\Users\g.barri\Documents\FCA_technology\repository-FCA\Greenplum\datalake\dg_maintenance\tables\cns\dg_maintenance_ccbi_cambio_mod_tab_set_cns.sql
utilities.RepoSearcher.quickSearchFor()
	TRACE: the following files defining the same object SYS_C00661654 has been found: [C:\Users\g.barri\Documents\FCA_technology\repository-FCA\Greenplum\datalake\tl_analytics\tables\cns\tl_analytics_ccbi_cambio_mod_tab_set_cns.sql]
movements.Move.moveFileWrap()
	TRACE: A file which defines the same object as	dg_maintenance_ccbi_cambio_mod_tab_set_cns.sql	already exists. Original file:	C:\Users\g.barri\Desktop\ABA21_UTILZ_ABA21\dg_maintenance_ccbi_cambio_mod_tab_set_cns.sql
movements.Move.moveFileWrap()
	TRACE: Moved ended
movements.Move.moveFileWrap()
	TRACE: Moving file	dg_maintenance_ccbi_cambio_mod_tab_set_tab.sqlfrom	C:\Users\g.barri\Desktop\ABA21_UTILZ_ABA21\dg_maintenance_ccbi_cambio_mod_tab_set_tab.sql
to	 C:\Users\g.barri\Documents\FCA_technology\repository-FCA\Greenplum\datalake\dg_maintenance\tables\dg_maintenance_ccbi_cambio_mod_tab_set_tab.sql
utilities.RepoSearcher.quickSearchFor()
	TRACE: the following files defining the same object dg_maintenance.CCBI_CAMBIO_MOD_TAB_SET has been found: []
movements.Move.moveFileWrap()
	TRACE: Moved ended
movements.Move.moveFileWrap()
	TRACE: Moving file	dg_maintenance_ccbi_pr_ams_log.sqlfrom	C:\Users\g.barri\Desktop\ABA21_UTILZ_ABA21\dg_maintenance_ccbi_pr_ams_log.sql
to	 C:\Users\g.barri\Documents\FCA_technology\repository-FCA\Greenplum\datalake\dg_maintenance\functions\dg_maintenance_ccbi_pr_ams_log.sql
utilities.RepoSearcher.quickSearchFor()
	TRACE: the following files defining the same object dg_maintenance.CCBI_PR_AMS_LOG has been found: []
movements.Move.moveFileWrap()
	TRACE: Moved ended
movements.Move.moveFileWrap()
	TRACE: Moving file	dg_maintenance_ccbi_recupero_offerte_idx.sqlfrom	C:\Users\g.barri\Desktop\ABA21_UTILZ_ABA21\dg_maintenance_ccbi_recupero_offerte_idx.sql
to	 C:\Users\g.barri\Documents\FCA_technology\repository-FCA\Greenplum\datalake\dg_maintenance\tables\idx\dg_maintenance_ccbi_recupero_offerte_idx.sql
utilities.RepoSearcher.quickSearchFor()
	TRACE: the following files defining the same object 1 has been found: [C:\Users\g.barri\Documents\FCA_technology\repository-FCA\Greenplum\datalake\tl_analytics\tables\idx\tl_analytics_ccbi_ams_log_idx.sql, C:\Users\g.barri\Documents\FCA_technology\repository-FCA\Greenplum\datalake\tl_mfg\tables\idx\xxdwhapp_ams_log_idx.sql]
movements.Move.moveFileWrap()
	TRACE: A file which defines the same object as	dg_maintenance_ccbi_recupero_offerte_idx.sql	already exists. Original file:	C:\Users\g.barri\Desktop\ABA21_UTILZ_ABA21\dg_maintenance_ccbi_recupero_offerte_idx.sql
movements.Move.moveFileWrap()
	TRACE: Moved ended
movements.Move.moveFileWrap()
	TRACE: Moving file	dg_maintenance_ccbi_recupero_offerte_tab.sqlfrom	C:\Users\g.barri\Desktop\ABA21_UTILZ_ABA21\dg_maintenance_ccbi_recupero_offerte_tab.sql
to	 C:\Users\g.barri\Documents\FCA_technology\repository-FCA\Greenplum\datalake\dg_maintenance\tables\dg_maintenance_ccbi_recupero_offerte_tab.sql
utilities.RepoSearcher.quickSearchFor()
	TRACE: the following files defining the same object dg_maintenance.CCBI_RECUPERO_OFFERTE has been found: []
movements.Move.moveFileWrap()
	TRACE: Moved ended
movements.Move.moveFileWrap()
	TRACE: Moving file	dg_maintenance_ccbi_table_err_count_tab.sqlfrom	C:\Users\g.barri\Desktop\ABA21_UTILZ_ABA21\dg_maintenance_ccbi_table_err_count_tab.sql
to	 C:\Users\g.barri\Documents\FCA_technology\repository-FCA\Greenplum\datalake\dg_maintenance\tables\dg_maintenance_ccbi_table_err_count_tab.sql
utilities.RepoSearcher.quickSearchFor()
	TRACE: the following files defining the same object dg_maintenance.CCBI_TABLE_ERR_COUNT has been found: []
movements.Move.moveFileWrap()
	TRACE: Moved ended
movements.Move.moveFileWrap()
	TRACE: Moving file	dg_maintenance_ccbi_tel_ord_opt_ft_spool_tab.sqlfrom	C:\Users\g.barri\Desktop\ABA21_UTILZ_ABA21\dg_maintenance_ccbi_tel_ord_opt_ft_spool_tab.sql
to	 C:\Users\g.barri\Documents\FCA_technology\repository-FCA\Greenplum\datalake\dg_maintenance\tables\dg_maintenance_ccbi_tel_ord_opt_ft_spool_tab.sql
utilities.RepoSearcher.quickSearchFor()
	TRACE: the following files defining the same object dg_maintenance.CCBI_TEL_ORD_OPT_FT_SPOOL has been found: []
movements.Move.moveFileWrap()
	TRACE: Moved ended
movements.Move.moveFileWrap()
	TRACE: Moving file	dg_maintenance_ccbi_tel_ord_opt_ft_tab.sqlfrom	C:\Users\g.barri\Desktop\ABA21_UTILZ_ABA21\dg_maintenance_ccbi_tel_ord_opt_ft_tab.sql
to	 C:\Users\g.barri\Documents\FCA_technology\repository-FCA\Greenplum\datalake\dg_maintenance\tables\dg_maintenance_ccbi_tel_ord_opt_ft_tab.sql
utilities.RepoSearcher.quickSearchFor()
	TRACE: the following files defining the same object dg_maintenance.CCBI_TEL_ORD_OPT_FT has been found: []
movements.Move.moveFileWrap()
	TRACE: Moved ended
movements.Move.moveFileWrap()
	TRACE: Moving file	dg_maintenance_ccbi_vs_val_vett_base_opt.sqlfrom	C:\Users\g.barri\Desktop\ABA21_UTILZ_ABA21\dg_maintenance_ccbi_vs_val_vett_base_opt.sql
to	 C:\Users\g.barri\Documents\FCA_technology\repository-FCA\Greenplum\datalake\dg_maintenance\views\dg_maintenance_ccbi_vs_val_vett_base_opt.sql
utilities.RepoSearcher.quickSearchFor()
	TRACE: the following files defining the same object dg_maintenance.CCBI_VS_VAL_VETT_BASE_OPT has been found: []
movements.Move.moveFileWrap()
	TRACE: Moved ended
movements.Move.moveFileWrap()
	TRACE: Moving file	dg_maintenance_tb_check_chains_tab.sqlfrom	C:\Users\g.barri\Desktop\ABA21_UTILZ_ABA21\dg_maintenance_tb_check_chains_tab.sql
to	 C:\Users\g.barri\Documents\FCA_technology\repository-FCA\Greenplum\datalake\dg_maintenance\tables\dg_maintenance_tb_check_chains_tab.sql
utilities.RepoSearcher.quickSearchFor()
	TRACE: the following files defining the same object dg_maintenance.TB_CHECK_CHAINS has been found: []
movements.Move.moveFileWrap()
	TRACE: Moved ended
movements.Move.moveFileWrap()
	TRACE: Moving file	dg_maintenance_tmp_bonifica_camp_tel_tab.sqlfrom	C:\Users\g.barri\Desktop\ABA21_UTILZ_ABA21\dg_maintenance_tmp_bonifica_camp_tel_tab.sql
to	 C:\Users\g.barri\Documents\FCA_technology\repository-FCA\Greenplum\datalake\dg_maintenance\tables\dg_maintenance_tmp_bonifica_camp_tel_tab.sql
utilities.RepoSearcher.quickSearchFor()
	TRACE: the following files defining the same object dg_maintenance.TMP_BONIFICA_CAMP_TEL has been found: []
movements.Move.moveFileWrap()
	TRACE: Moved ended
movements.Move.moveFileWrap()
	TRACE: Moving file	dg_maintenance_tmp_cambio_modello_vin_tab.sqlfrom	C:\Users\g.barri\Desktop\ABA21_UTILZ_ABA21\dg_maintenance_tmp_cambio_modello_vin_tab.sql
to	 C:\Users\g.barri\Documents\FCA_technology\repository-FCA\Greenplum\datalake\dg_maintenance\tables\dg_maintenance_tmp_cambio_modello_vin_tab.sql
utilities.RepoSearcher.quickSearchFor()
	TRACE: the following files defining the same object dg_maintenance.TMP_CAMBIO_MODELLO_VIN has been found: []
movements.Move.moveFileWrap()
	TRACE: Moved ended
movements.Move.moveFileWrap()
	TRACE: Moving file	dg_maintenance_tmp_camp_tel_scune_tab.sqlfrom	C:\Users\g.barri\Desktop\ABA21_UTILZ_ABA21\dg_maintenance_tmp_camp_tel_scune_tab.sql
to	 C:\Users\g.barri\Documents\FCA_technology\repository-FCA\Greenplum\datalake\dg_maintenance\tables\dg_maintenance_tmp_camp_tel_scune_tab.sql
utilities.RepoSearcher.quickSearchFor()
	TRACE: the following files defining the same object dg_maintenance.TMP_CAMP_TEL_SCUNE has been found: []
movements.Move.moveFileWrap()
	TRACE: Moved ended
movements.Move.moveFileWrap()
	TRACE: Moving file	dg_maintenance_tmp_estraz_ch_95_99_tab.sqlfrom	C:\Users\g.barri\Desktop\ABA21_UTILZ_ABA21\dg_maintenance_tmp_estraz_ch_95_99_tab.sql
to	 C:\Users\g.barri\Documents\FCA_technology\repository-FCA\Greenplum\datalake\dg_maintenance\tables\dg_maintenance_tmp_estraz_ch_95_99_tab.sql
utilities.RepoSearcher.quickSearchFor()
	TRACE: the following files defining the same object dg_maintenance.TMP_ESTRAZ_CH_95_99 has been found: []
movements.Move.moveFileWrap()
	TRACE: Moved ended
movements.Move.moveFileWrap()
	TRACE: Moving file	dg_maintenance_tmp_estr_assoc_180_tab.sqlfrom	C:\Users\g.barri\Desktop\ABA21_UTILZ_ABA21\dg_maintenance_tmp_estr_assoc_180_tab.sql
to	 C:\Users\g.barri\Documents\FCA_technology\repository-FCA\Greenplum\datalake\dg_maintenance\tables\dg_maintenance_tmp_estr_assoc_180_tab.sql
utilities.RepoSearcher.quickSearchFor()
	TRACE: the following files defining the same object dg_maintenance.TMP_ESTR_ASSOC_180 has been found: []
movements.Move.moveFileWrap()
	TRACE: Moved ended
movements.Move.moveFileWrap()
	TRACE: Moving file	dg_maintenance_tmp_job_failures_tab.sqlfrom	C:\Users\g.barri\Desktop\ABA21_UTILZ_ABA21\dg_maintenance_tmp_job_failures_tab.sql
to	 C:\Users\g.barri\Documents\FCA_technology\repository-FCA\Greenplum\datalake\dg_maintenance\tables\dg_maintenance_tmp_job_failures_tab.sql
utilities.RepoSearcher.quickSearchFor()
	TRACE: the following files defining the same object dg_maintenance.TMP_JOB_FAILURES has been found: []
movements.Move.moveFileWrap()
	TRACE: Moved ended
movements.Move.moveFileWrap()
	TRACE: Moving file	dg_maintenance_utilz_aba21.sqlfrom	C:\Users\g.barri\Desktop\ABA21_UTILZ_ABA21\dg_maintenance_utilz_aba21.sql
to	 C:\Users\g.barri\Documents\FCA_technology\repository-FCA\Greenplum\datalake\dg_maintenance\functions\dg_maintenance_utilz_aba21.sql
utilities.RepoSearcher.quickSearchFor()
	TRACE: the following files defining the same object dg_maintenance.UTILZ_ABA21 has been found: []
movements.Move.moveFileWrap()
	TRACE: Moved ended
movements.Move.moveFileWrap()
	TRACE: Moving file	dg_maintenance_vs_check_catene.sqlfrom	C:\Users\g.barri\Desktop\ABA21_UTILZ_ABA21\dg_maintenance_vs_check_catene.sql
to	 C:\Users\g.barri\Documents\FCA_technology\repository-FCA\Greenplum\datalake\dg_maintenance\views\dg_maintenance_vs_check_catene.sql
utilities.RepoSearcher.quickSearchFor()
	TRACE: the following files defining the same object dg_maintenance.VS_CHECK_CATENE has been found: []
movements.Move.moveFileWrap()
	TRACE: Moved ended
movements.Move.moveFileWrap()
	TRACE: Moving file	dg_maintenance_vs_check_catene_2liv_fca_1.sqlfrom	C:\Users\g.barri\Desktop\ABA21_UTILZ_ABA21\dg_maintenance_vs_check_catene_2liv_fca_1.sql
to	 C:\Users\g.barri\Documents\FCA_technology\repository-FCA\Greenplum\datalake\dg_maintenance\views\dg_maintenance_vs_check_catene_2liv_fca_1.sql
utilities.RepoSearcher.quickSearchFor()
	TRACE: the following files defining the same object dg_maintenance.VS_CHECK_CATENE_2LIV_FCA_1 has been found: []
movements.Move.moveFileWrap()
	TRACE: Moved ended
movements.Move.moveFileWrap()
	TRACE: Moving file	dg_maintenance_vs_check_catene_2liv_fca_2.sqlfrom	C:\Users\g.barri\Desktop\ABA21_UTILZ_ABA21\dg_maintenance_vs_check_catene_2liv_fca_2.sql
to	 C:\Users\g.barri\Documents\FCA_technology\repository-FCA\Greenplum\datalake\dg_maintenance\views\dg_maintenance_vs_check_catene_2liv_fca_2.sql
utilities.RepoSearcher.quickSearchFor()
	TRACE: the following files defining the same object dg_maintenance.VS_CHECK_CATENE_2LIV_FCA_2 has been found: []
movements.Move.moveFileWrap()
	TRACE: Moved ended
movements.Move.moveFileWrap()
	TRACE: Moving file	dg_maintenance_vs_check_catene_2liv_pwt.sqlfrom	C:\Users\g.barri\Desktop\ABA21_UTILZ_ABA21\dg_maintenance_vs_check_catene_2liv_pwt.sql
to	 C:\Users\g.barri\Documents\FCA_technology\repository-FCA\Greenplum\datalake\dg_maintenance\views\dg_maintenance_vs_check_catene_2liv_pwt.sql
utilities.RepoSearcher.quickSearchFor()
	TRACE: the following files defining the same object dg_maintenance.VS_CHECK_CATENE_2LIV_PWT has been found: []
movements.Move.moveFileWrap()
	TRACE: Moved ended
movements.Move.moveFileWrap()
	TRACE: Moving file	dg_maintenance_vs_check_catene_2liv_q50.sqlfrom	C:\Users\g.barri\Desktop\ABA21_UTILZ_ABA21\dg_maintenance_vs_check_catene_2liv_q50.sql
to	 C:\Users\g.barri\Documents\FCA_technology\repository-FCA\Greenplum\datalake\dg_maintenance\views\dg_maintenance_vs_check_catene_2liv_q50.sql
utilities.RepoSearcher.quickSearchFor()
	TRACE: the following files defining the same object dg_maintenance.VS_CHECK_CATENE_2LIV_Q50 has been found: []
movements.Move.moveFileWrap()
	TRACE: Moved ended
movements.Move.moveFileWrap()
	TRACE: Moving file	dg_maintenance_wt_mov_ingressi_uscite_tab.sqlfrom	C:\Users\g.barri\Desktop\ABA21_UTILZ_ABA21\dg_maintenance_wt_mov_ingressi_uscite_tab.sql
to	 C:\Users\g.barri\Documents\FCA_technology\repository-FCA\Greenplum\datalake\dg_maintenance\tables\dg_maintenance_wt_mov_ingressi_uscite_tab.sql
utilities.RepoSearcher.quickSearchFor()
	TRACE: the following files defining the same object dg_maintenance.WT_MOV_INGRESSI_USCITE has been found: []
movements.Move.moveFileWrap()
	TRACE: Moved ended
movements.Move.moveFileWrap()
	TRACE: Moving file	dg_maintenance_xx_dw_tel_mov_cambiomod_tab.sqlfrom	C:\Users\g.barri\Desktop\ABA21_UTILZ_ABA21\dg_maintenance_xx_dw_tel_mov_cambiomod_tab.sql
to	 C:\Users\g.barri\Documents\FCA_technology\repository-FCA\Greenplum\datalake\dg_maintenance\tables\dg_maintenance_xx_dw_tel_mov_cambiomod_tab.sql
utilities.RepoSearcher.quickSearchFor()
	TRACE: the following files defining the same object dg_maintenance.XX_DW_TEL_MOV_CAMBIOMOD has been found: []
movements.Move.moveFileWrap()
	TRACE: Moved ended
movements.Move.moveFileWrap()
	TRACE: Moving file	dg_utilities_ins_sislog.sqlfrom	C:\Users\g.barri\Desktop\ABA21_UTILZ_ABA21\dg_utilities_ins_sislog.sql
to	 C:\Users\g.barri\Documents\FCA_technology\repository-FCA\Greenplum\datalake\dg_utilities\functions\dg_utilities_ins_sislog.sql
utilities.RepoSearcher.quickSearchFor()
	TRACE: the following files defining the same object dg_utilities.INS_SISLOG has been found: [C:\Users\g.barri\Documents\FCA_technology\repository-FCA\Greenplum\datalake\dg_utilities\functions\dg_utilities_ins_sislog.sql]
movements.Move.moveFileWrap()
	TRACE: A file which defines the same object as	dg_utilities_ins_sislog.sql	already exists. Original file:	C:\Users\g.barri\Desktop\ABA21_UTILZ_ABA21\dg_utilities_ins_sislog.sql
movements.Move.moveFileWrap()
	TRACE: Moved ended
movements.Move.moveFileWrap()
	TRACE: Moving file	dg_utilities_prg_truncate_table.sqlfrom	C:\Users\g.barri\Desktop\ABA21_UTILZ_ABA21\dg_utilities_prg_truncate_table.sql
to	 C:\Users\g.barri\Documents\FCA_technology\repository-FCA\Greenplum\datalake\dg_utilities\functions\dg_utilities_prg_truncate_table.sql
utilities.RepoSearcher.quickSearchFor()
	TRACE: the following files defining the same object dg_utilities.PRG_TRUNCATE_TABLE has been found: [C:\Users\g.barri\Documents\FCA_technology\repository-FCA\Greenplum\datalake\dg_utilities\functions\dg_utilities_prg_truncate_table.sql]
movements.Move.moveFileWrap()
	TRACE: A file which defines the same object as	dg_utilities_prg_truncate_table.sql	already exists. Original file:	C:\Users\g.barri\Desktop\ABA21_UTILZ_ABA21\dg_utilities_prg_truncate_table.sql
movements.Move.moveFileWrap()
	TRACE: Moved ended
movements.Move.moveFileWrap()
	TRACE: Moving file	dg_utilities_proc_et_st_loading.sqlfrom	C:\Users\g.barri\Desktop\ABA21_UTILZ_ABA21\dg_utilities_proc_et_st_loading.sql
to	 C:\Users\g.barri\Documents\FCA_technology\repository-FCA\Greenplum\datalake\dg_utilities\functions\dg_utilities_proc_et_st_loading.sql
utilities.RepoSearcher.quickSearchFor()
	TRACE: the following files defining the same object dg_utilities.PROC_ET_ST_LOADING has been found: []
movements.Move.moveFileWrap()
	TRACE: Moved ended
movements.Move.moveFileWrap()
	TRACE: Moving file	dg_utilities_proc_et_st_nowarning_loading.sqlfrom	C:\Users\g.barri\Desktop\ABA21_UTILZ_ABA21\dg_utilities_proc_et_st_nowarning_loading.sql
to	 C:\Users\g.barri\Documents\FCA_technology\repository-FCA\Greenplum\datalake\dg_utilities\functions\dg_utilities_proc_et_st_nowarning_loading.sql
utilities.RepoSearcher.quickSearchFor()
	TRACE: the following files defining the same object dg_utilities.PROC_ET_ST_NOWARNING_LOADING has been found: []
movements.Move.moveFileWrap()
	TRACE: Moved ended
movements.Move.moveFileWrap()
	TRACE: Moving file	dg_utilities_pr_function_log_dsx.sqlfrom	C:\Users\g.barri\Desktop\ABA21_UTILZ_ABA21\dg_utilities_pr_function_log_dsx.sql
to	 C:\Users\g.barri\Documents\FCA_technology\repository-FCA\Greenplum\datalake\dg_utilities\functions\dg_utilities_pr_function_log_dsx.sql
utilities.RepoSearcher.quickSearchFor()
	TRACE: the following files defining the same object dg_utilities.PR_FUNCTION_LOG_DSX has been found: []
movements.Move.moveFileWrap()
	TRACE: Moved ended
movements.Move.moveFileWrap()
	TRACE: Moving file	dg_utilities_sislog_cns.sqlfrom	C:\Users\g.barri\Desktop\ABA21_UTILZ_ABA21\dg_utilities_sislog_cns.sql
to	 C:\Users\g.barri\Documents\FCA_technology\repository-FCA\Greenplum\datalake\dg_utilities\tables\cns\dg_utilities_sislog_cns.sql
utilities.RepoSearcher.quickSearchFor()
	TRACE: the following files defining the same object SISLOG_PK has been found: [C:\Users\g.barri\Documents\FCA_technology\repository-FCA\Greenplum\datalake\bl_scm_ind\tables\xxschapp_sislog_cns.sql]
movements.Move.moveFileWrap()
	TRACE: A file which defines the same object as	dg_utilities_sislog_cns.sql	already exists. Original file:	C:\Users\g.barri\Desktop\ABA21_UTILZ_ABA21\dg_utilities_sislog_cns.sql
movements.Move.moveFileWrap()
	TRACE: Moved ended
movements.Move.moveFileWrap()
	TRACE: Moving file	dg_utilities_sislog_idx.sqlfrom	C:\Users\g.barri\Desktop\ABA21_UTILZ_ABA21\dg_utilities_sislog_idx.sql
to	 C:\Users\g.barri\Documents\FCA_technology\repository-FCA\Greenplum\datalake\dg_utilities\tables\idx\dg_utilities_sislog_idx.sql
utilities.RepoSearcher.quickSearchFor()
	TRACE: the following files defining the same object SISLOG_DATA has been found: [C:\Users\g.barri\Documents\FCA_technology\repository-FCA\Greenplum\datalake\bl_scm_ind\tables\xxschapp_sislog_idx.sql]
movements.Move.moveFileWrap()
	TRACE: A file which defines the same object as	dg_utilities_sislog_idx.sql	already exists. Original file:	C:\Users\g.barri\Desktop\ABA21_UTILZ_ABA21\dg_utilities_sislog_idx.sql
movements.Move.moveFileWrap()
	TRACE: Moved ended
movements.Move.moveFileWrap()
	TRACE: Moving file	dg_utilities_sislog_tab.sqlfrom	C:\Users\g.barri\Desktop\ABA21_UTILZ_ABA21\dg_utilities_sislog_tab.sql
to	 C:\Users\g.barri\Documents\FCA_technology\repository-FCA\Greenplum\datalake\dg_utilities\tables\dg_utilities_sislog_tab.sql
utilities.RepoSearcher.quickSearchFor()
	TRACE: the following files defining the same object dg_utilities.SISLOG has been found: [C:\Users\g.barri\Documents\FCA_technology\repository-FCA\Greenplum\datalake\dg_utilities\tables\dg_utilities_sislog_tab.sql]
movements.Move.moveFileWrap()
	TRACE: A file which defines the same object as	dg_utilities_sislog_tab.sql	already exists. Original file:	C:\Users\g.barri\Desktop\ABA21_UTILZ_ABA21\dg_utilities_sislog_tab.sql
movements.Move.moveFileWrap()
	TRACE: Moved ended
movements.Move.moveFileWrap()
	TRACE: Moving file	dg_utilities_tb_cnf_group_mail_tab.sqlfrom	C:\Users\g.barri\Desktop\ABA21_UTILZ_ABA21\dg_utilities_tb_cnf_group_mail_tab.sql
to	 C:\Users\g.barri\Documents\FCA_technology\repository-FCA\Greenplum\datalake\dg_utilities\tables\dg_utilities_tb_cnf_group_mail_tab.sql
utilities.RepoSearcher.quickSearchFor()
	TRACE: the following files defining the same object dg_utilities.TB_CNF_GROUP_MAIL has been found: [C:\Users\g.barri\Documents\FCA_technology\repository-FCA\Greenplum\datalake\dg_utilities\tables\dg_utilities_tb_cnf_group_mail_tab.sql]
movements.Move.moveFileWrap()
	TRACE: A file which defines the same object as	dg_utilities_tb_cnf_group_mail_tab.sql	already exists. Original file:	C:\Users\g.barri\Desktop\ABA21_UTILZ_ABA21\dg_utilities_tb_cnf_group_mail_tab.sql
movements.Move.moveFileWrap()
	TRACE: Moved ended
movements.Move.moveFileWrap()
	TRACE: Moving file	dg_utilities_tb_mail_lob_tab.sqlfrom	C:\Users\g.barri\Desktop\ABA21_UTILZ_ABA21\dg_utilities_tb_mail_lob_tab.sql
to	 C:\Users\g.barri\Documents\FCA_technology\repository-FCA\Greenplum\datalake\dg_utilities\tables\dg_utilities_tb_mail_lob_tab.sql
utilities.RepoSearcher.quickSearchFor()
	TRACE: the following files defining the same object dg_utilities.TB_MAIL_LOB has been found: []
movements.Move.moveFileWrap()
	TRACE: Moved ended
movements.Move.moveFileWrap()
	TRACE: Moving file	dg_utilities_v_sislog.sqlfrom	C:\Users\g.barri\Desktop\ABA21_UTILZ_ABA21\dg_utilities_v_sislog.sql
to	 C:\Users\g.barri\Documents\FCA_technology\repository-FCA\Greenplum\datalake\dg_utilities\views\dg_utilities_v_sislog.sql
utilities.RepoSearcher.quickSearchFor()
	TRACE: the following files defining the same object dg_utilities.V_SISLOG has been found: [C:\Users\g.barri\Documents\FCA_technology\repository-FCA\Greenplum\datalake\dg_utilities\views\dg_utilities_v_sislog.sql]
movements.Move.moveFileWrap()
	TRACE: A file which defines the same object as	dg_utilities_v_sislog.sql	already exists. Original file:	C:\Users\g.barri\Desktop\ABA21_UTILZ_ABA21\dg_utilities_v_sislog.sql
movements.Move.moveFileWrap()
	TRACE: Moved ended
movements.Move.moveFileWrap()
	TRACE: Moving file	dg_utilities_xx_job_running.sqlfrom	C:\Users\g.barri\Desktop\ABA21_UTILZ_ABA21\dg_utilities_xx_job_running.sql
to	 C:\Users\g.barri\Documents\FCA_technology\repository-FCA\Greenplum\datalake\dg_utilities\views\dg_utilities_xx_job_running.sql
utilities.RepoSearcher.quickSearchFor()
	TRACE: the following files defining the same object dg_utilities.XX_JOB_RUNNING has been found: []
movements.Move.moveFileWrap()
	TRACE: Moved ended
movements.Move.moveFileWrap()
	TRACE: Moving file	dsetl_err_dw_ordine_tab.sqlfrom	C:\Users\g.barri\Desktop\ABA21_UTILZ_ABA21\dsetl_err_dw_ordine_tab.sql
to	 C:\Users\g.barri\Documents\FCA_technology\repository-FCA\Greenplum\datalake\dsetl_err_dw_ordine_tab.sql
movements.Move.moveFileWrap()
	WARN: Object	DSETL.ERR$_DW_ORDINE	defined in	C:\Users\g.barri\Desktop\ABA21_UTILZ_ABA21\dsetl_err_dw_ordine_tab.sql	has not been marked as migrated or has been missed. Pls check C:\Users\g.barri\Downloads\BA2 - DWH Analytics (15).xlsx for more info
movements.Move.moveFileWrap()
	TRACE: Moved ended
movements.Move.moveFileWrap()
	TRACE: Moving file	dsetl_wb_rt_audit_dsx_tab.sqlfrom	C:\Users\g.barri\Desktop\ABA21_UTILZ_ABA21\dsetl_wb_rt_audit_dsx_tab.sql
to	 C:\Users\g.barri\Documents\FCA_technology\repository-FCA\Greenplum\datalake\dsetl_wb_rt_audit_dsx_tab.sql
movements.Move.moveFileWrap()
	WARN: Object	DSETL.WB_RT_AUDIT_DSX	defined in	C:\Users\g.barri\Desktop\ABA21_UTILZ_ABA21\dsetl_wb_rt_audit_dsx_tab.sql	has not been marked as migrated or has been missed. Pls check C:\Users\g.barri\Downloads\BA2 - DWH Analytics (15).xlsx for more info
movements.Move.moveFileWrap()
	TRACE: Moved ended
movements.Move.moveFileWrap()
	TRACE: Moving file	sys_dual_tab.sqlfrom	C:\Users\g.barri\Desktop\ABA21_UTILZ_ABA21\sys_dual_tab.sql
to	 C:\Users\g.barri\Documents\FCA_technology\repository-FCA\Greenplum\datalake\sys_dual_tab.sql
movements.Move.moveFileWrap()
	WARN: Object	SYS.DUAL	defined in	C:\Users\g.barri\Desktop\ABA21_UTILZ_ABA21\sys_dual_tab.sql	has not been marked as migrated or has been missed. Pls check C:\Users\g.barri\Downloads\BA2 - DWH Analytics (15).xlsx for more info
movements.Move.moveFileWrap()
	TRACE: Moved ended
movements.Move.moveFileWrap()
	TRACE: Moving file	tl_analytics_dm_col_est_int_cns.sqlfrom	C:\Users\g.barri\Desktop\ABA21_UTILZ_ABA21\tl_analytics_dm_col_est_int_cns.sql
to	 C:\Users\g.barri\Documents\FCA_technology\repository-FCA\Greenplum\datalake\tl_analytics\tables\cns\tl_analytics_dm_col_est_int_cns.sql
utilities.RepoSearcher.quickSearchFor()
	TRACE: the following files defining the same object PK_COLORE_EST_INT has been found: [C:\Users\g.barri\Documents\FCA_technology\repository-FCA\Greenplum\datalake\tl_analytics\tables\cns\tl_analytics_dm_col_est_int_cns.sql]
movements.Move.moveFileWrap()
	TRACE: A file which defines the same object as	tl_analytics_dm_col_est_int_cns.sql	already exists. Original file:	C:\Users\g.barri\Desktop\ABA21_UTILZ_ABA21\tl_analytics_dm_col_est_int_cns.sql
movements.Move.moveFileWrap()
	TRACE: Moved ended
movements.Move.moveFileWrap()
	TRACE: Moving file	tl_analytics_dm_col_est_int_tab.sqlfrom	C:\Users\g.barri\Desktop\ABA21_UTILZ_ABA21\tl_analytics_dm_col_est_int_tab.sql
to	 C:\Users\g.barri\Documents\FCA_technology\repository-FCA\Greenplum\datalake\tl_analytics\tables\tl_analytics_dm_col_est_int_tab.sql
utilities.RepoSearcher.quickSearchFor()
	TRACE: the following files defining the same object tl_analytics.DM_COL_EST_INT has been found: [C:\Users\g.barri\Documents\FCA_technology\repository-FCA\Greenplum\datalake\tl_analytics\tables\tl_analytics_dm_col_est_int_tab.sql]
movements.Move.moveFileWrap()
	TRACE: A file which defines the same object as	tl_analytics_dm_col_est_int_tab.sql	already exists. Original file:	C:\Users\g.barri\Desktop\ABA21_UTILZ_ABA21\tl_analytics_dm_col_est_int_tab.sql
movements.Move.moveFileWrap()
	TRACE: Moved ended
movements.Move.moveFileWrap()
	TRACE: Moving file	tl_analytics_dm_day_cns.sqlfrom	C:\Users\g.barri\Desktop\ABA21_UTILZ_ABA21\tl_analytics_dm_day_cns.sql
to	 C:\Users\g.barri\Documents\FCA_technology\repository-FCA\Greenplum\datalake\tl_analytics\tables\cns\tl_analytics_dm_day_cns.sql
utilities.RepoSearcher.quickSearchFor()
	TRACE: the following files defining the same object PK_DAY has been found: [C:\Users\g.barri\Documents\FCA_technology\repository-FCA\Greenplum\datalake\tl_analytics\tables\cns\tl_analytics_dm_day_cns.sql]
movements.Move.moveFileWrap()
	TRACE: A file which defines the same object as	tl_analytics_dm_day_cns.sql	already exists. Original file:	C:\Users\g.barri\Desktop\ABA21_UTILZ_ABA21\tl_analytics_dm_day_cns.sql
movements.Move.moveFileWrap()
	TRACE: Moved ended
movements.Move.moveFileWrap()
	TRACE: Moving file	tl_analytics_dm_day_idx.sqlfrom	C:\Users\g.barri\Desktop\ABA21_UTILZ_ABA21\tl_analytics_dm_day_idx.sql
to	 C:\Users\g.barri\Documents\FCA_technology\repository-FCA\Greenplum\datalake\tl_analytics\tables\idx\tl_analytics_dm_day_idx.sql
utilities.RepoSearcher.quickSearchFor()
	TRACE: the following files defining the same object IX_DM_DAY_JOBID has been found: [C:\Users\g.barri\Documents\FCA_technology\repository-FCA\Greenplum\datalake\tl_analytics\tables\idx\tl_analytics_dm_day_idx.sql]
movements.Move.moveFileWrap()
	TRACE: A file which defines the same object as	tl_analytics_dm_day_idx.sql	already exists. Original file:	C:\Users\g.barri\Desktop\ABA21_UTILZ_ABA21\tl_analytics_dm_day_idx.sql
movements.Move.moveFileWrap()
	TRACE: Moved ended
movements.Move.moveFileWrap()
	TRACE: Moving file	tl_analytics_dm_day_tab.sqlfrom	C:\Users\g.barri\Desktop\ABA21_UTILZ_ABA21\tl_analytics_dm_day_tab.sql
to	 C:\Users\g.barri\Documents\FCA_technology\repository-FCA\Greenplum\datalake\tl_analytics\tables\tl_analytics_dm_day_tab.sql
utilities.RepoSearcher.quickSearchFor()
	TRACE: the following files defining the same object tl_analytics.DM_DAY has been found: [C:\Users\g.barri\Documents\FCA_technology\repository-FCA\Greenplum\datalake\tl_analytics\tables\tl_analytics_dm_day_tab.sql]
