loaders.AbstractLoader.popolateMap()
	INFO: PK made of column: Target Schema
loaders.AbstractLoader.popolateMap()
	INFO: PK made of column: External Table
loaders.AbstractLoader.popolateMap()
	INFO: Exporting column: Target Table
loaders.AbstractLoader.popolateMap()
	INFO: Exporting column: Migration
loaders.AbstractLoader.popolateMap()
	INFO: PK made of column: Target Schema
loaders.AbstractLoader.popolateMap()
	INFO: PK made of column: Table
loaders.AbstractLoader.popolateMap()
	INFO: Exporting column: Migration
loaders.AbstractLoader.popolateMap()
	INFO: PK made of column: Target Schema
loaders.AbstractLoader.popolateMap()
	INFO: PK made of column: Sequence
loaders.AbstractLoader.popolateMap()
	INFO: Exporting column: Migration
loaders.AbstractLoader.popolateMap()
	INFO: PK made of column: Target Schema
loaders.AbstractLoader.popolateMap()
	INFO: PK made of column: View
loaders.AbstractLoader.popolateMap()
	INFO: Exporting column: Migration
loaders.AbstractLoader.popolateMap()
	INFO: PK made of column: Target Schema
loaders.AbstractLoader.popolateMap()
	INFO: PK made of column: Procedure
loaders.AbstractLoader.popolateMap()
	INFO: Exporting column: Migration
loaders.AbstractLoader.popolateMap()
	INFO: PK made of column: Target Schema
loaders.AbstractLoader.popolateMap()
	INFO: PK made of column: Object
loaders.AbstractLoader.popolateMap()
	INFO: Exporting column: PXF Target Name
loaders.AbstractLoader.popolateMap()
	INFO: Exporting column: Migration
loaders.LoaderMultipleSheetsDBExcel.loadMap()
	ERROR: The PK tl_scm_com.VS_TRATTA_MODELLO used for mapping from C:\Users\g.barri\Downloads\BA2 - DWH Analytics (24).xlsx is not unique!	]	replaced by	[pxf_scmcom_obt_tratta_modello]
loaders.LoaderMultipleSheetsDBExcel.loadMap()
	ERROR: The PK tl_scm_com.VS_DETT_TRATTA used for mapping from C:\Users\g.barri\Downloads\BA2 - DWH Analytics (24).xlsx is not unique!	]	replaced by	[pxf_scmcom_obt_dett_tratta]
loaders.LoaderMultipleSheetsDBExcel.loadMap()
	ERROR: The PK tl_scm_com.VS_CONTRATTO_EX used for mapping from C:\Users\g.barri\Downloads\BA2 - DWH Analytics (24).xlsx is not unique!	]	replaced by	[pxf_scmcom_obt_contratto_ex]
loaders.LoaderMultipleSheetsDBExcel.loadMap()
	ERROR: The PK tl_scm_com.VS_TRATTA used for mapping from C:\Users\g.barri\Downloads\BA2 - DWH Analytics (24).xlsx is not unique!	]	replaced by	[pxf_scmcom_obt_tratta]
loaders.LoaderMultipleSheetsDBExcel.loadMap()
	ERROR: The PK tl_scm_com.VS_CONVENZIONE_MODELLO used for mapping from C:\Users\g.barri\Downloads\BA2 - DWH Analytics (24).xlsx is not unique!	]	replaced by	[pxf_scmcom_obt_convenzione_modello]
loaders.LoaderMultipleSheetsDBExcel.loadMap()
	ERROR: The PK tl_scm_com.VS_TIPO_PERCORSO used for mapping from C:\Users\g.barri\Downloads\BA2 - DWH Analytics (24).xlsx is not unique!	]	replaced by	[pxf_scmcom_obt_tipo_percorso]
loaders.LoaderMultipleSheetsDBExcel.loadMap()
	ERROR: The PK tl_scm_com.VS_CONVENZIONE used for mapping from C:\Users\g.barri\Downloads\BA2 - DWH Analytics (24).xlsx is not unique!	]	replaced by	[pxf_scmcom_obt_convenzione]
loaders.LoaderMultipleSheetsDBExcel.loadMap()
	ERROR: The PK tl_scm_com.VS_PERCORSO_COMP used for mapping from C:\Users\g.barri\Downloads\BA2 - DWH Analytics (24).xlsx is not unique!	]	replaced by	[pxf_scmcom_obt_percorso_comp]
loaders.LoaderMultipleSheetsDBExcel.loadMap()
	ERROR: The PK tl_scm_com.VS_MOD_TRASP used for mapping from C:\Users\g.barri\Downloads\BA2 - DWH Analytics (24).xlsx is not unique!	]	replaced by	[pxf_scmcom_obt_mod_trasp]
loaders.LoaderMultipleSheetsDBExcel.loadMap()
	ERROR: The PK tl_scm_com.VS_DETT_PERCORSO_COMP used for mapping from C:\Users\g.barri\Downloads\BA2 - DWH Analytics (24).xlsx is not unique!	]	replaced by	[pxf_scmcom_obt_dett_percorso_comp]
loaders.LoaderMultipleSheetsDBExcel.loadMap()
	ERROR: The PK tl_scm_com.VS_PAGANTE used for mapping from C:\Users\g.barri\Downloads\BA2 - DWH Analytics (24).xlsx is not unique!	]	replaced by	[pxf_scmcom_obt_pagante]
loaders.LoaderMultipleSheetsDBExcel.loadMap()
	ERROR: The PK tl_scm_com.VS_CONTRATTO used for mapping from C:\Users\g.barri\Downloads\BA2 - DWH Analytics (24).xlsx is not unique!	]	replaced by	[pxf_scmcom_obt_contratto]
loaders.LoaderMultipleSheetsDBExcel.loadMap()
	ERROR: The PK tl_scm_com.VS_DETT_PERCORSO used for mapping from C:\Users\g.barri\Downloads\BA2 - DWH Analytics (24).xlsx is not unique!	]	replaced by	[pxf_scmcom_obt_dett_percorso]
loaders.LoaderMultipleSheetsDBExcel.loadMap()
	ERROR: The PK tl_scm_com.VS_RAGGR_PIAZZ used for mapping from C:\Users\g.barri\Downloads\BA2 - DWH Analytics (24).xlsx is not unique!	]	replaced by	[pxf_scmcom_obt_raggr_piazz]
loaders.LoaderMultipleSheetsDBExcel.loadMap()
	ERROR: The PK tl_scm_com.VS_PERCORSO_DEL used for mapping from C:\Users\g.barri\Downloads\BA2 - DWH Analytics (24).xlsx is not unique!	]	replaced by	[pxf_scmcom_obt_percorso_del]
loaders.LoaderMultipleSheetsDBExcel.loadMap()
	ERROR: The PK tl_scm_com.VS_TRATTA_COMP used for mapping from C:\Users\g.barri\Downloads\BA2 - DWH Analytics (24).xlsx is not unique!	]	replaced by	[pxf_scmcom_obt_tratta_comp]
loaders.LoaderMultipleSheetsDBExcel.loadMap()
	ERROR: The PK tl_scm_com.VS_DETT_PERCORSO_DEL used for mapping from C:\Users\g.barri\Downloads\BA2 - DWH Analytics (24).xlsx is not unique!	]	replaced by	[pxf_scmcom_obt_dett_percorso_del]
loaders.LoaderMultipleSheetsDBExcel.loadMap()
	ERROR: The PK tl_scm_com.DW_DETODE used for mapping from C:\Users\g.barri\Downloads\BA2 - DWH Analytics (24).xlsx is not unique!	]	replaced by	[pxf_scmcom_obt_detode]
loaders.LoaderMultipleSheetsDBExcel.loadMap()
	ERROR: The PK tl_scm_com.VS_TRATTA_DEL used for mapping from C:\Users\g.barri\Downloads\BA2 - DWH Analytics (24).xlsx is not unique!	]	replaced by	[pxf_scmcom_obt_tratta_del]
loaders.LoaderMultipleSheetsDBExcel.loadMap()
	ERROR: The PK tl_scm_com.VS_PERCORSO used for mapping from C:\Users\g.barri\Downloads\BA2 - DWH Analytics (24).xlsx is not unique!	]	replaced by	[pxf_scmcom_obt_percorso]
loaders.LoaderMultipleSheetsDBExcel.loadMap()
	ERROR: The PK tl_scm_com.VS_CAMBIO_VALUTA used for mapping from C:\Users\g.barri\Downloads\BA2 - DWH Analytics (24).xlsx is not unique!	]	replaced by	[pxf_scmcom_obt_cambio_valuta]
loaders.LoaderMultipleSheetsDBExcel.loadMap()
	ERROR: The PK tl_scm_com.VS_DETT_TRATTA_DEL used for mapping from C:\Users\g.barri\Downloads\BA2 - DWH Analytics (24).xlsx is not unique!	]	replaced by	[pxf_scmcom_obt_dett_tratta_del]
