movements.Move.main()
	INFO: Starting main of class movements.Move
dirTree.BasicRuledFolder.<init>()
	DEBUG: new folder EDWP2 at 
C:\Users\g.barri\Desktop\EDWP2
dirTree.BasicRuledFolder.<init>()
	DEBUG: new folder tl_scm_ind at 
C:\Users\g.barri\Desktop\EDWP2\tl_scm_ind
dirTree.BasicRuledFolder.<init>()
	DEBUG: new folder tl_pur at 
C:\Users\g.barri\Desktop\EDWP2\tl_pur
dirTree.BasicRuledFolder.<init>()
	DEBUG: new folder tl_mfg at 
C:\Users\g.barri\Desktop\EDWP2\tl_mfg
dirTree.BasicRuledFolder.<init>()
	DEBUG: new folder tl_analytics at 
C:\Users\g.barri\Desktop\EDWP2\tl_analytics
dirTree.BasicRuledFolder.<init>()
	DEBUG: new folder oracompat at 
C:\Users\g.barri\Desktop\EDWP2\oracompat
dirTree.BasicRuledFolder.<init>()
	DEBUG: new folder lg_mfg at 
C:\Users\g.barri\Desktop\EDWP2\lg_mfg
dirTree.BasicRuledFolder.<init>()
	DEBUG: new folder ds_mfg at 
C:\Users\g.barri\Desktop\EDWP2\ds_mfg
dirTree.BasicRuledFolder.<init>()
	DEBUG: new folder dg_utilities at 
C:\Users\g.barri\Desktop\EDWP2\dg_utilities
dirTree.BasicRuledFolder.<init>()
	DEBUG: new folder bl_scm_ind at 
C:\Users\g.barri\Desktop\EDWP2\bl_scm_ind
dirTree.BasicRuledFolder.<init>()
	DEBUG: new folder bl_mfg at 
C:\Users\g.barri\Desktop\EDWP2\bl_mfg
dirTree.BasicRuledFolder.<init>()
	DEBUG: new folder views at 
C:\Users\g.barri\Desktop\EDWP2\tl_scm_ind\views
dirTree.BasicRuledFolder.<init>()
	DEBUG: new folder wt at 
C:\Users\g.barri\Desktop\EDWP2\tl_scm_ind\views\wt
dirTree.BasicRuledFolder.<init>()
	DEBUG: new folder st at 
C:\Users\g.barri\Desktop\EDWP2\tl_scm_ind\views\st
dirTree.BasicRuledFolder.<init>()
	DEBUG: new folder dw at 
C:\Users\g.barri\Desktop\EDWP2\tl_scm_ind\views\dw
dirTree.BasicRuledFolder.<init>()
	DEBUG: new folder tables at 
C:\Users\g.barri\Desktop\EDWP2\tl_scm_ind\tables
dirTree.BasicRuledFolder.<init>()
	DEBUG: new folder de at 
C:\Users\g.barri\Desktop\EDWP2\tl_scm_ind\tables\de
dirTree.BasicRuledFolder.<init>()
	DEBUG: new folder dw at 
C:\Users\g.barri\Desktop\EDWP2\tl_scm_ind\tables\dw
dirTree.BasicRuledFolder.<init>()
	DEBUG: new folder st at 
C:\Users\g.barri\Desktop\EDWP2\tl_scm_ind\tables\st
dirTree.BasicRuledFolder.<init>()
	DEBUG: new folder wt at 
C:\Users\g.barri\Desktop\EDWP2\tl_scm_ind\tables\wt
dirTree.BasicRuledFolder.<init>()
	DEBUG: new folder functions at 
C:\Users\g.barri\Desktop\EDWP2\tl_scm_ind\functions
dirTree.BasicRuledFolder.<init>()
	DEBUG: new folder pr at 
C:\Users\g.barri\Desktop\EDWP2\tl_scm_ind\functions\pr
dirTree.BasicRuledFolder.<init>()
	DEBUG: new folder views at 
C:\Users\g.barri\Desktop\EDWP2\bl_mfg\views
dirTree.BasicRuledFolder.<init>()
	DEBUG: new folder vs_dm at 
C:\Users\g.barri\Desktop\EDWP2\bl_mfg\views\vs_dm
dirTree.BasicRuledFolder.<init>()
	DEBUG: new folder vs_ft at 
C:\Users\g.barri\Desktop\EDWP2\bl_mfg\views\vs_ft
dirTree.BasicRuledFolder.<init>()
	DEBUG: new folder tables at 
C:\Users\g.barri\Desktop\EDWP2\bl_mfg\tables
dirTree.BasicRuledFolder.<init>()
	DEBUG: new folder dm at 
C:\Users\g.barri\Desktop\EDWP2\bl_mfg\tables\dm
dirTree.BasicRuledFolder.<init>()
	DEBUG: new folder ft at 
C:\Users\g.barri\Desktop\EDWP2\bl_mfg\tables\ft
dirTree.BasicRuledFolder.<init>()
	DEBUG: new folder wt at 
C:\Users\g.barri\Desktop\EDWP2\bl_mfg\tables\wt
dirTree.BasicRuledFolder.<init>()
	DEBUG: new folder functions at 
C:\Users\g.barri\Desktop\EDWP2\bl_mfg\functions
dirTree.BasicRuledFolder.<init>()
	DEBUG: new folder pr at 
C:\Users\g.barri\Desktop\EDWP2\bl_mfg\functions\pr
dirTree.BasicRuledFolder.<init>()
	DEBUG: new folder packages at 
C:\Users\g.barri\Desktop\EDWP2\bl_mfg\functions\packages
dirTree.BasicRuledFolder.<init>()
	DEBUG: new folder views at 
C:\Users\g.barri\Desktop\EDWP2\bl_scm_ind\views
dirTree.BasicRuledFolder.<init>()
	DEBUG: new folder vs_dm at 
C:\Users\g.barri\Desktop\EDWP2\bl_scm_ind\views\vs_dm
dirTree.BasicRuledFolder.<init>()
	DEBUG: new folder vs_dw at 
C:\Users\g.barri\Desktop\EDWP2\bl_scm_ind\views\vs_dw
dirTree.BasicRuledFolder.<init>()
	DEBUG: new folder vs_ft at 
C:\Users\g.barri\Desktop\EDWP2\bl_scm_ind\views\vs_ft
dirTree.BasicRuledFolder.<init>()
	DEBUG: new folder vs_wt at 
C:\Users\g.barri\Desktop\EDWP2\bl_scm_ind\views\vs_wt
dirTree.BasicRuledFolder.<init>()
	DEBUG: new folder tables at 
C:\Users\g.barri\Desktop\EDWP2\bl_scm_ind\tables
dirTree.BasicRuledFolder.<init>()
	DEBUG: new folder dm at 
C:\Users\g.barri\Desktop\EDWP2\bl_scm_ind\tables\dm
dirTree.BasicRuledFolder.<init>()
	DEBUG: new folder ft at 
C:\Users\g.barri\Desktop\EDWP2\bl_scm_ind\tables\ft
dirTree.BasicRuledFolder.<init>()
	DEBUG: new folder wt at 
C:\Users\g.barri\Desktop\EDWP2\bl_scm_ind\tables\wt
dirTree.BasicRuledFolder.<init>()
	DEBUG: new folder functions at 
C:\Users\g.barri\Desktop\EDWP2\bl_scm_ind\functions
dirTree.BasicRuledFolder.<init>()
	DEBUG: new folder pr at 
C:\Users\g.barri\Desktop\EDWP2\bl_scm_ind\functions\pr
dirTree.BasicRuledFolder.<init>()
	DEBUG: new folder tables at 
C:\Users\g.barri\Desktop\EDWP2\dg_utilities\tables
dirTree.BasicRuledFolder.<init>()
	DEBUG: new folder wb at 
C:\Users\g.barri\Desktop\EDWP2\dg_utilities\tables\wb
dirTree.BasicRuledFolder.<init>()
	DEBUG: new folder functions at 
C:\Users\g.barri\Desktop\EDWP2\dg_utilities\functions
dirTree.BasicRuledFolder.<init>()
	DEBUG: new folder pr at 
C:\Users\g.barri\Desktop\EDWP2\dg_utilities\functions\pr
dirTree.BasicRuledFolder.<init>()
	DEBUG: new folder fn at 
C:\Users\g.barri\Desktop\EDWP2\dg_utilities\functions\fn
dirTree.BasicRuledFolder.<init>()
	DEBUG: new folder tables at 
C:\Users\g.barri\Desktop\EDWP2\ds_mfg\tables
dirTree.BasicRuledFolder.<init>()
	DEBUG: new folder functions at 
C:\Users\g.barri\Desktop\EDWP2\lg_mfg\functions
dirTree.BasicRuledFolder.<init>()
	DEBUG: new folder functions at 
C:\Users\g.barri\Desktop\EDWP2\oracompat\functions
dirTree.BasicRuledFolder.<init>()
	DEBUG: new folder views at 
C:\Users\g.barri\Desktop\EDWP2\tl_analytics\views
dirTree.BasicRuledFolder.<init>()
	DEBUG: new folder dw at 
C:\Users\g.barri\Desktop\EDWP2\tl_analytics\views\dw
dirTree.BasicRuledFolder.<init>()
	DEBUG: new folder st at 
C:\Users\g.barri\Desktop\EDWP2\tl_analytics\views\st
dirTree.BasicRuledFolder.<init>()
	DEBUG: new folder wt at 
C:\Users\g.barri\Desktop\EDWP2\tl_analytics\views\wt
dirTree.BasicRuledFolder.<init>()
	DEBUG: new folder tables at 
C:\Users\g.barri\Desktop\EDWP2\tl_analytics\tables
dirTree.BasicRuledFolder.<init>()
	DEBUG: new folder dm at 
C:\Users\g.barri\Desktop\EDWP2\tl_analytics\tables\dm
dirTree.BasicRuledFolder.<init>()
	DEBUG: new folder dw at 
C:\Users\g.barri\Desktop\EDWP2\tl_analytics\tables\dw
dirTree.BasicRuledFolder.<init>()
	DEBUG: new folder de at 
C:\Users\g.barri\Desktop\EDWP2\tl_analytics\tables\de
dirTree.BasicRuledFolder.<init>()
	DEBUG: new folder st at 
C:\Users\g.barri\Desktop\EDWP2\tl_analytics\tables\st
dirTree.BasicRuledFolder.<init>()
	DEBUG: new folder wt at 
C:\Users\g.barri\Desktop\EDWP2\tl_analytics\tables\wt
dirTree.BasicRuledFolder.<init>()
	DEBUG: new folder function at 
C:\Users\g.barri\Desktop\EDWP2\tl_analytics\function
dirTree.BasicRuledFolder.<init>()
	DEBUG: new folder pr at 
C:\Users\g.barri\Desktop\EDWP2\tl_analytics\function\pr
dirTree.BasicRuledFolder.<init>()
	DEBUG: new folder views at 
C:\Users\g.barri\Desktop\EDWP2\tl_mfg\views
dirTree.BasicRuledFolder.<init>()
	DEBUG: new folder dw at 
C:\Users\g.barri\Desktop\EDWP2\tl_mfg\views\dw
dirTree.BasicRuledFolder.<init>()
	DEBUG: new folder st at 
C:\Users\g.barri\Desktop\EDWP2\tl_mfg\views\st
dirTree.BasicRuledFolder.<init>()
	DEBUG: new folder wt at 
C:\Users\g.barri\Desktop\EDWP2\tl_mfg\views\wt
dirTree.BasicRuledFolder.<init>()
	DEBUG: new folder tables at 
C:\Users\g.barri\Desktop\EDWP2\tl_mfg\tables
dirTree.BasicRuledFolder.<init>()
	DEBUG: new folder dw at 
C:\Users\g.barri\Desktop\EDWP2\tl_mfg\tables\dw
dirTree.BasicRuledFolder.<init>()
	DEBUG: new folder de at 
C:\Users\g.barri\Desktop\EDWP2\tl_mfg\tables\de
dirTree.BasicRuledFolder.<init>()
	DEBUG: new folder st at 
C:\Users\g.barri\Desktop\EDWP2\tl_mfg\tables\st
dirTree.BasicRuledFolder.<init>()
	DEBUG: new folder wt at 
C:\Users\g.barri\Desktop\EDWP2\tl_mfg\tables\wt
dirTree.BasicRuledFolder.<init>()
	DEBUG: new folder functions at 
C:\Users\g.barri\Desktop\EDWP2\tl_mfg\functions
dirTree.BasicRuledFolder.<init>()
	DEBUG: new folder pr at 
C:\Users\g.barri\Desktop\EDWP2\tl_mfg\functions\pr
dirTree.BasicRuledFolder.<init>()
	DEBUG: new folder views at 
C:\Users\g.barri\Desktop\EDWP2\tl_pur\views
dirTree.BasicRuledFolder.<init>()
	DEBUG: new folder vs_dw at 
C:\Users\g.barri\Desktop\EDWP2\tl_pur\views\vs_dw
dirTree.BasicRuledFolder.<init>()
	DEBUG: new folder tables at 
C:\Users\g.barri\Desktop\EDWP2\tl_pur\tables
dirTree.BasicRuledFolder.<init>()
	DEBUG: new folder dw at 
C:\Users\g.barri\Desktop\EDWP2\tl_pur\tables\dw
dirTree.BasicRuledFolder.<init>()
	DEBUG: new folder st at 
C:\Users\g.barri\Desktop\EDWP2\tl_pur\tables\st
dirTree.BasicRuledFolder.<init>()
	DEBUG: new folder wt at 
C:\Users\g.barri\Desktop\EDWP2\tl_pur\tables\wt
dirTree.BasicRuledFolder.<init>()
	DEBUG: new folder functions at 
C:\Users\g.barri\Desktop\EDWP2\tl_pur\functions
dirTree.BasicRuledFolder.<init>()
	DEBUG: new folder pr at 
C:\Users\g.barri\Desktop\EDWP2\tl_pur\functions\pr
dirTree.BasicRuledFolder.<init>()
	DEBUG: new folder dw at 
C:\Users\g.barri\Desktop\EDWP2\tl_pur\functions\dw
dirTree.BasicRuledFolder.<init>()
	DEBUG: new folder st at 
C:\Users\g.barri\Desktop\EDWP2\tl_pur\functions\st
dirTree.BasicRuledFolder.<init>()
	DEBUG: new folder wt at 
C:\Users\g.barri\Desktop\EDWP2\tl_pur\functions\wt
movements.Move.move()
	TRACE: looking into subdirectory C:\Users\g.barri\Desktop\EDWP2\tl_scm_ind
movements.Move.move()
	TRACE: looking into subdirectory C:\Users\g.barri\Desktop\EDWP2\tl_pur
movements.Move.move()
	TRACE: looking into subdirectory C:\Users\g.barri\Desktop\EDWP2\tl_mfg
movements.Move.move()
	TRACE: looking into subdirectory C:\Users\g.barri\Desktop\EDWP2\tl_analytics
movements.Move.move()
	TRACE: looking into subdirectory C:\Users\g.barri\Desktop\EDWP2\oracompat
movements.Move.move()
	TRACE: looking into subdirectory C:\Users\g.barri\Desktop\EDWP2\lg_mfg
movements.Move.move()
	TRACE: looking into subdirectory C:\Users\g.barri\Desktop\EDWP2\ds_mfg
movements.Move.move()
	TRACE: looking into subdirectory C:\Users\g.barri\Desktop\EDWP2\dg_utilities
movements.Move.move()
	TRACE: looking into subdirectory C:\Users\g.barri\Desktop\EDWP2\bl_scm_ind
movements.Move.move()
	TRACE: looking into subdirectory C:\Users\g.barri\Desktop\EDWP2\bl_mfg
movements.Move.move()
	TRACE: looking into subdirectory C:\Users\g.barri\Desktop\EDWP2\bl_mfg\views
movements.Move.move()
	TRACE: looking into subdirectory C:\Users\g.barri\Desktop\EDWP2\bl_mfg\tables
movements.Move.move()
	TRACE: looking into subdirectory C:\Users\g.barri\Desktop\EDWP2\bl_mfg\functions
movements.Move.move()
	TRACE: looking into subdirectory C:\Users\g.barri\Desktop\EDWP2\bl_mfg\functions\pr
movements.Move.move()
	TRACE: looking into subdirectory C:\Users\g.barri\Desktop\EDWP2\bl_mfg\functions\packages
movements.Move.moveFileWrap()
	TRACE: Moving file	bl_mfg_mp_dm_notice_type_desc.sqlfrom	C:\Users\g.barri\Desktop\test\XXPMAPP_MP_DM_NOTICE_TYPE_DESC\bl_mfg_mp_dm_notice_type_desc.sql
to	 C:\Users\g.barri\Desktop\EDWP2\bl_mfg\functions\packages\bl_mfg_mp_dm_notice_type_desc.sql
movements.Move.moveFileWrap()
	TRACE: Moved ended
movements.Move.checkFile()
	DEBUG: il file create_lang.sql, C:\Users\g.barri\Desktop\test\XXPMAPP_MP_DM_NOTICE_TYPE_DESC\create_lang.sql
è stato scartato perchè non riconosciuto.
movements.Move.move()
	TRACE: looking into subdirectory C:\Users\g.barri\Desktop\EDWP2\tl_scm_ind
movements.Move.move()
	TRACE: looking into subdirectory C:\Users\g.barri\Desktop\EDWP2\tl_pur
movements.Move.move()
	TRACE: looking into subdirectory C:\Users\g.barri\Desktop\EDWP2\tl_mfg
movements.Move.move()
	TRACE: looking into subdirectory C:\Users\g.barri\Desktop\EDWP2\tl_analytics
movements.Move.move()
	TRACE: looking into subdirectory C:\Users\g.barri\Desktop\EDWP2\oracompat
movements.Move.move()
	TRACE: looking into subdirectory C:\Users\g.barri\Desktop\EDWP2\lg_mfg
movements.Move.move()
	TRACE: looking into subdirectory C:\Users\g.barri\Desktop\EDWP2\ds_mfg
movements.Move.move()
	TRACE: looking into subdirectory C:\Users\g.barri\Desktop\EDWP2\dg_utilities
movements.Move.move()
	TRACE: looking into subdirectory C:\Users\g.barri\Desktop\EDWP2\dg_utilities\tables
movements.Move.move()
	TRACE: looking into subdirectory C:\Users\g.barri\Desktop\EDWP2\dg_utilities\functions
movements.Move.move()
	TRACE: looking into subdirectory C:\Users\g.barri\Desktop\EDWP2\dg_utilities\functions\pr
movements.Move.moveFileWrap()
	TRACE: Moving file	lg_mfg_pr_function_log_dsx.sqlfrom	C:\Users\g.barri\Desktop\test\XXPMAPP_MP_DM_NOTICE_TYPE_DESC\lg_mfg_pr_function_log_dsx.sql
to	 C:\Users\g.barri\Desktop\EDWP2\dg_utilities\functions\pr\lg_mfg_pr_function_log_dsx.sql
movements.Move.moveFileWrap()
	TRACE: Moved ended
movements.Move.move()
	TRACE: looking into subdirectory C:\Users\g.barri\Desktop\EDWP2\tl_scm_ind
movements.Move.move()
	TRACE: looking into subdirectory C:\Users\g.barri\Desktop\EDWP2\tl_pur
movements.Move.move()
	TRACE: looking into subdirectory C:\Users\g.barri\Desktop\EDWP2\tl_mfg
movements.Move.move()
	TRACE: looking into subdirectory C:\Users\g.barri\Desktop\EDWP2\tl_analytics
movements.Move.move()
	TRACE: looking into subdirectory C:\Users\g.barri\Desktop\EDWP2\oracompat
movements.Move.move()
	TRACE: looking into subdirectory C:\Users\g.barri\Desktop\EDWP2\lg_mfg
movements.Move.move()
	TRACE: looking into subdirectory C:\Users\g.barri\Desktop\EDWP2\ds_mfg
movements.Move.move()
	TRACE: looking into subdirectory C:\Users\g.barri\Desktop\EDWP2\dg_utilities
movements.Move.move()
	TRACE: looking into subdirectory C:\Users\g.barri\Desktop\EDWP2\bl_scm_ind
movements.Move.move()
	TRACE: looking into subdirectory C:\Users\g.barri\Desktop\EDWP2\bl_mfg
movements.Move.move()
	TRACE: looking into subdirectory C:\Users\g.barri\Desktop\EDWP2\bl_mfg\views
movements.Move.move()
	TRACE: looking into subdirectory C:\Users\g.barri\Desktop\EDWP2\bl_mfg\tables
movements.Move.move()
	TRACE: looking into subdirectory C:\Users\g.barri\Desktop\EDWP2\bl_mfg\functions
movements.Move.move()
	TRACE: looking into subdirectory C:\Users\g.barri\Desktop\EDWP2\bl_mfg\functions\pr
movements.Move.move()
	TRACE: looking into subdirectory C:\Users\g.barri\Desktop\EDWP2\bl_mfg\functions\packages
movements.Move.moveFileWrap()
	TRACE: Moving file	bl_mfg_mp_dm_order_type_desc.sqlfrom	C:\Users\g.barri\Desktop\test\XXPMAPP_MP_DM_ORDER_TYPE_DESC\bl_mfg_mp_dm_order_type_desc.sql
to	 C:\Users\g.barri\Desktop\EDWP2\bl_mfg\functions\packages\bl_mfg_mp_dm_order_type_desc.sql
movements.Move.moveFileWrap()
	TRACE: Moved ended
movements.Move.checkFile()
	DEBUG: il file create_lang.sql, C:\Users\g.barri\Desktop\test\XXPMAPP_MP_DM_ORDER_TYPE_DESC\create_lang.sql
è stato scartato perchè non riconosciuto.
movements.Move.move()
	TRACE: looking into subdirectory C:\Users\g.barri\Desktop\EDWP2\tl_scm_ind
movements.Move.move()
	TRACE: looking into subdirectory C:\Users\g.barri\Desktop\EDWP2\tl_pur
movements.Move.move()
	TRACE: looking into subdirectory C:\Users\g.barri\Desktop\EDWP2\tl_mfg
movements.Move.move()
	TRACE: looking into subdirectory C:\Users\g.barri\Desktop\EDWP2\tl_analytics
movements.Move.move()
	TRACE: looking into subdirectory C:\Users\g.barri\Desktop\EDWP2\oracompat
movements.Move.move()
	TRACE: looking into subdirectory C:\Users\g.barri\Desktop\EDWP2\lg_mfg
movements.Move.move()
	TRACE: looking into subdirectory C:\Users\g.barri\Desktop\EDWP2\ds_mfg
movements.Move.move()
	TRACE: looking into subdirectory C:\Users\g.barri\Desktop\EDWP2\dg_utilities
movements.Move.move()
	TRACE: looking into subdirectory C:\Users\g.barri\Desktop\EDWP2\dg_utilities\tables
movements.Move.move()
	TRACE: looking into subdirectory C:\Users\g.barri\Desktop\EDWP2\dg_utilities\functions
movements.Move.move()
	TRACE: looking into subdirectory C:\Users\g.barri\Desktop\EDWP2\dg_utilities\functions\pr
movements.Move.moveFileWrap()
	TRACE: Moving file	lg_mfg_pr_function_log_dsx.sqlfrom	C:\Users\g.barri\Desktop\test\XXPMAPP_MP_DM_ORDER_TYPE_DESC\lg_mfg_pr_function_log_dsx.sql
to	 C:\Users\g.barri\Desktop\EDWP2\dg_utilities\functions\pr\lg_mfg_pr_function_log_dsx.sql
movements.Move.moveFileWrap()
	TRACE: Moved ended
movements.Move.checkFile()
	DEBUG: il file bl_mfg_dm_stabilimenti_idx.sql, C:\Users\g.barri\Desktop\test\XXPMAPP_MP_DM_PLANT_DIMENSION\bl_mfg_dm_stabilimenti_idx.sql
è stato scartato perchè non riconosciuto.
movements.Move.move()
	TRACE: looking into subdirectory C:\Users\g.barri\Desktop\EDWP2\tl_scm_ind
movements.Move.move()
	TRACE: looking into subdirectory C:\Users\g.barri\Desktop\EDWP2\tl_pur
movements.Move.move()
	TRACE: looking into subdirectory C:\Users\g.barri\Desktop\EDWP2\tl_mfg
movements.Move.move()
	TRACE: looking into subdirectory C:\Users\g.barri\Desktop\EDWP2\tl_analytics
movements.Move.move()
	TRACE: looking into subdirectory C:\Users\g.barri\Desktop\EDWP2\oracompat
movements.Move.move()
	TRACE: looking into subdirectory C:\Users\g.barri\Desktop\EDWP2\lg_mfg
movements.Move.move()
	TRACE: looking into subdirectory C:\Users\g.barri\Desktop\EDWP2\ds_mfg
movements.Move.move()
	TRACE: looking into subdirectory C:\Users\g.barri\Desktop\EDWP2\dg_utilities
movements.Move.move()
	TRACE: looking into subdirectory C:\Users\g.barri\Desktop\EDWP2\bl_scm_ind
movements.Move.move()
	TRACE: looking into subdirectory C:\Users\g.barri\Desktop\EDWP2\bl_mfg
movements.Move.move()
	TRACE: looking into subdirectory C:\Users\g.barri\Desktop\EDWP2\bl_mfg\views
movements.Move.move()
	TRACE: looking into subdirectory C:\Users\g.barri\Desktop\EDWP2\bl_mfg\tables
movements.Move.move()
	TRACE: looking into subdirectory C:\Users\g.barri\Desktop\EDWP2\bl_mfg\functions
movements.Move.move()
	TRACE: looking into subdirectory C:\Users\g.barri\Desktop\EDWP2\bl_mfg\functions\pr
movements.Move.move()
	TRACE: looking into subdirectory C:\Users\g.barri\Desktop\EDWP2\bl_mfg\functions\packages
movements.Move.moveFileWrap()
	TRACE: Moving file	bl_mfg_mp_dm_plant_dimension.sqlfrom	C:\Users\g.barri\Desktop\test\XXPMAPP_MP_DM_PLANT_DIMENSION\bl_mfg_mp_dm_plant_dimension.sql
to	 C:\Users\g.barri\Desktop\EDWP2\bl_mfg\functions\packages\bl_mfg_mp_dm_plant_dimension.sql
movements.Move.moveFileWrap()
	TRACE: Moved ended
movements.Move.checkFile()
	DEBUG: il file create_lang.sql, C:\Users\g.barri\Desktop\test\XXPMAPP_MP_DM_PLANT_DIMENSION\create_lang.sql
è stato scartato perchè non riconosciuto.
movements.Move.move()
	TRACE: looking into subdirectory C:\Users\g.barri\Desktop\EDWP2\tl_scm_ind
movements.Move.move()
	TRACE: looking into subdirectory C:\Users\g.barri\Desktop\EDWP2\tl_pur
movements.Move.move()
	TRACE: looking into subdirectory C:\Users\g.barri\Desktop\EDWP2\tl_mfg
movements.Move.move()
	TRACE: looking into subdirectory C:\Users\g.barri\Desktop\EDWP2\tl_analytics
movements.Move.move()
	TRACE: looking into subdirectory C:\Users\g.barri\Desktop\EDWP2\oracompat
movements.Move.move()
	TRACE: looking into subdirectory C:\Users\g.barri\Desktop\EDWP2\lg_mfg
movements.Move.move()
	TRACE: looking into subdirectory C:\Users\g.barri\Desktop\EDWP2\ds_mfg
movements.Move.move()
	TRACE: looking into subdirectory C:\Users\g.barri\Desktop\EDWP2\dg_utilities
movements.Move.move()
	TRACE: looking into subdirectory C:\Users\g.barri\Desktop\EDWP2\dg_utilities\tables
movements.Move.move()
	TRACE: looking into subdirectory C:\Users\g.barri\Desktop\EDWP2\dg_utilities\functions
movements.Move.move()
	TRACE: looking into subdirectory C:\Users\g.barri\Desktop\EDWP2\dg_utilities\functions\pr
movements.Move.moveFileWrap()
	TRACE: Moving file	lg_mfg_pr_function_log_dsx.sqlfrom	C:\Users\g.barri\Desktop\test\XXPMAPP_MP_DM_PLANT_DIMENSION\lg_mfg_pr_function_log_dsx.sql
to	 C:\Users\g.barri\Desktop\EDWP2\dg_utilities\functions\pr\lg_mfg_pr_function_log_dsx.sql
movements.Move.moveFileWrap()
	TRACE: Moved ended
movements.Move.checkFile()
	DEBUG: il file bl_mfg_dm_stabilimenti_idx.sql, C:\Users\g.barri\Desktop\test\XXPMAPP_MP_DM_STABILIMENTI\bl_mfg_dm_stabilimenti_idx.sql
è stato scartato perchè non riconosciuto.
movements.Move.move()
	TRACE: looking into subdirectory C:\Users\g.barri\Desktop\EDWP2\tl_scm_ind
movements.Move.move()
	TRACE: looking into subdirectory C:\Users\g.barri\Desktop\EDWP2\tl_pur
movements.Move.move()
	TRACE: looking into subdirectory C:\Users\g.barri\Desktop\EDWP2\tl_mfg
movements.Move.move()
	TRACE: looking into subdirectory C:\Users\g.barri\Desktop\EDWP2\tl_analytics
movements.Move.move()
	TRACE: looking into subdirectory C:\Users\g.barri\Desktop\EDWP2\oracompat
movements.Move.move()
	TRACE: looking into subdirectory C:\Users\g.barri\Desktop\EDWP2\lg_mfg
movements.Move.move()
	TRACE: looking into subdirectory C:\Users\g.barri\Desktop\EDWP2\ds_mfg
movements.Move.move()
	TRACE: looking into subdirectory C:\Users\g.barri\Desktop\EDWP2\dg_utilities
movements.Move.move()
	TRACE: looking into subdirectory C:\Users\g.barri\Desktop\EDWP2\bl_scm_ind
movements.Move.move()
	TRACE: looking into subdirectory C:\Users\g.barri\Desktop\EDWP2\bl_mfg
movements.Move.move()
	TRACE: looking into subdirectory C:\Users\g.barri\Desktop\EDWP2\bl_mfg\views
movements.Move.move()
	TRACE: looking into subdirectory C:\Users\g.barri\Desktop\EDWP2\bl_mfg\tables
movements.Move.move()
	TRACE: looking into subdirectory C:\Users\g.barri\Desktop\EDWP2\bl_mfg\functions
movements.Move.move()
	TRACE: looking into subdirectory C:\Users\g.barri\Desktop\EDWP2\bl_mfg\functions\pr
movements.Move.move()
	TRACE: looking into subdirectory C:\Users\g.barri\Desktop\EDWP2\bl_mfg\functions\packages
movements.Move.moveFileWrap()
	TRACE: Moving file	bl_mfg_mp_dm_stabilimenti.sqlfrom	C:\Users\g.barri\Desktop\test\XXPMAPP_MP_DM_STABILIMENTI\bl_mfg_mp_dm_stabilimenti.sql
to	 C:\Users\g.barri\Desktop\EDWP2\bl_mfg\functions\packages\bl_mfg_mp_dm_stabilimenti.sql
movements.Move.moveFileWrap()
	TRACE: Moved ended
movements.Move.checkFile()
	DEBUG: il file create_lang.sql, C:\Users\g.barri\Desktop\test\XXPMAPP_MP_DM_STABILIMENTI\create_lang.sql
è stato scartato perchè non riconosciuto.
movements.Move.move()
	TRACE: looking into subdirectory C:\Users\g.barri\Desktop\EDWP2\tl_scm_ind
movements.Move.move()
	TRACE: looking into subdirectory C:\Users\g.barri\Desktop\EDWP2\tl_pur
movements.Move.move()
	TRACE: looking into subdirectory C:\Users\g.barri\Desktop\EDWP2\tl_mfg
movements.Move.move()
	TRACE: looking into subdirectory C:\Users\g.barri\Desktop\EDWP2\tl_analytics
movements.Move.move()
	TRACE: looking into subdirectory C:\Users\g.barri\Desktop\EDWP2\oracompat
movements.Move.move()
	TRACE: looking into subdirectory C:\Users\g.barri\Desktop\EDWP2\lg_mfg
movements.Move.move()
	TRACE: looking into subdirectory C:\Users\g.barri\Desktop\EDWP2\ds_mfg
movements.Move.move()
	TRACE: looking into subdirectory C:\Users\g.barri\Desktop\EDWP2\dg_utilities
movements.Move.move()
	TRACE: looking into subdirectory C:\Users\g.barri\Desktop\EDWP2\dg_utilities\tables
movements.Move.move()
	TRACE: looking into subdirectory C:\Users\g.barri\Desktop\EDWP2\dg_utilities\functions
movements.Move.move()
	TRACE: looking into subdirectory C:\Users\g.barri\Desktop\EDWP2\dg_utilities\functions\pr
movements.Move.moveFileWrap()
	TRACE: Moving file	lg_mfg_pr_function_log_dsx.sqlfrom	C:\Users\g.barri\Desktop\test\XXPMAPP_MP_DM_STABILIMENTI\lg_mfg_pr_function_log_dsx.sql
to	 C:\Users\g.barri\Desktop\EDWP2\dg_utilities\functions\pr\lg_mfg_pr_function_log_dsx.sql
movements.Move.moveFileWrap()
	TRACE: Moved ended
movements.Move.checkFile()
	DEBUG: il file tl_analytics_dw_stabilimenti_idx.sql, C:\Users\g.barri\Desktop\test\XXPMAPP_MP_DM_STABILIMENTI\tl_analytics_dw_stabilimenti_idx.sql
è stato scartato perchè non riconosciuto.
movements.Move.move()
	TRACE: looking into subdirectory C:\Users\g.barri\Desktop\EDWP2\tl_scm_ind
movements.Move.move()
	TRACE: looking into subdirectory C:\Users\g.barri\Desktop\EDWP2\tl_pur
movements.Move.move()
	TRACE: looking into subdirectory C:\Users\g.barri\Desktop\EDWP2\tl_mfg
movements.Move.move()
	TRACE: looking into subdirectory C:\Users\g.barri\Desktop\EDWP2\tl_analytics
movements.Move.move()
	TRACE: looking into subdirectory C:\Users\g.barri\Desktop\EDWP2\oracompat
movements.Move.move()
	TRACE: looking into subdirectory C:\Users\g.barri\Desktop\EDWP2\lg_mfg
movements.Move.move()
	TRACE: looking into subdirectory C:\Users\g.barri\Desktop\EDWP2\ds_mfg
movements.Move.move()
	TRACE: looking into subdirectory C:\Users\g.barri\Desktop\EDWP2\dg_utilities
movements.Move.move()
	TRACE: looking into subdirectory C:\Users\g.barri\Desktop\EDWP2\bl_scm_ind
movements.Move.move()
	TRACE: looking into subdirectory C:\Users\g.barri\Desktop\EDWP2\bl_mfg
movements.Move.move()
	TRACE: looking into subdirectory C:\Users\g.barri\Desktop\EDWP2\bl_mfg\views
movements.Move.move()
	TRACE: looking into subdirectory C:\Users\g.barri\Desktop\EDWP2\bl_mfg\tables
movements.Move.move()
	TRACE: looking into subdirectory C:\Users\g.barri\Desktop\EDWP2\bl_mfg\functions
movements.Move.move()
	TRACE: looking into subdirectory C:\Users\g.barri\Desktop\EDWP2\bl_mfg\functions\pr
movements.Move.move()
	TRACE: looking into subdirectory C:\Users\g.barri\Desktop\EDWP2\bl_mfg\functions\packages
movements.Move.moveFileWrap()
	TRACE: Moving file	bl_mfg_mp_dm_struct_machine.sqlfrom	C:\Users\g.barri\Desktop\test\XXPMAPP_MP_DM_STRUCT_MACHINE\bl_mfg_mp_dm_struct_machine.sql
to	 C:\Users\g.barri\Desktop\EDWP2\bl_mfg\functions\packages\bl_mfg_mp_dm_struct_machine.sql
movements.Move.moveFileWrap()
	TRACE: Moved ended
movements.Move.checkFile()
	DEBUG: il file create_lang.sql, C:\Users\g.barri\Desktop\test\XXPMAPP_MP_DM_STRUCT_MACHINE\create_lang.sql
è stato scartato perchè non riconosciuto.
movements.Move.move()
	TRACE: looking into subdirectory C:\Users\g.barri\Desktop\EDWP2\tl_scm_ind
movements.Move.move()
	TRACE: looking into subdirectory C:\Users\g.barri\Desktop\EDWP2\tl_pur
movements.Move.move()
	TRACE: looking into subdirectory C:\Users\g.barri\Desktop\EDWP2\tl_mfg
movements.Move.move()
	TRACE: looking into subdirectory C:\Users\g.barri\Desktop\EDWP2\tl_analytics
movements.Move.move()
	TRACE: looking into subdirectory C:\Users\g.barri\Desktop\EDWP2\oracompat
movements.Move.move()
	TRACE: looking into subdirectory C:\Users\g.barri\Desktop\EDWP2\lg_mfg
movements.Move.move()
	TRACE: looking into subdirectory C:\Users\g.barri\Desktop\EDWP2\ds_mfg
movements.Move.move()
	TRACE: looking into subdirectory C:\Users\g.barri\Desktop\EDWP2\dg_utilities
movements.Move.move()
	TRACE: looking into subdirectory C:\Users\g.barri\Desktop\EDWP2\dg_utilities\tables
movements.Move.move()
	TRACE: looking into subdirectory C:\Users\g.barri\Desktop\EDWP2\dg_utilities\functions
movements.Move.move()
	TRACE: looking into subdirectory C:\Users\g.barri\Desktop\EDWP2\dg_utilities\functions\pr
movements.Move.moveFileWrap()
	TRACE: Moving file	lg_mfg_pr_function_log_dsx.sqlfrom	C:\Users\g.barri\Desktop\test\XXPMAPP_MP_DM_STRUCT_MACHINE\lg_mfg_pr_function_log_dsx.sql
to	 C:\Users\g.barri\Desktop\EDWP2\dg_utilities\functions\pr\lg_mfg_pr_function_log_dsx.sql
movements.Move.moveFileWrap()
	TRACE: Moved ended
movements.Move.move()
	TRACE: looking into subdirectory C:\Users\g.barri\Desktop\EDWP2\tl_scm_ind
movements.Move.move()
	TRACE: looking into subdirectory C:\Users\g.barri\Desktop\EDWP2\tl_pur
movements.Move.move()
	TRACE: looking into subdirectory C:\Users\g.barri\Desktop\EDWP2\tl_mfg
movements.Move.move()
	TRACE: looking into subdirectory C:\Users\g.barri\Desktop\EDWP2\tl_analytics
movements.Move.move()
	TRACE: looking into subdirectory C:\Users\g.barri\Desktop\EDWP2\oracompat
movements.Move.move()
	TRACE: looking into subdirectory C:\Users\g.barri\Desktop\EDWP2\lg_mfg
movements.Move.move()
	TRACE: looking into subdirectory C:\Users\g.barri\Desktop\EDWP2\ds_mfg
movements.Move.move()
	TRACE: looking into subdirectory C:\Users\g.barri\Desktop\EDWP2\dg_utilities
movements.Move.move()
	TRACE: looking into subdirectory C:\Users\g.barri\Desktop\EDWP2\bl_scm_ind
movements.Move.move()
	TRACE: looking into subdirectory C:\Users\g.barri\Desktop\EDWP2\bl_mfg
movements.Move.move()
	TRACE: looking into subdirectory C:\Users\g.barri\Desktop\EDWP2\bl_mfg\views
movements.Move.move()
	TRACE: looking into subdirectory C:\Users\g.barri\Desktop\EDWP2\bl_mfg\tables
movements.Move.move()
	TRACE: looking into subdirectory C:\Users\g.barri\Desktop\EDWP2\bl_mfg\functions
movements.Move.move()
	TRACE: looking into subdirectory C:\Users\g.barri\Desktop\EDWP2\bl_mfg\functions\pr
movements.Move.move()
	TRACE: looking into subdirectory C:\Users\g.barri\Desktop\EDWP2\bl_mfg\functions\packages
movements.Move.moveFileWrap()
	TRACE: Moving file	bl_mfg_mp_dm_update_month.sqlfrom	C:\Users\g.barri\Desktop\test\XXPMAPP_MP_DM_UPDATE_MONTH\bl_mfg_mp_dm_update_month.sql
to	 C:\Users\g.barri\Desktop\EDWP2\bl_mfg\functions\packages\bl_mfg_mp_dm_update_month.sql
movements.Move.moveFileWrap()
	TRACE: Moved ended
movements.Move.checkFile()
	DEBUG: il file create_lang.sql, C:\Users\g.barri\Desktop\test\XXPMAPP_MP_DM_UPDATE_MONTH\create_lang.sql
è stato scartato perchè non riconosciuto.
movements.Move.move()
	TRACE: looking into subdirectory C:\Users\g.barri\Desktop\EDWP2\tl_scm_ind
movements.Move.move()
	TRACE: looking into subdirectory C:\Users\g.barri\Desktop\EDWP2\tl_pur
movements.Move.move()
	TRACE: looking into subdirectory C:\Users\g.barri\Desktop\EDWP2\tl_mfg
movements.Move.move()
	TRACE: looking into subdirectory C:\Users\g.barri\Desktop\EDWP2\tl_analytics
movements.Move.move()
	TRACE: looking into subdirectory C:\Users\g.barri\Desktop\EDWP2\oracompat
movements.Move.move()
	TRACE: looking into subdirectory C:\Users\g.barri\Desktop\EDWP2\lg_mfg
movements.Move.move()
	TRACE: looking into subdirectory C:\Users\g.barri\Desktop\EDWP2\ds_mfg
movements.Move.move()
	TRACE: looking into subdirectory C:\Users\g.barri\Desktop\EDWP2\dg_utilities
movements.Move.move()
	TRACE: looking into subdirectory C:\Users\g.barri\Desktop\EDWP2\dg_utilities\tables
movements.Move.move()
	TRACE: looking into subdirectory C:\Users\g.barri\Desktop\EDWP2\dg_utilities\functions
movements.Move.move()
	TRACE: looking into subdirectory C:\Users\g.barri\Desktop\EDWP2\dg_utilities\functions\pr
movements.Move.moveFileWrap()
	TRACE: Moving file	lg_mfg_pr_function_log_dsx.sqlfrom	C:\Users\g.barri\Desktop\test\XXPMAPP_MP_DM_UPDATE_MONTH\lg_mfg_pr_function_log_dsx.sql
to	 C:\Users\g.barri\Desktop\EDWP2\dg_utilities\functions\pr\lg_mfg_pr_function_log_dsx.sql
movements.Move.moveFileWrap()
	TRACE: Moved ended
movements.Move.checkFile()
	DEBUG: il file bl_mfg_dm_day_idx.sql, C:\Users\g.barri\Desktop\test\XXPMAPP_MP_END_CATENA\bl_mfg_dm_day_idx.sql
è stato scartato perchè non riconosciuto.
movements.Move.move()
	TRACE: looking into subdirectory C:\Users\g.barri\Desktop\EDWP2\tl_scm_ind
movements.Move.move()
	TRACE: looking into subdirectory C:\Users\g.barri\Desktop\EDWP2\tl_pur
movements.Move.move()
	TRACE: looking into subdirectory C:\Users\g.barri\Desktop\EDWP2\tl_mfg
movements.Move.move()
	TRACE: looking into subdirectory C:\Users\g.barri\Desktop\EDWP2\tl_analytics
movements.Move.move()
	TRACE: looking into subdirectory C:\Users\g.barri\Desktop\EDWP2\oracompat
movements.Move.move()
	TRACE: looking into subdirectory C:\Users\g.barri\Desktop\EDWP2\lg_mfg
movements.Move.move()
	TRACE: looking into subdirectory C:\Users\g.barri\Desktop\EDWP2\ds_mfg
movements.Move.move()
	TRACE: looking into subdirectory C:\Users\g.barri\Desktop\EDWP2\dg_utilities
movements.Move.move()
	TRACE: looking into subdirectory C:\Users\g.barri\Desktop\EDWP2\bl_scm_ind
movements.Move.move()
	TRACE: looking into subdirectory C:\Users\g.barri\Desktop\EDWP2\bl_mfg
movements.Move.move()
	TRACE: looking into subdirectory C:\Users\g.barri\Desktop\EDWP2\bl_mfg\views
movements.Move.move()
	TRACE: looking into subdirectory C:\Users\g.barri\Desktop\EDWP2\bl_mfg\tables
movements.Move.move()
	TRACE: looking into subdirectory C:\Users\g.barri\Desktop\EDWP2\bl_mfg\functions
movements.Move.move()
	TRACE: looking into subdirectory C:\Users\g.barri\Desktop\EDWP2\bl_mfg\functions\pr
movements.Move.move()
	TRACE: looking into subdirectory C:\Users\g.barri\Desktop\EDWP2\bl_mfg\functions\packages
movements.Move.moveFileWrap()
	TRACE: Moving file	bl_mfg_mp_end_catena.sqlfrom	C:\Users\g.barri\Desktop\test\XXPMAPP_MP_END_CATENA\bl_mfg_mp_end_catena.sql
to	 C:\Users\g.barri\Desktop\EDWP2\bl_mfg\functions\packages\bl_mfg_mp_end_catena.sql
movements.Move.moveFileWrap()
	TRACE: Moved ended
movements.Move.move()
	TRACE: looking into subdirectory C:\Users\g.barri\Desktop\EDWP2\tl_scm_ind
movements.Move.move()
	TRACE: looking into subdirectory C:\Users\g.barri\Desktop\EDWP2\tl_pur
movements.Move.move()
	TRACE: looking into subdirectory C:\Users\g.barri\Desktop\EDWP2\tl_mfg
movements.Move.move()
	TRACE: looking into subdirectory C:\Users\g.barri\Desktop\EDWP2\tl_analytics
movements.Move.move()
	TRACE: looking into subdirectory C:\Users\g.barri\Desktop\EDWP2\oracompat
movements.Move.move()
	TRACE: looking into subdirectory C:\Users\g.barri\Desktop\EDWP2\lg_mfg
movements.Move.move()
	TRACE: looking into subdirectory C:\Users\g.barri\Desktop\EDWP2\ds_mfg
movements.Move.move()
	TRACE: looking into subdirectory C:\Users\g.barri\Desktop\EDWP2\dg_utilities
movements.Move.move()
	TRACE: looking into subdirectory C:\Users\g.barri\Desktop\EDWP2\bl_scm_ind
movements.Move.move()
	TRACE: looking into subdirectory C:\Users\g.barri\Desktop\EDWP2\bl_mfg
movements.Move.move()
	TRACE: looking into subdirectory C:\Users\g.barri\Desktop\EDWP2\bl_mfg\views
movements.Move.move()
	TRACE: looking into subdirectory C:\Users\g.barri\Desktop\EDWP2\bl_mfg\tables
movements.Move.move()
	TRACE: looking into subdirectory C:\Users\g.barri\Desktop\EDWP2\bl_mfg\functions
movements.Move.move()
	TRACE: looking into subdirectory C:\Users\g.barri\Desktop\EDWP2\bl_mfg\functions\pr
movements.Move.moveFileWrap()
	TRACE: Moving file	bl_mfg_pr_end_catena.sqlfrom	C:\Users\g.barri\Desktop\test\XXPMAPP_MP_END_CATENA\bl_mfg_pr_end_catena.sql
to	 C:\Users\g.barri\Desktop\EDWP2\bl_mfg\functions\pr\bl_mfg_pr_end_catena.sql
movements.Move.moveFileWrap()
	TRACE: Moved ended
movements.Move.checkFile()
	DEBUG: il file bl_scm_ind_ft_adm_agg_catena_idx.sql, C:\Users\g.barri\Desktop\test\XXPMAPP_MP_END_CATENA\bl_scm_ind_ft_adm_agg_catena_idx.sql
è stato scartato perchè non riconosciuto.
movements.Move.checkFile()
	DEBUG: il file create_lang.sql, C:\Users\g.barri\Desktop\test\XXPMAPP_MP_END_CATENA\create_lang.sql
è stato scartato perchè non riconosciuto.
movements.Move.move()
	TRACE: looking into subdirectory C:\Users\g.barri\Desktop\EDWP2\tl_scm_ind
movements.Move.move()
	TRACE: looking into subdirectory C:\Users\g.barri\Desktop\EDWP2\tl_pur
movements.Move.move()
	TRACE: looking into subdirectory C:\Users\g.barri\Desktop\EDWP2\tl_mfg
movements.Move.move()
	TRACE: looking into subdirectory C:\Users\g.barri\Desktop\EDWP2\tl_analytics
movements.Move.move()
	TRACE: looking into subdirectory C:\Users\g.barri\Desktop\EDWP2\oracompat
movements.Move.move()
	TRACE: looking into subdirectory C:\Users\g.barri\Desktop\EDWP2\lg_mfg
movements.Move.move()
	TRACE: looking into subdirectory C:\Users\g.barri\Desktop\EDWP2\ds_mfg
movements.Move.move()
	TRACE: looking into subdirectory C:\Users\g.barri\Desktop\EDWP2\dg_utilities
movements.Move.move()
	TRACE: looking into subdirectory C:\Users\g.barri\Desktop\EDWP2\dg_utilities\tables
movements.Move.move()
	TRACE: looking into subdirectory C:\Users\g.barri\Desktop\EDWP2\dg_utilities\functions
movements.Move.move()
	TRACE: looking into subdirectory C:\Users\g.barri\Desktop\EDWP2\dg_utilities\functions\pr
movements.Move.moveFileWrap()
	TRACE: Moving file	lg_mfg_pr_function_log_dsx.sqlfrom	C:\Users\g.barri\Desktop\test\XXPMAPP_MP_END_CATENA\lg_mfg_pr_function_log_dsx.sql
to	 C:\Users\g.barri\Desktop\EDWP2\dg_utilities\functions\pr\lg_mfg_pr_function_log_dsx.sql
movements.Move.moveFileWrap()
	TRACE: Moved ended
movements.Move.checkFile()
	DEBUG: il file bl_mfg_dm_day_idx.sql, C:\Users\g.barri\Desktop\test\XXPMAPP_MP_FT_COST_KPI\bl_mfg_dm_day_idx.sql
è stato scartato perchè non riconosciuto.
movements.Move.move()
	TRACE: looking into subdirectory C:\Users\g.barri\Desktop\EDWP2\tl_scm_ind
movements.Move.move()
	TRACE: looking into subdirectory C:\Users\g.barri\Desktop\EDWP2\tl_pur
movements.Move.move()
	TRACE: looking into subdirectory C:\Users\g.barri\Desktop\EDWP2\tl_mfg
movements.Move.move()
	TRACE: looking into subdirectory C:\Users\g.barri\Desktop\EDWP2\tl_analytics
movements.Move.move()
	TRACE: looking into subdirectory C:\Users\g.barri\Desktop\EDWP2\oracompat
movements.Move.move()
	TRACE: looking into subdirectory C:\Users\g.barri\Desktop\EDWP2\lg_mfg
movements.Move.move()
	TRACE: looking into subdirectory C:\Users\g.barri\Desktop\EDWP2\ds_mfg
movements.Move.move()
	TRACE: looking into subdirectory C:\Users\g.barri\Desktop\EDWP2\dg_utilities
movements.Move.move()
	TRACE: looking into subdirectory C:\Users\g.barri\Desktop\EDWP2\bl_scm_ind
movements.Move.move()
	TRACE: looking into subdirectory C:\Users\g.barri\Desktop\EDWP2\bl_mfg
movements.Move.move()
	TRACE: looking into subdirectory C:\Users\g.barri\Desktop\EDWP2\bl_mfg\views
movements.Move.move()
	TRACE: looking into subdirectory C:\Users\g.barri\Desktop\EDWP2\bl_mfg\tables
movements.Move.move()
	TRACE: looking into subdirectory C:\Users\g.barri\Desktop\EDWP2\bl_mfg\functions
movements.Move.move()
	TRACE: looking into subdirectory C:\Users\g.barri\Desktop\EDWP2\bl_mfg\functions\pr
movements.Move.move()
	TRACE: looking into subdirectory C:\Users\g.barri\Desktop\EDWP2\bl_mfg\functions\packages
movements.Move.moveFileWrap()
	TRACE: Moving file	bl_mfg_mp_ft_cost_kpi.sqlfrom	C:\Users\g.barri\Desktop\test\XXPMAPP_MP_FT_COST_KPI\bl_mfg_mp_ft_cost_kpi.sql
to	 C:\Users\g.barri\Desktop\EDWP2\bl_mfg\functions\packages\bl_mfg_mp_ft_cost_kpi.sql
movements.Move.moveFileWrap()
	TRACE: Moved ended
movements.Move.checkFile()
	DEBUG: il file create_lang.sql, C:\Users\g.barri\Desktop\test\XXPMAPP_MP_FT_COST_KPI\create_lang.sql
è stato scartato perchè non riconosciuto.
movements.Move.move()
	TRACE: looking into subdirectory C:\Users\g.barri\Desktop\EDWP2\tl_scm_ind
movements.Move.move()
	TRACE: looking into subdirectory C:\Users\g.barri\Desktop\EDWP2\tl_pur
movements.Move.move()
	TRACE: looking into subdirectory C:\Users\g.barri\Desktop\EDWP2\tl_mfg
movements.Move.move()
	TRACE: looking into subdirectory C:\Users\g.barri\Desktop\EDWP2\tl_analytics
movements.Move.move()
	TRACE: looking into subdirectory C:\Users\g.barri\Desktop\EDWP2\oracompat
movements.Move.move()
	TRACE: looking into subdirectory C:\Users\g.barri\Desktop\EDWP2\lg_mfg
movements.Move.move()
	TRACE: looking into subdirectory C:\Users\g.barri\Desktop\EDWP2\ds_mfg
movements.Move.move()
	TRACE: looking into subdirectory C:\Users\g.barri\Desktop\EDWP2\dg_utilities
movements.Move.move()
	TRACE: looking into subdirectory C:\Users\g.barri\Desktop\EDWP2\dg_utilities\tables
movements.Move.move()
	TRACE: looking into subdirectory C:\Users\g.barri\Desktop\EDWP2\dg_utilities\functions
movements.Move.move()
	TRACE: looking into subdirectory C:\Users\g.barri\Desktop\EDWP2\dg_utilities\functions\pr
movements.Move.moveFileWrap()
	TRACE: Moving file	lg_mfg_pr_function_log_dsx.sqlfrom	C:\Users\g.barri\Desktop\test\XXPMAPP_MP_FT_COST_KPI\lg_mfg_pr_function_log_dsx.sql
to	 C:\Users\g.barri\Desktop\EDWP2\dg_utilities\functions\pr\lg_mfg_pr_function_log_dsx.sql
movements.Move.moveFileWrap()
	TRACE: Moved ended
movements.Move.move()
	TRACE: looking into subdirectory C:\Users\g.barri\Desktop\EDWP2\tl_scm_ind
movements.Move.move()
	TRACE: looking into subdirectory C:\Users\g.barri\Desktop\EDWP2\tl_pur
movements.Move.move()
	TRACE: looking into subdirectory C:\Users\g.barri\Desktop\EDWP2\tl_mfg
movements.Move.move()
	TRACE: looking into subdirectory C:\Users\g.barri\Desktop\EDWP2\tl_analytics
movements.Move.move()
	TRACE: looking into subdirectory C:\Users\g.barri\Desktop\EDWP2\oracompat
movements.Move.move()
	TRACE: looking into subdirectory C:\Users\g.barri\Desktop\EDWP2\lg_mfg
movements.Move.move()
	TRACE: looking into subdirectory C:\Users\g.barri\Desktop\EDWP2\ds_mfg
movements.Move.move()
	TRACE: looking into subdirectory C:\Users\g.barri\Desktop\EDWP2\dg_utilities
movements.Move.move()
	TRACE: looking into subdirectory C:\Users\g.barri\Desktop\EDWP2\bl_scm_ind
movements.Move.move()
	TRACE: looking into subdirectory C:\Users\g.barri\Desktop\EDWP2\bl_mfg
movements.Move.move()
	TRACE: looking into subdirectory C:\Users\g.barri\Desktop\EDWP2\bl_mfg\views
movements.Move.move()
	TRACE: looking into subdirectory C:\Users\g.barri\Desktop\EDWP2\bl_mfg\tables
movements.Move.move()
	TRACE: looking into subdirectory C:\Users\g.barri\Desktop\EDWP2\bl_mfg\functions
movements.Move.move()
	TRACE: looking into subdirectory C:\Users\g.barri\Desktop\EDWP2\bl_mfg\functions\pr
movements.Move.move()
	TRACE: looking into subdirectory C:\Users\g.barri\Desktop\EDWP2\bl_mfg\functions\packages
movements.Move.moveFileWrap()
	TRACE: Moving file	bl_mfg_delete_orders_canc_flag.sqlfrom	C:\Users\g.barri\Desktop\test\XXPMAPP_MP_FT_ECOKPI_ORDERS\bl_mfg_delete_orders_canc_flag.sql
to	 C:\Users\g.barri\Desktop\EDWP2\bl_mfg\functions\bl_mfg_delete_orders_canc_flag.sql
movements.Move.moveFileWrap()
	TRACE: Moved ended
movements.Move.move()
	TRACE: looking into subdirectory C:\Users\g.barri\Desktop\EDWP2\tl_scm_ind
movements.Move.move()
	TRACE: looking into subdirectory C:\Users\g.barri\Desktop\EDWP2\tl_pur
movements.Move.move()
	TRACE: looking into subdirectory C:\Users\g.barri\Desktop\EDWP2\tl_mfg
movements.Move.move()
	TRACE: looking into subdirectory C:\Users\g.barri\Desktop\EDWP2\tl_analytics
movements.Move.move()
	TRACE: looking into subdirectory C:\Users\g.barri\Desktop\EDWP2\oracompat
movements.Move.move()
	TRACE: looking into subdirectory C:\Users\g.barri\Desktop\EDWP2\lg_mfg
movements.Move.move()
	TRACE: looking into subdirectory C:\Users\g.barri\Desktop\EDWP2\ds_mfg
movements.Move.move()
	TRACE: looking into subdirectory C:\Users\g.barri\Desktop\EDWP2\dg_utilities
movements.Move.move()
	TRACE: looking into subdirectory C:\Users\g.barri\Desktop\EDWP2\bl_scm_ind
movements.Move.move()
	TRACE: looking into subdirectory C:\Users\g.barri\Desktop\EDWP2\bl_mfg
movements.Move.move()
	TRACE: looking into subdirectory C:\Users\g.barri\Desktop\EDWP2\bl_mfg\views
movements.Move.move()
	TRACE: looking into subdirectory C:\Users\g.barri\Desktop\EDWP2\bl_mfg\tables
movements.Move.move()
	TRACE: looking into subdirectory C:\Users\g.barri\Desktop\EDWP2\bl_mfg\functions
movements.Move.move()
	TRACE: looking into subdirectory C:\Users\g.barri\Desktop\EDWP2\bl_mfg\functions\pr
movements.Move.move()
	TRACE: looking into subdirectory C:\Users\g.barri\Desktop\EDWP2\bl_mfg\functions\packages
movements.Move.moveFileWrap()
	TRACE: Moving file	bl_mfg_mp_ft_ecokpi_orders.sqlfrom	C:\Users\g.barri\Desktop\test\XXPMAPP_MP_FT_ECOKPI_ORDERS\bl_mfg_mp_ft_ecokpi_orders.sql
to	 C:\Users\g.barri\Desktop\EDWP2\bl_mfg\functions\packages\bl_mfg_mp_ft_ecokpi_orders.sql
movements.Move.moveFileWrap()
	TRACE: Moved ended
movements.Move.checkFile()
	DEBUG: il file create_lang.sql, C:\Users\g.barri\Desktop\test\XXPMAPP_MP_FT_ECOKPI_ORDERS\create_lang.sql
è stato scartato perchè non riconosciuto.
movements.Move.move()
	TRACE: looking into subdirectory C:\Users\g.barri\Desktop\EDWP2\tl_scm_ind
movements.Move.move()
	TRACE: looking into subdirectory C:\Users\g.barri\Desktop\EDWP2\tl_pur
movements.Move.move()
	TRACE: looking into subdirectory C:\Users\g.barri\Desktop\EDWP2\tl_mfg
movements.Move.move()
	TRACE: looking into subdirectory C:\Users\g.barri\Desktop\EDWP2\tl_analytics
movements.Move.move()
	TRACE: looking into subdirectory C:\Users\g.barri\Desktop\EDWP2\oracompat
movements.Move.move()
	TRACE: looking into subdirectory C:\Users\g.barri\Desktop\EDWP2\lg_mfg
movements.Move.move()
	TRACE: looking into subdirectory C:\Users\g.barri\Desktop\EDWP2\ds_mfg
movements.Move.move()
	TRACE: looking into subdirectory C:\Users\g.barri\Desktop\EDWP2\dg_utilities
movements.Move.move()
	TRACE: looking into subdirectory C:\Users\g.barri\Desktop\EDWP2\dg_utilities\tables
movements.Move.move()
	TRACE: looking into subdirectory C:\Users\g.barri\Desktop\EDWP2\dg_utilities\functions
movements.Move.move()
	TRACE: looking into subdirectory C:\Users\g.barri\Desktop\EDWP2\dg_utilities\functions\pr
movements.Move.moveFileWrap()
	TRACE: Moving file	lg_mfg_pr_function_log_dsx.sqlfrom	C:\Users\g.barri\Desktop\test\XXPMAPP_MP_FT_ECOKPI_ORDERS\lg_mfg_pr_function_log_dsx.sql
to	 C:\Users\g.barri\Desktop\EDWP2\dg_utilities\functions\pr\lg_mfg_pr_function_log_dsx.sql
movements.Move.moveFileWrap()
	TRACE: Moved ended
movements.Move.move()
	TRACE: looking into subdirectory C:\Users\g.barri\Desktop\EDWP2\tl_scm_ind
movements.Move.move()
	TRACE: looking into subdirectory C:\Users\g.barri\Desktop\EDWP2\tl_pur
movements.Move.move()
	TRACE: looking into subdirectory C:\Users\g.barri\Desktop\EDWP2\tl_mfg
movements.Move.move()
	TRACE: looking into subdirectory C:\Users\g.barri\Desktop\EDWP2\tl_analytics
movements.Move.move()
	TRACE: looking into subdirectory C:\Users\g.barri\Desktop\EDWP2\oracompat
movements.Move.move()
	TRACE: looking into subdirectory C:\Users\g.barri\Desktop\EDWP2\lg_mfg
movements.Move.move()
	TRACE: looking into subdirectory C:\Users\g.barri\Desktop\EDWP2\ds_mfg
movements.Move.move()
	TRACE: looking into subdirectory C:\Users\g.barri\Desktop\EDWP2\dg_utilities
movements.Move.move()
	TRACE: looking into subdirectory C:\Users\g.barri\Desktop\EDWP2\bl_scm_ind
movements.Move.move()
	TRACE: looking into subdirectory C:\Users\g.barri\Desktop\EDWP2\bl_mfg
movements.Move.move()
	TRACE: looking into subdirectory C:\Users\g.barri\Desktop\EDWP2\bl_mfg\views
movements.Move.move()
	TRACE: looking into subdirectory C:\Users\g.barri\Desktop\EDWP2\bl_mfg\tables
movements.Move.move()
	TRACE: looking into subdirectory C:\Users\g.barri\Desktop\EDWP2\bl_mfg\functions
movements.Move.move()
	TRACE: looking into subdirectory C:\Users\g.barri\Desktop\EDWP2\bl_mfg\functions\pr
movements.Move.move()
	TRACE: looking into subdirectory C:\Users\g.barri\Desktop\EDWP2\bl_mfg\functions\packages
movements.Move.moveFileWrap()
	TRACE: Moving file	bl_mfg_mp_ft_mach_kpi.sqlfrom	C:\Users\g.barri\Desktop\test\XXPMAPP_MP_FT_MACH_KPI\bl_mfg_mp_ft_mach_kpi.sql
to	 C:\Users\g.barri\Desktop\EDWP2\bl_mfg\functions\packages\bl_mfg_mp_ft_mach_kpi.sql
movements.Move.moveFileWrap()
	TRACE: Moved ended
movements.Move.checkFile()
	DEBUG: il file create_lang.sql, C:\Users\g.barri\Desktop\test\XXPMAPP_MP_FT_MACH_KPI\create_lang.sql
è stato scartato perchè non riconosciuto.
movements.Move.move()
	TRACE: looking into subdirectory C:\Users\g.barri\Desktop\EDWP2\tl_scm_ind
movements.Move.move()
	TRACE: looking into subdirectory C:\Users\g.barri\Desktop\EDWP2\tl_pur
movements.Move.move()
	TRACE: looking into subdirectory C:\Users\g.barri\Desktop\EDWP2\tl_mfg
movements.Move.move()
	TRACE: looking into subdirectory C:\Users\g.barri\Desktop\EDWP2\tl_analytics
movements.Move.move()
	TRACE: looking into subdirectory C:\Users\g.barri\Desktop\EDWP2\oracompat
movements.Move.move()
	TRACE: looking into subdirectory C:\Users\g.barri\Desktop\EDWP2\lg_mfg
movements.Move.move()
	TRACE: looking into subdirectory C:\Users\g.barri\Desktop\EDWP2\ds_mfg
movements.Move.move()
	TRACE: looking into subdirectory C:\Users\g.barri\Desktop\EDWP2\dg_utilities
movements.Move.move()
	TRACE: looking into subdirectory C:\Users\g.barri\Desktop\EDWP2\dg_utilities\tables
movements.Move.move()
	TRACE: looking into subdirectory C:\Users\g.barri\Desktop\EDWP2\dg_utilities\functions
movements.Move.move()
	TRACE: looking into subdirectory C:\Users\g.barri\Desktop\EDWP2\dg_utilities\functions\pr
movements.Move.moveFileWrap()
	TRACE: Moving file	lg_mfg_pr_function_log_dsx.sqlfrom	C:\Users\g.barri\Desktop\test\XXPMAPP_MP_FT_MACH_KPI\lg_mfg_pr_function_log_dsx.sql
to	 C:\Users\g.barri\Desktop\EDWP2\dg_utilities\functions\pr\lg_mfg_pr_function_log_dsx.sql
movements.Move.moveFileWrap()
	TRACE: Moved ended
movements.Move.checkFile()
	DEBUG: il file tl_analytics_dw_day_idx.sql, C:\Users\g.barri\Desktop\test\XXPMAPP_MP_FT_MACH_KPI\tl_analytics_dw_day_idx.sql
è stato scartato perchè non riconosciuto.
movements.Move.checkFile()
	DEBUG: il file tl_analytics_dw_month_idx.sql, C:\Users\g.barri\Desktop\test\XXPMAPP_MP_FT_MACH_KPI\tl_analytics_dw_month_idx.sql
è stato scartato perchè non riconosciuto.
movements.Move.checkFile()
	DEBUG: il file tl_mfg_dw_pm_machine_cal_day_idx.sql, C:\Users\g.barri\Desktop\test\XXPMAPP_MP_FT_MACH_KPI\tl_mfg_dw_pm_machine_cal_day_idx.sql
è stato scartato perchè non riconosciuto.
movements.Move.checkFile()
	DEBUG: il file tl_mfg_dw_pm_plant_cal_day_idx.sql, C:\Users\g.barri\Desktop\test\XXPMAPP_MP_FT_MACH_KPI\tl_mfg_dw_pm_plant_cal_day_idx.sql
è stato scartato perchè non riconosciuto.
movements.Move.checkFile()
	DEBUG: il file tl_mfg_dw_pm_plant_cal_mach_idx.sql, C:\Users\g.barri\Desktop\test\XXPMAPP_MP_FT_MACH_KPI\tl_mfg_dw_pm_plant_cal_mach_idx.sql
è stato scartato perchè non riconosciuto.
movements.Move.checkFile()
	DEBUG: il file bl_mfg_dm_day_idx.sql, C:\Users\g.barri\Desktop\test\XXPMAPP_MP_FT_MAINTENANCE_CYCLES\bl_mfg_dm_day_idx.sql
è stato scartato perchè non riconosciuto.
movements.Move.move()
	TRACE: looking into subdirectory C:\Users\g.barri\Desktop\EDWP2\tl_scm_ind
movements.Move.move()
	TRACE: looking into subdirectory C:\Users\g.barri\Desktop\EDWP2\tl_pur
movements.Move.move()
	TRACE: looking into subdirectory C:\Users\g.barri\Desktop\EDWP2\tl_mfg
movements.Move.move()
	TRACE: looking into subdirectory C:\Users\g.barri\Desktop\EDWP2\tl_analytics
movements.Move.move()
	TRACE: looking into subdirectory C:\Users\g.barri\Desktop\EDWP2\oracompat
movements.Move.move()
	TRACE: looking into subdirectory C:\Users\g.barri\Desktop\EDWP2\lg_mfg
movements.Move.move()
	TRACE: looking into subdirectory C:\Users\g.barri\Desktop\EDWP2\ds_mfg
movements.Move.move()
	TRACE: looking into subdirectory C:\Users\g.barri\Desktop\EDWP2\dg_utilities
movements.Move.move()
	TRACE: looking into subdirectory C:\Users\g.barri\Desktop\EDWP2\bl_scm_ind
movements.Move.move()
	TRACE: looking into subdirectory C:\Users\g.barri\Desktop\EDWP2\bl_mfg
movements.Move.move()
	TRACE: looking into subdirectory C:\Users\g.barri\Desktop\EDWP2\bl_mfg\views
movements.Move.move()
	TRACE: looking into subdirectory C:\Users\g.barri\Desktop\EDWP2\bl_mfg\tables
movements.Move.move()
	TRACE: looking into subdirectory C:\Users\g.barri\Desktop\EDWP2\bl_mfg\functions
movements.Move.move()
	TRACE: looking into subdirectory C:\Users\g.barri\Desktop\EDWP2\bl_mfg\functions\pr
movements.Move.move()
	TRACE: looking into subdirectory C:\Users\g.barri\Desktop\EDWP2\bl_mfg\functions\packages
movements.Move.moveFileWrap()
	TRACE: Moving file	bl_mfg_mp_ft_maintenance_cycles.sqlfrom	C:\Users\g.barri\Desktop\test\XXPMAPP_MP_FT_MAINTENANCE_CYCLES\bl_mfg_mp_ft_maintenance_cycles.sql
to	 C:\Users\g.barri\Desktop\EDWP2\bl_mfg\functions\packages\bl_mfg_mp_ft_maintenance_cycles.sql
movements.Move.moveFileWrap()
	TRACE: Moved ended
movements.Move.move()
	TRACE: looking into subdirectory C:\Users\g.barri\Desktop\EDWP2\tl_scm_ind
movements.Move.move()
	TRACE: looking into subdirectory C:\Users\g.barri\Desktop\EDWP2\tl_pur
movements.Move.move()
	TRACE: looking into subdirectory C:\Users\g.barri\Desktop\EDWP2\tl_mfg
movements.Move.move()
	TRACE: looking into subdirectory C:\Users\g.barri\Desktop\EDWP2\tl_analytics
movements.Move.move()
	TRACE: looking into subdirectory C:\Users\g.barri\Desktop\EDWP2\oracompat
movements.Move.move()
	TRACE: looking into subdirectory C:\Users\g.barri\Desktop\EDWP2\lg_mfg
movements.Move.move()
	TRACE: looking into subdirectory C:\Users\g.barri\Desktop\EDWP2\ds_mfg
movements.Move.move()
	TRACE: looking into subdirectory C:\Users\g.barri\Desktop\EDWP2\dg_utilities
movements.Move.move()
	TRACE: looking into subdirectory C:\Users\g.barri\Desktop\EDWP2\bl_scm_ind
movements.Move.move()
	TRACE: looking into subdirectory C:\Users\g.barri\Desktop\EDWP2\bl_mfg
movements.Move.move()
	TRACE: looking into subdirectory C:\Users\g.barri\Desktop\EDWP2\bl_mfg\views
movements.Move.move()
	TRACE: looking into subdirectory C:\Users\g.barri\Desktop\EDWP2\bl_mfg\tables
movements.Move.move()
	TRACE: looking into subdirectory C:\Users\g.barri\Desktop\EDWP2\bl_mfg\functions
movements.Move.move()
	TRACE: looking into subdirectory C:\Users\g.barri\Desktop\EDWP2\bl_mfg\functions\pr
movements.Move.moveFileWrap()
	TRACE: Moving file	bl_mfg_pr_xxpm_truncate.sqlfrom	C:\Users\g.barri\Desktop\test\XXPMAPP_MP_FT_MAINTENANCE_CYCLES\bl_mfg_pr_xxpm_truncate.sql
to	 C:\Users\g.barri\Desktop\EDWP2\bl_mfg\functions\pr\bl_mfg_pr_xxpm_truncate.sql
movements.Move.moveFileWrap()
	TRACE: Moved ended
movements.Move.checkFile()
	DEBUG: il file create_lang.sql, C:\Users\g.barri\Desktop\test\XXPMAPP_MP_FT_MAINTENANCE_CYCLES\create_lang.sql
è stato scartato perchè non riconosciuto.
movements.Move.move()
	TRACE: looking into subdirectory C:\Users\g.barri\Desktop\EDWP2\tl_scm_ind
movements.Move.move()
	TRACE: looking into subdirectory C:\Users\g.barri\Desktop\EDWP2\tl_pur
movements.Move.move()
	TRACE: looking into subdirectory C:\Users\g.barri\Desktop\EDWP2\tl_mfg
movements.Move.move()
	TRACE: looking into subdirectory C:\Users\g.barri\Desktop\EDWP2\tl_analytics
movements.Move.move()
	TRACE: looking into subdirectory C:\Users\g.barri\Desktop\EDWP2\oracompat
movements.Move.move()
	TRACE: looking into subdirectory C:\Users\g.barri\Desktop\EDWP2\lg_mfg
movements.Move.move()
	TRACE: looking into subdirectory C:\Users\g.barri\Desktop\EDWP2\ds_mfg
movements.Move.move()
	TRACE: looking into subdirectory C:\Users\g.barri\Desktop\EDWP2\dg_utilities
movements.Move.move()
	TRACE: looking into subdirectory C:\Users\g.barri\Desktop\EDWP2\dg_utilities\tables
movements.Move.move()
	TRACE: looking into subdirectory C:\Users\g.barri\Desktop\EDWP2\dg_utilities\functions
movements.Move.move()
	TRACE: looking into subdirectory C:\Users\g.barri\Desktop\EDWP2\dg_utilities\functions\pr
movements.Move.moveFileWrap()
	TRACE: Moving file	lg_mfg_pr_function_log_dsx.sqlfrom	C:\Users\g.barri\Desktop\test\XXPMAPP_MP_FT_MAINTENANCE_CYCLES\lg_mfg_pr_function_log_dsx.sql
to	 C:\Users\g.barri\Desktop\EDWP2\dg_utilities\functions\pr\lg_mfg_pr_function_log_dsx.sql
movements.Move.moveFileWrap()
	TRACE: Moved ended
movements.Move.checkFile()
	DEBUG: il file Src_bl_mfg_pr_xxpm_truncate1.sql, C:\Users\g.barri\Desktop\test\XXPMAPP_MP_FT_MAINTENANCE_CYCLES\tmp_convert_sql\Src_bl_mfg_pr_xxpm_truncate1.sql
è stato scartato perchè non riconosciuto.
movements.Move.checkFile()
	DEBUG: il file Trg_bl_mfg_pr_xxpm_truncate1.sql, C:\Users\g.barri\Desktop\test\XXPMAPP_MP_FT_MAINTENANCE_CYCLES\tmp_convert_sql\Trg_bl_mfg_pr_xxpm_truncate1.sql
è stato scartato perchè non riconosciuto.
movements.Move.move()
	TRACE: looking into subdirectory C:\Users\g.barri\Desktop\EDWP2\tl_scm_ind
movements.Move.move()
	TRACE: looking into subdirectory C:\Users\g.barri\Desktop\EDWP2\tl_pur
movements.Move.move()
	TRACE: looking into subdirectory C:\Users\g.barri\Desktop\EDWP2\tl_mfg
movements.Move.move()
	TRACE: looking into subdirectory C:\Users\g.barri\Desktop\EDWP2\tl_analytics
movements.Move.move()
	TRACE: looking into subdirectory C:\Users\g.barri\Desktop\EDWP2\oracompat
movements.Move.move()
	TRACE: looking into subdirectory C:\Users\g.barri\Desktop\EDWP2\lg_mfg
movements.Move.move()
	TRACE: looking into subdirectory C:\Users\g.barri\Desktop\EDWP2\ds_mfg
movements.Move.move()
	TRACE: looking into subdirectory C:\Users\g.barri\Desktop\EDWP2\dg_utilities
movements.Move.move()
	TRACE: looking into subdirectory C:\Users\g.barri\Desktop\EDWP2\bl_scm_ind
movements.Move.move()
	TRACE: looking into subdirectory C:\Users\g.barri\Desktop\EDWP2\bl_mfg
movements.Move.move()
	TRACE: looking into subdirectory C:\Users\g.barri\Desktop\EDWP2\bl_mfg\views
movements.Move.move()
	TRACE: looking into subdirectory C:\Users\g.barri\Desktop\EDWP2\bl_mfg\tables
movements.Move.move()
	TRACE: looking into subdirectory C:\Users\g.barri\Desktop\EDWP2\bl_mfg\functions
movements.Move.move()
	TRACE: looking into subdirectory C:\Users\g.barri\Desktop\EDWP2\bl_mfg\functions\pr
movements.Move.move()
	TRACE: looking into subdirectory C:\Users\g.barri\Desktop\EDWP2\bl_mfg\functions\packages
movements.Move.moveFileWrap()
	TRACE: Moving file	bl_mfg_mp_ft_maintenance_evolution.sqlfrom	C:\Users\g.barri\Desktop\test\XXPMAPP_MP_FT_MAINTENANCE_EVOLUTION\bl_mfg_mp_ft_maintenance_evolution.sql
to	 C:\Users\g.barri\Desktop\EDWP2\bl_mfg\functions\packages\bl_mfg_mp_ft_maintenance_evolution.sql
movements.Move.moveFileWrap()
	TRACE: Moved ended
movements.Move.checkFile()
	DEBUG: il file create_lang.sql, C:\Users\g.barri\Desktop\test\XXPMAPP_MP_FT_MAINTENANCE_EVOLUTION\create_lang.sql
è stato scartato perchè non riconosciuto.
movements.Move.move()
	TRACE: looking into subdirectory C:\Users\g.barri\Desktop\EDWP2\tl_scm_ind
movements.Move.move()
	TRACE: looking into subdirectory C:\Users\g.barri\Desktop\EDWP2\tl_pur
movements.Move.move()
	TRACE: looking into subdirectory C:\Users\g.barri\Desktop\EDWP2\tl_mfg
movements.Move.move()
	TRACE: looking into subdirectory C:\Users\g.barri\Desktop\EDWP2\tl_analytics
movements.Move.move()
	TRACE: looking into subdirectory C:\Users\g.barri\Desktop\EDWP2\oracompat
movements.Move.move()
	TRACE: looking into subdirectory C:\Users\g.barri\Desktop\EDWP2\lg_mfg
movements.Move.move()
	TRACE: looking into subdirectory C:\Users\g.barri\Desktop\EDWP2\ds_mfg
movements.Move.move()
	TRACE: looking into subdirectory C:\Users\g.barri\Desktop\EDWP2\dg_utilities
movements.Move.move()
	TRACE: looking into subdirectory C:\Users\g.barri\Desktop\EDWP2\dg_utilities\tables
movements.Move.move()
	TRACE: looking into subdirectory C:\Users\g.barri\Desktop\EDWP2\dg_utilities\functions
movements.Move.move()
	TRACE: looking into subdirectory C:\Users\g.barri\Desktop\EDWP2\dg_utilities\functions\pr
movements.Move.moveFileWrap()
	TRACE: Moving file	lg_mfg_pr_function_log_dsx.sqlfrom	C:\Users\g.barri\Desktop\test\XXPMAPP_MP_FT_MAINTENANCE_EVOLUTION\lg_mfg_pr_function_log_dsx.sql
to	 C:\Users\g.barri\Desktop\EDWP2\dg_utilities\functions\pr\lg_mfg_pr_function_log_dsx.sql
movements.Move.moveFileWrap()
	TRACE: Moved ended
movements.Move.move()
	TRACE: looking into subdirectory C:\Users\g.barri\Desktop\EDWP2\tl_scm_ind
movements.Move.move()
	TRACE: looking into subdirectory C:\Users\g.barri\Desktop\EDWP2\tl_pur
movements.Move.move()
	TRACE: looking into subdirectory C:\Users\g.barri\Desktop\EDWP2\tl_mfg
movements.Move.move()
	TRACE: looking into subdirectory C:\Users\g.barri\Desktop\EDWP2\tl_analytics
movements.Move.move()
	TRACE: looking into subdirectory C:\Users\g.barri\Desktop\EDWP2\oracompat
movements.Move.move()
	TRACE: looking into subdirectory C:\Users\g.barri\Desktop\EDWP2\lg_mfg
movements.Move.move()
	TRACE: looking into subdirectory C:\Users\g.barri\Desktop\EDWP2\ds_mfg
movements.Move.move()
	TRACE: looking into subdirectory C:\Users\g.barri\Desktop\EDWP2\dg_utilities
movements.Move.move()
	TRACE: looking into subdirectory C:\Users\g.barri\Desktop\EDWP2\bl_scm_ind
movements.Move.move()
	TRACE: looking into subdirectory C:\Users\g.barri\Desktop\EDWP2\bl_mfg
movements.Move.move()
	TRACE: looking into subdirectory C:\Users\g.barri\Desktop\EDWP2\bl_mfg\views
movements.Move.move()
	TRACE: looking into subdirectory C:\Users\g.barri\Desktop\EDWP2\bl_mfg\tables
movements.Move.move()
	TRACE: looking into subdirectory C:\Users\g.barri\Desktop\EDWP2\bl_mfg\functions
movements.Move.move()
	TRACE: looking into subdirectory C:\Users\g.barri\Desktop\EDWP2\bl_mfg\functions\pr
movements.Move.move()
	TRACE: looking into subdirectory C:\Users\g.barri\Desktop\EDWP2\bl_mfg\functions\packages
movements.Move.moveFileWrap()
	TRACE: Moving file	bl_mfg_mp_ft_target.sqlfrom	C:\Users\g.barri\Desktop\test\XXPMAPP_MP_FT_TARGET\bl_mfg_mp_ft_target.sql
to	 C:\Users\g.barri\Desktop\EDWP2\bl_mfg\functions\packages\bl_mfg_mp_ft_target.sql
movements.Move.moveFileWrap()
	TRACE: Moved ended
movements.Move.checkFile()
	DEBUG: il file create_lang.sql, C:\Users\g.barri\Desktop\test\XXPMAPP_MP_FT_TARGET\create_lang.sql
è stato scartato perchè non riconosciuto.
movements.Move.move()
	TRACE: looking into subdirectory C:\Users\g.barri\Desktop\EDWP2\tl_scm_ind
movements.Move.move()
	TRACE: looking into subdirectory C:\Users\g.barri\Desktop\EDWP2\tl_pur
movements.Move.move()
	TRACE: looking into subdirectory C:\Users\g.barri\Desktop\EDWP2\tl_mfg
movements.Move.move()
	TRACE: looking into subdirectory C:\Users\g.barri\Desktop\EDWP2\tl_analytics
movements.Move.move()
	TRACE: looking into subdirectory C:\Users\g.barri\Desktop\EDWP2\oracompat
movements.Move.move()
	TRACE: looking into subdirectory C:\Users\g.barri\Desktop\EDWP2\lg_mfg
movements.Move.move()
	TRACE: looking into subdirectory C:\Users\g.barri\Desktop\EDWP2\ds_mfg
movements.Move.move()
	TRACE: looking into subdirectory C:\Users\g.barri\Desktop\EDWP2\dg_utilities
movements.Move.move()
	TRACE: looking into subdirectory C:\Users\g.barri\Desktop\EDWP2\dg_utilities\tables
movements.Move.move()
	TRACE: looking into subdirectory C:\Users\g.barri\Desktop\EDWP2\dg_utilities\functions
movements.Move.move()
	TRACE: looking into subdirectory C:\Users\g.barri\Desktop\EDWP2\dg_utilities\functions\pr
movements.Move.moveFileWrap()
	TRACE: Moving file	lg_mfg_pr_function_log_dsx.sqlfrom	C:\Users\g.barri\Desktop\test\XXPMAPP_MP_FT_TARGET\lg_mfg_pr_function_log_dsx.sql
to	 C:\Users\g.barri\Desktop\EDWP2\dg_utilities\functions\pr\lg_mfg_pr_function_log_dsx.sql
movements.Move.moveFileWrap()
	TRACE: Moved ended
movements.Move.move()
	TRACE: looking into subdirectory C:\Users\g.barri\Desktop\EDWP2\tl_scm_ind
movements.Move.move()
	TRACE: looking into subdirectory C:\Users\g.barri\Desktop\EDWP2\tl_pur
movements.Move.move()
	TRACE: looking into subdirectory C:\Users\g.barri\Desktop\EDWP2\tl_mfg
movements.Move.move()
	TRACE: looking into subdirectory C:\Users\g.barri\Desktop\EDWP2\tl_analytics
movements.Move.move()
	TRACE: looking into subdirectory C:\Users\g.barri\Desktop\EDWP2\oracompat
movements.Move.move()
	TRACE: looking into subdirectory C:\Users\g.barri\Desktop\EDWP2\lg_mfg
movements.Move.move()
	TRACE: looking into subdirectory C:\Users\g.barri\Desktop\EDWP2\ds_mfg
movements.Move.move()
	TRACE: looking into subdirectory C:\Users\g.barri\Desktop\EDWP2\dg_utilities
movements.Move.move()
	TRACE: looking into subdirectory C:\Users\g.barri\Desktop\EDWP2\bl_scm_ind
movements.Move.move()
	TRACE: looking into subdirectory C:\Users\g.barri\Desktop\EDWP2\bl_mfg
movements.Move.move()
	TRACE: looking into subdirectory C:\Users\g.barri\Desktop\EDWP2\bl_mfg\views
movements.Move.move()
	TRACE: looking into subdirectory C:\Users\g.barri\Desktop\EDWP2\bl_mfg\tables
movements.Move.move()
	TRACE: looking into subdirectory C:\Users\g.barri\Desktop\EDWP2\bl_mfg\functions
movements.Move.move()
	TRACE: looking into subdirectory C:\Users\g.barri\Desktop\EDWP2\bl_mfg\functions\pr
movements.Move.move()
	TRACE: looking into subdirectory C:\Users\g.barri\Desktop\EDWP2\bl_mfg\functions\packages
movements.Move.moveFileWrap()
	TRACE: Moving file	bl_mfg_mp_ft_tech_kpi.sqlfrom	C:\Users\g.barri\Desktop\test\XXPMAPP_MP_FT_TECH_KPI\bl_mfg_mp_ft_tech_kpi.sql
to	 C:\Users\g.barri\Desktop\EDWP2\bl_mfg\functions\packages\bl_mfg_mp_ft_tech_kpi.sql
movements.Move.moveFileWrap()
	TRACE: Moved ended
movements.Move.checkFile()
	DEBUG: il file create_lang.sql, C:\Users\g.barri\Desktop\test\XXPMAPP_MP_FT_TECH_KPI\create_lang.sql
è stato scartato perchè non riconosciuto.
movements.Move.move()
	TRACE: looking into subdirectory C:\Users\g.barri\Desktop\EDWP2\tl_scm_ind
movements.Move.move()
	TRACE: looking into subdirectory C:\Users\g.barri\Desktop\EDWP2\tl_pur
movements.Move.move()
	TRACE: looking into subdirectory C:\Users\g.barri\Desktop\EDWP2\tl_mfg
movements.Move.move()
	TRACE: looking into subdirectory C:\Users\g.barri\Desktop\EDWP2\tl_analytics
movements.Move.move()
	TRACE: looking into subdirectory C:\Users\g.barri\Desktop\EDWP2\oracompat
movements.Move.move()
	TRACE: looking into subdirectory C:\Users\g.barri\Desktop\EDWP2\lg_mfg
movements.Move.move()
	TRACE: looking into subdirectory C:\Users\g.barri\Desktop\EDWP2\ds_mfg
movements.Move.move()
	TRACE: looking into subdirectory C:\Users\g.barri\Desktop\EDWP2\dg_utilities
movements.Move.move()
	TRACE: looking into subdirectory C:\Users\g.barri\Desktop\EDWP2\dg_utilities\tables
movements.Move.move()
	TRACE: looking into subdirectory C:\Users\g.barri\Desktop\EDWP2\dg_utilities\functions
movements.Move.move()
	TRACE: looking into subdirectory C:\Users\g.barri\Desktop\EDWP2\dg_utilities\functions\pr
movements.Move.moveFileWrap()
	TRACE: Moving file	lg_mfg_pr_function_log_dsx.sqlfrom	C:\Users\g.barri\Desktop\test\XXPMAPP_MP_FT_TECH_KPI\lg_mfg_pr_function_log_dsx.sql
to	 C:\Users\g.barri\Desktop\EDWP2\dg_utilities\functions\pr\lg_mfg_pr_function_log_dsx.sql
movements.Move.moveFileWrap()
	TRACE: Moved ended
movements.Move.checkFile()
	DEBUG: il file bl_mfg_dm_day_idx.sql, C:\Users\g.barri\Desktop\test\XXPMAPP_MP_FT_TECH_KPI_ORDERS\bl_mfg_dm_day_idx.sql
è stato scartato perchè non riconosciuto.
movements.Move.checkFile()
	DEBUG: il file bl_mfg_dm_month_idx.sql, C:\Users\g.barri\Desktop\test\XXPMAPP_MP_FT_TECH_KPI_ORDERS\bl_mfg_dm_month_idx.sql
è stato scartato perchè non riconosciuto.
movements.Move.checkFile()
	DEBUG: il file bl_mfg_dm_stabilimenti_pm_idx.sql, C:\Users\g.barri\Desktop\test\XXPMAPP_MP_FT_TECH_KPI_ORDERS\bl_mfg_dm_stabilimenti_pm_idx.sql
è stato scartato perchè non riconosciuto.
movements.Move.move()
	TRACE: looking into subdirectory C:\Users\g.barri\Desktop\EDWP2\tl_scm_ind
movements.Move.move()
	TRACE: looking into subdirectory C:\Users\g.barri\Desktop\EDWP2\tl_pur
movements.Move.move()
	TRACE: looking into subdirectory C:\Users\g.barri\Desktop\EDWP2\tl_mfg
movements.Move.move()
	TRACE: looking into subdirectory C:\Users\g.barri\Desktop\EDWP2\tl_analytics
movements.Move.move()
	TRACE: looking into subdirectory C:\Users\g.barri\Desktop\EDWP2\oracompat
movements.Move.move()
	TRACE: looking into subdirectory C:\Users\g.barri\Desktop\EDWP2\lg_mfg
movements.Move.move()
	TRACE: looking into subdirectory C:\Users\g.barri\Desktop\EDWP2\ds_mfg
movements.Move.move()
	TRACE: looking into subdirectory C:\Users\g.barri\Desktop\EDWP2\dg_utilities
movements.Move.move()
	TRACE: looking into subdirectory C:\Users\g.barri\Desktop\EDWP2\bl_scm_ind
movements.Move.move()
	TRACE: looking into subdirectory C:\Users\g.barri\Desktop\EDWP2\bl_mfg
movements.Move.move()
	TRACE: looking into subdirectory C:\Users\g.barri\Desktop\EDWP2\bl_mfg\views
movements.Move.move()
	TRACE: looking into subdirectory C:\Users\g.barri\Desktop\EDWP2\bl_mfg\tables
movements.Move.move()
	TRACE: looking into subdirectory C:\Users\g.barri\Desktop\EDWP2\bl_mfg\functions
movements.Move.move()
	TRACE: looking into subdirectory C:\Users\g.barri\Desktop\EDWP2\bl_mfg\functions\pr
movements.Move.move()
	TRACE: looking into subdirectory C:\Users\g.barri\Desktop\EDWP2\bl_mfg\functions\packages
movements.Move.moveFileWrap()
	TRACE: Moving file	bl_mfg_mp_ft_tech_kpi_orders.sqlfrom	C:\Users\g.barri\Desktop\test\XXPMAPP_MP_FT_TECH_KPI_ORDERS\bl_mfg_mp_ft_tech_kpi_orders.sql
to	 C:\Users\g.barri\Desktop\EDWP2\bl_mfg\functions\packages\bl_mfg_mp_ft_tech_kpi_orders.sql
movements.Move.moveFileWrap()
	TRACE: Moved ended
movements.Move.checkFile()
	DEBUG: il file create_lang.sql, C:\Users\g.barri\Desktop\test\XXPMAPP_MP_FT_TECH_KPI_ORDERS\create_lang.sql
è stato scartato perchè non riconosciuto.
movements.Move.move()
	TRACE: looking into subdirectory C:\Users\g.barri\Desktop\EDWP2\tl_scm_ind
movements.Move.move()
	TRACE: looking into subdirectory C:\Users\g.barri\Desktop\EDWP2\tl_pur
movements.Move.move()
	TRACE: looking into subdirectory C:\Users\g.barri\Desktop\EDWP2\tl_mfg
movements.Move.move()
	TRACE: looking into subdirectory C:\Users\g.barri\Desktop\EDWP2\tl_analytics
movements.Move.move()
	TRACE: looking into subdirectory C:\Users\g.barri\Desktop\EDWP2\oracompat
movements.Move.move()
	TRACE: looking into subdirectory C:\Users\g.barri\Desktop\EDWP2\lg_mfg
movements.Move.move()
	TRACE: looking into subdirectory C:\Users\g.barri\Desktop\EDWP2\ds_mfg
movements.Move.move()
	TRACE: looking into subdirectory C:\Users\g.barri\Desktop\EDWP2\dg_utilities
movements.Move.move()
	TRACE: looking into subdirectory C:\Users\g.barri\Desktop\EDWP2\dg_utilities\tables
movements.Move.move()
	TRACE: looking into subdirectory C:\Users\g.barri\Desktop\EDWP2\dg_utilities\functions
movements.Move.move()
	TRACE: looking into subdirectory C:\Users\g.barri\Desktop\EDWP2\dg_utilities\functions\pr
movements.Move.moveFileWrap()
	TRACE: Moving file	lg_mfg_pr_function_log_dsx.sqlfrom	C:\Users\g.barri\Desktop\test\XXPMAPP_MP_FT_TECH_KPI_ORDERS\lg_mfg_pr_function_log_dsx.sql
to	 C:\Users\g.barri\Desktop\EDWP2\dg_utilities\functions\pr\lg_mfg_pr_function_log_dsx.sql
movements.Move.moveFileWrap()
	TRACE: Moved ended
movements.Move.move()
	TRACE: looking into subdirectory C:\Users\g.barri\Desktop\EDWP2\tl_scm_ind
utilities.SQLSearcher.detectSchema()
	WARN: Nella DDL swf_greatest.sql non è stato rilevato uno schema di riferimento.
utilities.SQLSearcher.detectSchema()
	INFO: schema non individuato in swf_greatest.sql
movements.Move.move()
	TRACE: looking into subdirectory C:\Users\g.barri\Desktop\EDWP2\tl_pur
utilities.SQLSearcher.detectSchema()
	WARN: Nella DDL swf_greatest.sql non è stato rilevato uno schema di riferimento.
utilities.SQLSearcher.detectSchema()
	INFO: schema non individuato in swf_greatest.sql
movements.Move.move()
	TRACE: looking into subdirectory C:\Users\g.barri\Desktop\EDWP2\tl_mfg
utilities.SQLSearcher.detectSchema()
	WARN: Nella DDL swf_greatest.sql non è stato rilevato uno schema di riferimento.
utilities.SQLSearcher.detectSchema()
	INFO: schema non individuato in swf_greatest.sql
movements.Move.move()
	TRACE: looking into subdirectory C:\Users\g.barri\Desktop\EDWP2\tl_analytics
utilities.SQLSearcher.detectSchema()
	WARN: Nella DDL swf_greatest.sql non è stato rilevato uno schema di riferimento.
utilities.SQLSearcher.detectSchema()
	INFO: schema non individuato in swf_greatest.sql
movements.Move.move()
	TRACE: looking into subdirectory C:\Users\g.barri\Desktop\EDWP2\oracompat
utilities.SQLSearcher.detectSchema()
	WARN: Nella DDL swf_greatest.sql non è stato rilevato uno schema di riferimento.
utilities.SQLSearcher.detectSchema()
	INFO: schema non individuato in swf_greatest.sql
movements.Move.move()
	TRACE: looking into subdirectory C:\Users\g.barri\Desktop\EDWP2\lg_mfg
utilities.SQLSearcher.detectSchema()
	WARN: Nella DDL swf_greatest.sql non è stato rilevato uno schema di riferimento.
utilities.SQLSearcher.detectSchema()
	INFO: schema non individuato in swf_greatest.sql
movements.Move.move()
	TRACE: looking into subdirectory C:\Users\g.barri\Desktop\EDWP2\ds_mfg
utilities.SQLSearcher.detectSchema()
	WARN: Nella DDL swf_greatest.sql non è stato rilevato uno schema di riferimento.
utilities.SQLSearcher.detectSchema()
	INFO: schema non individuato in swf_greatest.sql
movements.Move.move()
	TRACE: looking into subdirectory C:\Users\g.barri\Desktop\EDWP2\dg_utilities
utilities.SQLSearcher.detectSchema()
	WARN: Nella DDL swf_greatest.sql non è stato rilevato uno schema di riferimento.
utilities.SQLSearcher.detectSchema()
	INFO: schema non individuato in swf_greatest.sql
movements.Move.move()
	TRACE: looking into subdirectory C:\Users\g.barri\Desktop\EDWP2\bl_scm_ind
utilities.SQLSearcher.detectSchema()
	WARN: Nella DDL swf_greatest.sql non è stato rilevato uno schema di riferimento.
utilities.SQLSearcher.detectSchema()
	INFO: schema non individuato in swf_greatest.sql
movements.Move.move()
	TRACE: looking into subdirectory C:\Users\g.barri\Desktop\EDWP2\bl_mfg
utilities.SQLSearcher.detectSchema()
	WARN: Nella DDL swf_greatest.sql non è stato rilevato uno schema di riferimento.
utilities.SQLSearcher.detectSchema()
	INFO: schema non individuato in swf_greatest.sql
movements.Move.moveFileWrap()
	TRACE: Moving file	swf_greatest.sqlfrom	C:\Users\g.barri\Desktop\test\XXPMAPP_MP_FT_TECH_KPI_ORDERS\swf_greatest.sql
to	 C:\Users\g.barri\Desktop\EDWP2\swf_greatest.sql
movements.Move.moveFileWrap()
	TRACE: Moved ended
movements.Move.move()
	TRACE: looking into subdirectory C:\Users\g.barri\Desktop\EDWP2\tl_scm_ind
utilities.SQLSearcher.detectSchema()
	WARN: Nella DDL swf_least.sql non è stato rilevato uno schema di riferimento.
utilities.SQLSearcher.detectSchema()
	INFO: schema non individuato in swf_least.sql
movements.Move.move()
	TRACE: looking into subdirectory C:\Users\g.barri\Desktop\EDWP2\tl_pur
utilities.SQLSearcher.detectSchema()
	WARN: Nella DDL swf_least.sql non è stato rilevato uno schema di riferimento.
utilities.SQLSearcher.detectSchema()
	INFO: schema non individuato in swf_least.sql
movements.Move.move()
	TRACE: looking into subdirectory C:\Users\g.barri\Desktop\EDWP2\tl_mfg
utilities.SQLSearcher.detectSchema()
	WARN: Nella DDL swf_least.sql non è stato rilevato uno schema di riferimento.
utilities.SQLSearcher.detectSchema()
	INFO: schema non individuato in swf_least.sql
movements.Move.move()
	TRACE: looking into subdirectory C:\Users\g.barri\Desktop\EDWP2\tl_analytics
utilities.SQLSearcher.detectSchema()
	WARN: Nella DDL swf_least.sql non è stato rilevato uno schema di riferimento.
utilities.SQLSearcher.detectSchema()
	INFO: schema non individuato in swf_least.sql
movements.Move.move()
	TRACE: looking into subdirectory C:\Users\g.barri\Desktop\EDWP2\oracompat
utilities.SQLSearcher.detectSchema()
	WARN: Nella DDL swf_least.sql non è stato rilevato uno schema di riferimento.
utilities.SQLSearcher.detectSchema()
	INFO: schema non individuato in swf_least.sql
movements.Move.move()
	TRACE: looking into subdirectory C:\Users\g.barri\Desktop\EDWP2\lg_mfg
utilities.SQLSearcher.detectSchema()
	WARN: Nella DDL swf_least.sql non è stato rilevato uno schema di riferimento.
utilities.SQLSearcher.detectSchema()
	INFO: schema non individuato in swf_least.sql
movements.Move.move()
	TRACE: looking into subdirectory C:\Users\g.barri\Desktop\EDWP2\ds_mfg
utilities.SQLSearcher.detectSchema()
	WARN: Nella DDL swf_least.sql non è stato rilevato uno schema di riferimento.
utilities.SQLSearcher.detectSchema()
	INFO: schema non individuato in swf_least.sql
movements.Move.move()
	TRACE: looking into subdirectory C:\Users\g.barri\Desktop\EDWP2\dg_utilities
utilities.SQLSearcher.detectSchema()
	WARN: Nella DDL swf_least.sql non è stato rilevato uno schema di riferimento.
utilities.SQLSearcher.detectSchema()
	INFO: schema non individuato in swf_least.sql
movements.Move.move()
	TRACE: looking into subdirectory C:\Users\g.barri\Desktop\EDWP2\bl_scm_ind
utilities.SQLSearcher.detectSchema()
	WARN: Nella DDL swf_least.sql non è stato rilevato uno schema di riferimento.
utilities.SQLSearcher.detectSchema()
	INFO: schema non individuato in swf_least.sql
movements.Move.move()
	TRACE: looking into subdirectory C:\Users\g.barri\Desktop\EDWP2\bl_mfg
utilities.SQLSearcher.detectSchema()
	WARN: Nella DDL swf_least.sql non è stato rilevato uno schema di riferimento.
utilities.SQLSearcher.detectSchema()
	INFO: schema non individuato in swf_least.sql
movements.Move.moveFileWrap()
	TRACE: Moving file	swf_least.sqlfrom	C:\Users\g.barri\Desktop\test\XXPMAPP_MP_FT_TECH_KPI_ORDERS\swf_least.sql
to	 C:\Users\g.barri\Desktop\EDWP2\swf_least.sql
movements.Move.moveFileWrap()
	TRACE: Moved ended
movements.Move.move()
	TRACE: looking into subdirectory C:\Users\g.barri\Desktop\EDWP2\tl_scm_ind
utilities.SQLSearcher.detectSchema()
	WARN: Nella DDL swf_round_date.sql non è stato rilevato uno schema di riferimento.
utilities.SQLSearcher.detectSchema()
	INFO: schema non individuato in swf_round_date.sql
movements.Move.move()
	TRACE: looking into subdirectory C:\Users\g.barri\Desktop\EDWP2\tl_pur
utilities.SQLSearcher.detectSchema()
	WARN: Nella DDL swf_round_date.sql non è stato rilevato uno schema di riferimento.
utilities.SQLSearcher.detectSchema()
	INFO: schema non individuato in swf_round_date.sql
movements.Move.move()
	TRACE: looking into subdirectory C:\Users\g.barri\Desktop\EDWP2\tl_mfg
utilities.SQLSearcher.detectSchema()
	WARN: Nella DDL swf_round_date.sql non è stato rilevato uno schema di riferimento.
utilities.SQLSearcher.detectSchema()
	INFO: schema non individuato in swf_round_date.sql
movements.Move.move()
	TRACE: looking into subdirectory C:\Users\g.barri\Desktop\EDWP2\tl_analytics
utilities.SQLSearcher.detectSchema()
	WARN: Nella DDL swf_round_date.sql non è stato rilevato uno schema di riferimento.
utilities.SQLSearcher.detectSchema()
	INFO: schema non individuato in swf_round_date.sql
movements.Move.move()
	TRACE: looking into subdirectory C:\Users\g.barri\Desktop\EDWP2\oracompat
utilities.SQLSearcher.detectSchema()
	WARN: Nella DDL swf_round_date.sql non è stato rilevato uno schema di riferimento.
utilities.SQLSearcher.detectSchema()
	INFO: schema non individuato in swf_round_date.sql
movements.Move.move()
	TRACE: looking into subdirectory C:\Users\g.barri\Desktop\EDWP2\lg_mfg
utilities.SQLSearcher.detectSchema()
	WARN: Nella DDL swf_round_date.sql non è stato rilevato uno schema di riferimento.
utilities.SQLSearcher.detectSchema()
	INFO: schema non individuato in swf_round_date.sql
movements.Move.move()
	TRACE: looking into subdirectory C:\Users\g.barri\Desktop\EDWP2\ds_mfg
utilities.SQLSearcher.detectSchema()
	WARN: Nella DDL swf_round_date.sql non è stato rilevato uno schema di riferimento.
utilities.SQLSearcher.detectSchema()
	INFO: schema non individuato in swf_round_date.sql
movements.Move.move()
	TRACE: looking into subdirectory C:\Users\g.barri\Desktop\EDWP2\dg_utilities
utilities.SQLSearcher.detectSchema()
	WARN: Nella DDL swf_round_date.sql non è stato rilevato uno schema di riferimento.
utilities.SQLSearcher.detectSchema()
	INFO: schema non individuato in swf_round_date.sql
movements.Move.move()
	TRACE: looking into subdirectory C:\Users\g.barri\Desktop\EDWP2\bl_scm_ind
utilities.SQLSearcher.detectSchema()
	WARN: Nella DDL swf_round_date.sql non è stato rilevato uno schema di riferimento.
utilities.SQLSearcher.detectSchema()
	INFO: schema non individuato in swf_round_date.sql
movements.Move.move()
	TRACE: looking into subdirectory C:\Users\g.barri\Desktop\EDWP2\bl_mfg
utilities.SQLSearcher.detectSchema()
	WARN: Nella DDL swf_round_date.sql non è stato rilevato uno schema di riferimento.
utilities.SQLSearcher.detectSchema()
	INFO: schema non individuato in swf_round_date.sql
movements.Move.moveFileWrap()
	TRACE: Moving file	swf_round_date.sqlfrom	C:\Users\g.barri\Desktop\test\XXPMAPP_MP_FT_TECH_KPI_ORDERS\swf_round_date.sql
to	 C:\Users\g.barri\Desktop\EDWP2\swf_round_date.sql
movements.Move.moveFileWrap()
	TRACE: Moved ended
movements.Move.checkFile()
	DEBUG: il file tl_mfg_dw_pm_machine_cal_day_idx.sql, C:\Users\g.barri\Desktop\test\XXPMAPP_MP_FT_TECH_KPI_ORDERS\tl_mfg_dw_pm_machine_cal_day_idx.sql
è stato scartato perchè non riconosciuto.
movements.Move.checkFile()
	DEBUG: il file tl_mfg_dw_pm_plant_cal_day_idx.sql, C:\Users\g.barri\Desktop\test\XXPMAPP_MP_FT_TECH_KPI_ORDERS\tl_mfg_dw_pm_plant_cal_day_idx.sql
è stato scartato perchè non riconosciuto.
movements.Move.checkFile()
	DEBUG: il file tl_mfg_dw_pm_plant_cal_mach_idx.sql, C:\Users\g.barri\Desktop\test\XXPMAPP_MP_FT_TECH_KPI_ORDERS\tl_mfg_dw_pm_plant_cal_mach_idx.sql
è stato scartato perchè non riconosciuto.
movements.Move.checkFile()
	DEBUG: il file tl_mfg_dw_pm_teckpi_idx.sql, C:\Users\g.barri\Desktop\test\XXPMAPP_MP_FT_TECH_KPI_ORDERS\tl_mfg_dw_pm_teckpi_idx.sql
è stato scartato perchè non riconosciuto.
movements.Move.checkFile()
	DEBUG: il file bl_mfg_dm_day_idx.sql, C:\Users\g.barri\Desktop\test\XXPMAPP_MP_FT_WORKING_HOURS\bl_mfg_dm_day_idx.sql
è stato scartato perchè non riconosciuto.
movements.Move.move()
	TRACE: looking into subdirectory C:\Users\g.barri\Desktop\EDWP2\tl_scm_ind
movements.Move.move()
	TRACE: looking into subdirectory C:\Users\g.barri\Desktop\EDWP2\tl_pur
movements.Move.move()
	TRACE: looking into subdirectory C:\Users\g.barri\Desktop\EDWP2\tl_mfg
movements.Move.move()
	TRACE: looking into subdirectory C:\Users\g.barri\Desktop\EDWP2\tl_analytics
movements.Move.move()
	TRACE: looking into subdirectory C:\Users\g.barri\Desktop\EDWP2\oracompat
movements.Move.move()
	TRACE: looking into subdirectory C:\Users\g.barri\Desktop\EDWP2\lg_mfg
movements.Move.move()
	TRACE: looking into subdirectory C:\Users\g.barri\Desktop\EDWP2\ds_mfg
movements.Move.move()
	TRACE: looking into subdirectory C:\Users\g.barri\Desktop\EDWP2\dg_utilities
movements.Move.move()
	TRACE: looking into subdirectory C:\Users\g.barri\Desktop\EDWP2\bl_scm_ind
movements.Move.move()
	TRACE: looking into subdirectory C:\Users\g.barri\Desktop\EDWP2\bl_mfg
movements.Move.move()
	TRACE: looking into subdirectory C:\Users\g.barri\Desktop\EDWP2\bl_mfg\views
movements.Move.move()
	TRACE: looking into subdirectory C:\Users\g.barri\Desktop\EDWP2\bl_mfg\tables
movements.Move.move()
	TRACE: looking into subdirectory C:\Users\g.barri\Desktop\EDWP2\bl_mfg\functions
movements.Move.move()
	TRACE: looking into subdirectory C:\Users\g.barri\Desktop\EDWP2\bl_mfg\functions\pr
movements.Move.move()
	TRACE: looking into subdirectory C:\Users\g.barri\Desktop\EDWP2\bl_mfg\functions\packages
movements.Move.moveFileWrap()
	TRACE: Moving file	bl_mfg_mp_ft_working_hours.sqlfrom	C:\Users\g.barri\Desktop\test\XXPMAPP_MP_FT_WORKING_HOURS\bl_mfg_mp_ft_working_hours.sql
to	 C:\Users\g.barri\Desktop\EDWP2\bl_mfg\functions\packages\bl_mfg_mp_ft_working_hours.sql
movements.Move.moveFileWrap()
	TRACE: Moved ended
movements.Move.checkFile()
	DEBUG: il file create_lang.sql, C:\Users\g.barri\Desktop\test\XXPMAPP_MP_FT_WORKING_HOURS\create_lang.sql
è stato scartato perchè non riconosciuto.
movements.Move.move()
	TRACE: looking into subdirectory C:\Users\g.barri\Desktop\EDWP2\tl_scm_ind
movements.Move.move()
	TRACE: looking into subdirectory C:\Users\g.barri\Desktop\EDWP2\tl_pur
movements.Move.move()
	TRACE: looking into subdirectory C:\Users\g.barri\Desktop\EDWP2\tl_mfg
movements.Move.move()
	TRACE: looking into subdirectory C:\Users\g.barri\Desktop\EDWP2\tl_analytics
movements.Move.move()
	TRACE: looking into subdirectory C:\Users\g.barri\Desktop\EDWP2\oracompat
movements.Move.move()
	TRACE: looking into subdirectory C:\Users\g.barri\Desktop\EDWP2\lg_mfg
movements.Move.move()
	TRACE: looking into subdirectory C:\Users\g.barri\Desktop\EDWP2\ds_mfg
movements.Move.move()
	TRACE: looking into subdirectory C:\Users\g.barri\Desktop\EDWP2\dg_utilities
movements.Move.move()
	TRACE: looking into subdirectory C:\Users\g.barri\Desktop\EDWP2\dg_utilities\tables
movements.Move.move()
	TRACE: looking into subdirectory C:\Users\g.barri\Desktop\EDWP2\dg_utilities\functions
movements.Move.move()
	TRACE: looking into subdirectory C:\Users\g.barri\Desktop\EDWP2\dg_utilities\functions\pr
movements.Move.moveFileWrap()
	TRACE: Moving file	lg_mfg_pr_function_log_dsx.sqlfrom	C:\Users\g.barri\Desktop\test\XXPMAPP_MP_FT_WORKING_HOURS\lg_mfg_pr_function_log_dsx.sql
to	 C:\Users\g.barri\Desktop\EDWP2\dg_utilities\functions\pr\lg_mfg_pr_function_log_dsx.sql
movements.Move.moveFileWrap()
	TRACE: Moved ended
movements.Move.move()
	TRACE: looking into subdirectory C:\Users\g.barri\Desktop\EDWP2\tl_scm_ind
movements.Move.move()
	TRACE: looking into subdirectory C:\Users\g.barri\Desktop\EDWP2\tl_pur
movements.Move.move()
	TRACE: looking into subdirectory C:\Users\g.barri\Desktop\EDWP2\tl_mfg
movements.Move.move()
	TRACE: looking into subdirectory C:\Users\g.barri\Desktop\EDWP2\tl_analytics
movements.Move.move()
	TRACE: looking into subdirectory C:\Users\g.barri\Desktop\EDWP2\oracompat
movements.Move.move()
	TRACE: looking into subdirectory C:\Users\g.barri\Desktop\EDWP2\lg_mfg
movements.Move.move()
	TRACE: looking into subdirectory C:\Users\g.barri\Desktop\EDWP2\ds_mfg
movements.Move.move()
	TRACE: looking into subdirectory C:\Users\g.barri\Desktop\EDWP2\dg_utilities
movements.Move.move()
	TRACE: looking into subdirectory C:\Users\g.barri\Desktop\EDWP2\bl_scm_ind
movements.Move.move()
	TRACE: looking into subdirectory C:\Users\g.barri\Desktop\EDWP2\bl_mfg
movements.Move.move()
	TRACE: looking into subdirectory C:\Users\g.barri\Desktop\EDWP2\bl_mfg\views
movements.Move.move()
	TRACE: looking into subdirectory C:\Users\g.barri\Desktop\EDWP2\bl_mfg\tables
movements.Move.move()
	TRACE: looking into subdirectory C:\Users\g.barri\Desktop\EDWP2\bl_mfg\functions
movements.Move.move()
	TRACE: looking into subdirectory C:\Users\g.barri\Desktop\EDWP2\bl_mfg\functions\pr
movements.Move.move()
	TRACE: looking into subdirectory C:\Users\g.barri\Desktop\EDWP2\bl_mfg\functions\packages
movements.Move.moveFileWrap()
	TRACE: Moving file	bl_mfg_mp_qvc_load_npl.sqlfrom	C:\Users\g.barri\Desktop\test\XXPMAPP_MP_QVC_LOAD_NPL\bl_mfg_mp_qvc_load_npl.sql
to	 C:\Users\g.barri\Desktop\EDWP2\bl_mfg\functions\packages\bl_mfg_mp_qvc_load_npl.sql
movements.Move.moveFileWrap()
	TRACE: Moved ended
movements.Move.move()
	TRACE: looking into subdirectory C:\Users\g.barri\Desktop\EDWP2\tl_scm_ind
movements.Move.move()
	TRACE: looking into subdirectory C:\Users\g.barri\Desktop\EDWP2\tl_pur
movements.Move.move()
	TRACE: looking into subdirectory C:\Users\g.barri\Desktop\EDWP2\tl_mfg
movements.Move.move()
	TRACE: looking into subdirectory C:\Users\g.barri\Desktop\EDWP2\tl_analytics
movements.Move.move()
	TRACE: looking into subdirectory C:\Users\g.barri\Desktop\EDWP2\oracompat
movements.Move.move()
	TRACE: looking into subdirectory C:\Users\g.barri\Desktop\EDWP2\lg_mfg
movements.Move.move()
	TRACE: looking into subdirectory C:\Users\g.barri\Desktop\EDWP2\ds_mfg
movements.Move.move()
	TRACE: looking into subdirectory C:\Users\g.barri\Desktop\EDWP2\dg_utilities
movements.Move.move()
	TRACE: looking into subdirectory C:\Users\g.barri\Desktop\EDWP2\bl_scm_ind
movements.Move.move()
	TRACE: looking into subdirectory C:\Users\g.barri\Desktop\EDWP2\bl_mfg
movements.Move.move()
	TRACE: looking into subdirectory C:\Users\g.barri\Desktop\EDWP2\bl_mfg\views
movements.Move.move()
	TRACE: looking into subdirectory C:\Users\g.barri\Desktop\EDWP2\bl_mfg\tables
movements.Move.move()
	TRACE: looking into subdirectory C:\Users\g.barri\Desktop\EDWP2\bl_mfg\functions
movements.Move.move()
	TRACE: looking into subdirectory C:\Users\g.barri\Desktop\EDWP2\bl_mfg\functions\pr
movements.Move.moveFileWrap()
	TRACE: Moving file	bl_mfg_pr_qvc_load_npl.sqlfrom	C:\Users\g.barri\Desktop\test\XXPMAPP_MP_QVC_LOAD_NPL\bl_mfg_pr_qvc_load_npl.sql
to	 C:\Users\g.barri\Desktop\EDWP2\bl_mfg\functions\pr\bl_mfg_pr_qvc_load_npl.sql
movements.Move.moveFileWrap()
	TRACE: Moved ended
movements.Move.checkFile()
	DEBUG: il file create_lang.sql, C:\Users\g.barri\Desktop\test\XXPMAPP_MP_QVC_LOAD_NPL\create_lang.sql
è stato scartato perchè non riconosciuto.
movements.Move.move()
	TRACE: looking into subdirectory C:\Users\g.barri\Desktop\EDWP2\tl_scm_ind
movements.Move.move()
	TRACE: looking into subdirectory C:\Users\g.barri\Desktop\EDWP2\tl_pur
movements.Move.move()
	TRACE: looking into subdirectory C:\Users\g.barri\Desktop\EDWP2\tl_mfg
movements.Move.move()
	TRACE: looking into subdirectory C:\Users\g.barri\Desktop\EDWP2\tl_analytics
movements.Move.move()
	TRACE: looking into subdirectory C:\Users\g.barri\Desktop\EDWP2\oracompat
movements.Move.move()
	TRACE: looking into subdirectory C:\Users\g.barri\Desktop\EDWP2\lg_mfg
movements.Move.move()
	TRACE: looking into subdirectory C:\Users\g.barri\Desktop\EDWP2\ds_mfg
movements.Move.move()
	TRACE: looking into subdirectory C:\Users\g.barri\Desktop\EDWP2\dg_utilities
movements.Move.move()
	TRACE: looking into subdirectory C:\Users\g.barri\Desktop\EDWP2\dg_utilities\tables
movements.Move.move()
	TRACE: looking into subdirectory C:\Users\g.barri\Desktop\EDWP2\dg_utilities\functions
movements.Move.move()
	TRACE: looking into subdirectory C:\Users\g.barri\Desktop\EDWP2\dg_utilities\functions\pr
movements.Move.moveFileWrap()
	TRACE: Moving file	lg_mfg_pr_function_log_dsx.sqlfrom	C:\Users\g.barri\Desktop\test\XXPMAPP_MP_QVC_LOAD_NPL\lg_mfg_pr_function_log_dsx.sql
to	 C:\Users\g.barri\Desktop\EDWP2\dg_utilities\functions\pr\lg_mfg_pr_function_log_dsx.sql
movements.Move.moveFileWrap()
	TRACE: Moved ended
movements.Move.checkFile()
	DEBUG: il file bl_scm_ind_dm_day_idx.sql, C:\Users\g.barri\Desktop\test\XXSCHAPP_MP_DM_DAY\bl_scm_ind_dm_day_idx.sql
è stato scartato perchè non riconosciuto.
movements.Move.move()
	TRACE: looking into subdirectory C:\Users\g.barri\Desktop\EDWP2\tl_scm_ind
movements.Move.move()
	TRACE: looking into subdirectory C:\Users\g.barri\Desktop\EDWP2\tl_pur
movements.Move.move()
	TRACE: looking into subdirectory C:\Users\g.barri\Desktop\EDWP2\tl_mfg
movements.Move.move()
	TRACE: looking into subdirectory C:\Users\g.barri\Desktop\EDWP2\tl_analytics
movements.Move.move()
	TRACE: looking into subdirectory C:\Users\g.barri\Desktop\EDWP2\oracompat
movements.Move.move()
	TRACE: looking into subdirectory C:\Users\g.barri\Desktop\EDWP2\lg_mfg
movements.Move.move()
	TRACE: looking into subdirectory C:\Users\g.barri\Desktop\EDWP2\ds_mfg
movements.Move.move()
	TRACE: looking into subdirectory C:\Users\g.barri\Desktop\EDWP2\dg_utilities
movements.Move.move()
	TRACE: looking into subdirectory C:\Users\g.barri\Desktop\EDWP2\bl_scm_ind
movements.Move.move()
	TRACE: looking into subdirectory C:\Users\g.barri\Desktop\EDWP2\bl_scm_ind\views
movements.Move.move()
	TRACE: looking into subdirectory C:\Users\g.barri\Desktop\EDWP2\bl_scm_ind\tables
movements.Move.move()
	TRACE: looking into subdirectory C:\Users\g.barri\Desktop\EDWP2\bl_scm_ind\functions
movements.Move.move()
	TRACE: looking into subdirectory C:\Users\g.barri\Desktop\EDWP2\bl_scm_ind\functions\pr
movements.Move.moveFileWrap()
	TRACE: Moving file	bl_scm_ind_mp_dm_day.sqlfrom	C:\Users\g.barri\Desktop\test\XXSCHAPP_MP_DM_DAY\bl_scm_ind_mp_dm_day.sql
to	 C:\Users\g.barri\Desktop\EDWP2\bl_scm_ind\functions\bl_scm_ind_mp_dm_day.sql
movements.Move.moveFileWrap()
	TRACE: Moved ended
movements.Move.checkFile()
	DEBUG: il file create_lang.sql, C:\Users\g.barri\Desktop\test\XXSCHAPP_MP_DM_DAY\create_lang.sql
è stato scartato perchè non riconosciuto.
movements.Move.move()
	TRACE: looking into subdirectory C:\Users\g.barri\Desktop\EDWP2\tl_scm_ind
movements.Move.move()
	TRACE: looking into subdirectory C:\Users\g.barri\Desktop\EDWP2\tl_pur
movements.Move.move()
	TRACE: looking into subdirectory C:\Users\g.barri\Desktop\EDWP2\tl_mfg
movements.Move.move()
	TRACE: looking into subdirectory C:\Users\g.barri\Desktop\EDWP2\tl_analytics
movements.Move.move()
	TRACE: looking into subdirectory C:\Users\g.barri\Desktop\EDWP2\oracompat
movements.Move.move()
	TRACE: looking into subdirectory C:\Users\g.barri\Desktop\EDWP2\lg_mfg
movements.Move.move()
	TRACE: looking into subdirectory C:\Users\g.barri\Desktop\EDWP2\ds_mfg
movements.Move.move()
	TRACE: looking into subdirectory C:\Users\g.barri\Desktop\EDWP2\dg_utilities
movements.Move.move()
	TRACE: looking into subdirectory C:\Users\g.barri\Desktop\EDWP2\dg_utilities\tables
movements.Move.move()
	TRACE: looking into subdirectory C:\Users\g.barri\Desktop\EDWP2\dg_utilities\functions
movements.Move.move()
	TRACE: looking into subdirectory C:\Users\g.barri\Desktop\EDWP2\dg_utilities\functions\pr
movements.Move.moveFileWrap()
	TRACE: Moving file	lg_mfg_pr_function_log_dsx.sqlfrom	C:\Users\g.barri\Desktop\test\XXSCHAPP_MP_DM_DAY\lg_mfg_pr_function_log_dsx.sql
to	 C:\Users\g.barri\Desktop\EDWP2\dg_utilities\functions\pr\lg_mfg_pr_function_log_dsx.sql
movements.Move.moveFileWrap()
	TRACE: Moved ended
movements.Move.checkFile()
	DEBUG: il file tl_analytics_dw_day_idx.sql, C:\Users\g.barri\Desktop\test\XXSCHAPP_MP_DM_DAY\tl_analytics_dw_day_idx.sql
è stato scartato perchè non riconosciuto.
movements.Move.checkFile()
	DEBUG: il file bl_scm_ind_dm_stabilimenti_idx.sql, C:\Users\g.barri\Desktop\test\XXSCHAPP_MP_DM_STABILIMENTI\bl_scm_ind_dm_stabilimenti_idx.sql
è stato scartato perchè non riconosciuto.
movements.Move.move()
	TRACE: looking into subdirectory C:\Users\g.barri\Desktop\EDWP2\tl_scm_ind
movements.Move.move()
	TRACE: looking into subdirectory C:\Users\g.barri\Desktop\EDWP2\tl_pur
movements.Move.move()
	TRACE: looking into subdirectory C:\Users\g.barri\Desktop\EDWP2\tl_mfg
movements.Move.move()
	TRACE: looking into subdirectory C:\Users\g.barri\Desktop\EDWP2\tl_analytics
movements.Move.move()
	TRACE: looking into subdirectory C:\Users\g.barri\Desktop\EDWP2\oracompat
movements.Move.move()
	TRACE: looking into subdirectory C:\Users\g.barri\Desktop\EDWP2\lg_mfg
movements.Move.move()
	TRACE: looking into subdirectory C:\Users\g.barri\Desktop\EDWP2\ds_mfg
movements.Move.move()
	TRACE: looking into subdirectory C:\Users\g.barri\Desktop\EDWP2\dg_utilities
movements.Move.move()
	TRACE: looking into subdirectory C:\Users\g.barri\Desktop\EDWP2\bl_scm_ind
movements.Move.move()
	TRACE: looking into subdirectory C:\Users\g.barri\Desktop\EDWP2\bl_scm_ind\views
movements.Move.move()
	TRACE: looking into subdirectory C:\Users\g.barri\Desktop\EDWP2\bl_scm_ind\tables
movements.Move.move()
	TRACE: looking into subdirectory C:\Users\g.barri\Desktop\EDWP2\bl_scm_ind\functions
movements.Move.move()
	TRACE: looking into subdirectory C:\Users\g.barri\Desktop\EDWP2\bl_scm_ind\functions\pr
movements.Move.moveFileWrap()
	TRACE: Moving file	bl_scm_ind_mp_dm_stabilimenti.sqlfrom	C:\Users\g.barri\Desktop\test\XXSCHAPP_MP_DM_STABILIMENTI\bl_scm_ind_mp_dm_stabilimenti.sql
to	 C:\Users\g.barri\Desktop\EDWP2\bl_scm_ind\functions\bl_scm_ind_mp_dm_stabilimenti.sql
movements.Move.moveFileWrap()
	TRACE: Moved ended
movements.Move.checkFile()
	DEBUG: il file create_lang.sql, C:\Users\g.barri\Desktop\test\XXSCHAPP_MP_DM_STABILIMENTI\create_lang.sql
è stato scartato perchè non riconosciuto.
movements.Move.move()
	TRACE: looking into subdirectory C:\Users\g.barri\Desktop\EDWP2\tl_scm_ind
movements.Move.move()
	TRACE: looking into subdirectory C:\Users\g.barri\Desktop\EDWP2\tl_pur
movements.Move.move()
	TRACE: looking into subdirectory C:\Users\g.barri\Desktop\EDWP2\tl_mfg
movements.Move.move()
	TRACE: looking into subdirectory C:\Users\g.barri\Desktop\EDWP2\tl_analytics
movements.Move.move()
	TRACE: looking into subdirectory C:\Users\g.barri\Desktop\EDWP2\oracompat
movements.Move.move()
	TRACE: looking into subdirectory C:\Users\g.barri\Desktop\EDWP2\lg_mfg
movements.Move.move()
	TRACE: looking into subdirectory C:\Users\g.barri\Desktop\EDWP2\ds_mfg
movements.Move.move()
	TRACE: looking into subdirectory C:\Users\g.barri\Desktop\EDWP2\dg_utilities
movements.Move.move()
	TRACE: looking into subdirectory C:\Users\g.barri\Desktop\EDWP2\dg_utilities\tables
movements.Move.move()
	TRACE: looking into subdirectory C:\Users\g.barri\Desktop\EDWP2\dg_utilities\functions
movements.Move.move()
	TRACE: looking into subdirectory C:\Users\g.barri\Desktop\EDWP2\dg_utilities\functions\pr
movements.Move.moveFileWrap()
	TRACE: Moving file	lg_mfg_pr_function_log_dsx.sqlfrom	C:\Users\g.barri\Desktop\test\XXSCHAPP_MP_DM_STABILIMENTI\lg_mfg_pr_function_log_dsx.sql
to	 C:\Users\g.barri\Desktop\EDWP2\dg_utilities\functions\pr\lg_mfg_pr_function_log_dsx.sql
movements.Move.moveFileWrap()
	TRACE: Moved ended
movements.Move.checkFile()
	DEBUG: il file tl_analytics_dw_stabilimenti_idx.sql, C:\Users\g.barri\Desktop\test\XXSCHAPP_MP_DM_STABILIMENTI\tl_analytics_dw_stabilimenti_idx.sql
è stato scartato perchè non riconosciuto.
movements.Move.main()
	INFO: Ending main of class movements.Move
