movements.Move.main()
	INFO: Starting main of class movements.Move
dirTree.BasicRuledFolder.<init>()
	DEBUG: new folder datalake at 
C:\Users\g.barri\Documents\FCA_technology\repository-FCA\Greenplum\datalake
dirTree.BasicRuledFolder.<init>()
	DEBUG: new folder tl_scm_com at 
C:\Users\g.barri\Documents\FCA_technology\repository-FCA\Greenplum\datalake\tl_scm_com
dirTree.BasicRuledFolder.<init>()
	DEBUG: new folder views at 
C:\Users\g.barri\Documents\FCA_technology\repository-FCA\Greenplum\datalake\tl_scm_com\views
dirTree.BasicRuledFolder.<init>()
	DEBUG: new folder tables at 
C:\Users\g.barri\Documents\FCA_technology\repository-FCA\Greenplum\datalake\tl_scm_com\tables
dirTree.BasicRuledFolder.<init>()
	DEBUG: new folder cns at 
C:\Users\g.barri\Documents\FCA_technology\repository-FCA\Greenplum\datalake\tl_scm_com\tables\cns
dirTree.BasicRuledFolder.<init>()
	DEBUG: new folder idx at 
C:\Users\g.barri\Documents\FCA_technology\repository-FCA\Greenplum\datalake\tl_scm_com\tables\idx
dirTree.BasicRuledFolder.<init>()
	DEBUG: new folder functions at 
C:\Users\g.barri\Documents\FCA_technology\repository-FCA\Greenplum\datalake\tl_scm_com\functions
dirTree.BasicRuledFolder.<init>()
	DEBUG: new folder sequences at 
C:\Users\g.barri\Documents\FCA_technology\repository-FCA\Greenplum\datalake\tl_scm_com\sequences
dirTree.BasicRuledFolder.<init>()
	DEBUG: new folder tl_thp at 
C:\Users\g.barri\Documents\FCA_technology\repository-FCA\Greenplum\datalake\tl_thp
dirTree.BasicRuledFolder.<init>()
	DEBUG: new folder views at 
C:\Users\g.barri\Documents\FCA_technology\repository-FCA\Greenplum\datalake\tl_thp\views
dirTree.BasicRuledFolder.<init>()
	DEBUG: new folder tables at 
C:\Users\g.barri\Documents\FCA_technology\repository-FCA\Greenplum\datalake\tl_thp\tables
dirTree.BasicRuledFolder.<init>()
	DEBUG: new folder cns at 
C:\Users\g.barri\Documents\FCA_technology\repository-FCA\Greenplum\datalake\tl_thp\tables\cns
dirTree.BasicRuledFolder.<init>()
	DEBUG: new folder idx at 
C:\Users\g.barri\Documents\FCA_technology\repository-FCA\Greenplum\datalake\tl_thp\tables\idx
dirTree.BasicRuledFolder.<init>()
	DEBUG: new folder functions at 
C:\Users\g.barri\Documents\FCA_technology\repository-FCA\Greenplum\datalake\tl_thp\functions
dirTree.BasicRuledFolder.<init>()
	DEBUG: new folder sequences at 
C:\Users\g.barri\Documents\FCA_technology\repository-FCA\Greenplum\datalake\tl_thp\sequences
dirTree.BasicRuledFolder.<init>()
	DEBUG: new folder tl_sal at 
C:\Users\g.barri\Documents\FCA_technology\repository-FCA\Greenplum\datalake\tl_sal
dirTree.BasicRuledFolder.<init>()
	DEBUG: new folder views at 
C:\Users\g.barri\Documents\FCA_technology\repository-FCA\Greenplum\datalake\tl_sal\views
dirTree.BasicRuledFolder.<init>()
	DEBUG: new folder tables at 
C:\Users\g.barri\Documents\FCA_technology\repository-FCA\Greenplum\datalake\tl_sal\tables
dirTree.BasicRuledFolder.<init>()
	DEBUG: new folder cns at 
C:\Users\g.barri\Documents\FCA_technology\repository-FCA\Greenplum\datalake\tl_sal\tables\cns
dirTree.BasicRuledFolder.<init>()
	DEBUG: new folder idx at 
C:\Users\g.barri\Documents\FCA_technology\repository-FCA\Greenplum\datalake\tl_sal\tables\idx
dirTree.BasicRuledFolder.<init>()
	DEBUG: new folder functions at 
C:\Users\g.barri\Documents\FCA_technology\repository-FCA\Greenplum\datalake\tl_sal\functions
dirTree.BasicRuledFolder.<init>()
	DEBUG: new folder sequences at 
C:\Users\g.barri\Documents\FCA_technology\repository-FCA\Greenplum\datalake\tl_sal\sequences
dirTree.BasicRuledFolder.<init>()
	DEBUG: new folder tl_qlt at 
C:\Users\g.barri\Documents\FCA_technology\repository-FCA\Greenplum\datalake\tl_qlt
dirTree.BasicRuledFolder.<init>()
	DEBUG: new folder views at 
C:\Users\g.barri\Documents\FCA_technology\repository-FCA\Greenplum\datalake\tl_qlt\views
dirTree.BasicRuledFolder.<init>()
	DEBUG: new folder tables at 
C:\Users\g.barri\Documents\FCA_technology\repository-FCA\Greenplum\datalake\tl_qlt\tables
dirTree.BasicRuledFolder.<init>()
	DEBUG: new folder cns at 
C:\Users\g.barri\Documents\FCA_technology\repository-FCA\Greenplum\datalake\tl_qlt\tables\cns
dirTree.BasicRuledFolder.<init>()
	DEBUG: new folder idx at 
C:\Users\g.barri\Documents\FCA_technology\repository-FCA\Greenplum\datalake\tl_qlt\tables\idx
dirTree.BasicRuledFolder.<init>()
	DEBUG: new folder functions at 
C:\Users\g.barri\Documents\FCA_technology\repository-FCA\Greenplum\datalake\tl_qlt\functions
dirTree.BasicRuledFolder.<init>()
	DEBUG: new folder sequences at 
C:\Users\g.barri\Documents\FCA_technology\repository-FCA\Greenplum\datalake\tl_qlt\sequences
dirTree.BasicRuledFolder.<init>()
	DEBUG: new folder tl_fin at 
C:\Users\g.barri\Documents\FCA_technology\repository-FCA\Greenplum\datalake\tl_fin
dirTree.BasicRuledFolder.<init>()
	DEBUG: new folder views at 
C:\Users\g.barri\Documents\FCA_technology\repository-FCA\Greenplum\datalake\tl_fin\views
dirTree.BasicRuledFolder.<init>()
	DEBUG: new folder tables at 
C:\Users\g.barri\Documents\FCA_technology\repository-FCA\Greenplum\datalake\tl_fin\tables
dirTree.BasicRuledFolder.<init>()
	DEBUG: new folder cns at 
C:\Users\g.barri\Documents\FCA_technology\repository-FCA\Greenplum\datalake\tl_fin\tables\cns
dirTree.BasicRuledFolder.<init>()
	DEBUG: new folder idx at 
C:\Users\g.barri\Documents\FCA_technology\repository-FCA\Greenplum\datalake\tl_fin\tables\idx
dirTree.BasicRuledFolder.<init>()
	DEBUG: new folder functions at 
C:\Users\g.barri\Documents\FCA_technology\repository-FCA\Greenplum\datalake\tl_fin\functions
dirTree.BasicRuledFolder.<init>()
	DEBUG: new folder sequences at 
C:\Users\g.barri\Documents\FCA_technology\repository-FCA\Greenplum\datalake\tl_fin\sequences
dirTree.BasicRuledFolder.<init>()
	DEBUG: new folder pl_colors at 
C:\Users\g.barri\Documents\FCA_technology\repository-FCA\Greenplum\datalake\pl_colors
dirTree.BasicRuledFolder.<init>()
	DEBUG: new folder views at 
C:\Users\g.barri\Documents\FCA_technology\repository-FCA\Greenplum\datalake\pl_colors\views
dirTree.BasicRuledFolder.<init>()
	DEBUG: new folder tables at 
C:\Users\g.barri\Documents\FCA_technology\repository-FCA\Greenplum\datalake\pl_colors\tables
dirTree.BasicRuledFolder.<init>()
	DEBUG: new folder cns at 
C:\Users\g.barri\Documents\FCA_technology\repository-FCA\Greenplum\datalake\pl_colors\tables\cns
dirTree.BasicRuledFolder.<init>()
	DEBUG: new folder idx at 
C:\Users\g.barri\Documents\FCA_technology\repository-FCA\Greenplum\datalake\pl_colors\tables\idx
dirTree.BasicRuledFolder.<init>()
	DEBUG: new folder functions at 
C:\Users\g.barri\Documents\FCA_technology\repository-FCA\Greenplum\datalake\pl_colors\functions
dirTree.BasicRuledFolder.<init>()
	DEBUG: new folder sequences at 
C:\Users\g.barri\Documents\FCA_technology\repository-FCA\Greenplum\datalake\pl_colors\sequences
dirTree.BasicRuledFolder.<init>()
	DEBUG: new folder bl_sal at 
C:\Users\g.barri\Documents\FCA_technology\repository-FCA\Greenplum\datalake\bl_sal
dirTree.BasicRuledFolder.<init>()
	DEBUG: new folder views at 
C:\Users\g.barri\Documents\FCA_technology\repository-FCA\Greenplum\datalake\bl_sal\views
dirTree.BasicRuledFolder.<init>()
	DEBUG: new folder tables at 
C:\Users\g.barri\Documents\FCA_technology\repository-FCA\Greenplum\datalake\bl_sal\tables
dirTree.BasicRuledFolder.<init>()
	DEBUG: new folder cns at 
C:\Users\g.barri\Documents\FCA_technology\repository-FCA\Greenplum\datalake\bl_sal\tables\cns
dirTree.BasicRuledFolder.<init>()
	DEBUG: new folder idx at 
C:\Users\g.barri\Documents\FCA_technology\repository-FCA\Greenplum\datalake\bl_sal\tables\idx
dirTree.BasicRuledFolder.<init>()
	DEBUG: new folder functions at 
C:\Users\g.barri\Documents\FCA_technology\repository-FCA\Greenplum\datalake\bl_sal\functions
dirTree.BasicRuledFolder.<init>()
	DEBUG: new folder sequences at 
C:\Users\g.barri\Documents\FCA_technology\repository-FCA\Greenplum\datalake\bl_sal\sequences
dirTree.BasicRuledFolder.<init>()
	DEBUG: new folder tl_afs at 
C:\Users\g.barri\Documents\FCA_technology\repository-FCA\Greenplum\datalake\tl_afs
dirTree.BasicRuledFolder.<init>()
	DEBUG: new folder views at 
C:\Users\g.barri\Documents\FCA_technology\repository-FCA\Greenplum\datalake\tl_afs\views
dirTree.BasicRuledFolder.<init>()
	DEBUG: new folder tables at 
C:\Users\g.barri\Documents\FCA_technology\repository-FCA\Greenplum\datalake\tl_afs\tables
dirTree.BasicRuledFolder.<init>()
	DEBUG: new folder cns at 
C:\Users\g.barri\Documents\FCA_technology\repository-FCA\Greenplum\datalake\tl_afs\tables\cns
dirTree.BasicRuledFolder.<init>()
	DEBUG: new folder idx at 
C:\Users\g.barri\Documents\FCA_technology\repository-FCA\Greenplum\datalake\tl_afs\tables\idx
dirTree.BasicRuledFolder.<init>()
	DEBUG: new folder functions at 
C:\Users\g.barri\Documents\FCA_technology\repository-FCA\Greenplum\datalake\tl_afs\functions
dirTree.BasicRuledFolder.<init>()
	DEBUG: new folder sequences at 
C:\Users\g.barri\Documents\FCA_technology\repository-FCA\Greenplum\datalake\tl_afs\sequences
dirTree.BasicRuledFolder.<init>()
	DEBUG: new folder tl_net at 
C:\Users\g.barri\Documents\FCA_technology\repository-FCA\Greenplum\datalake\tl_net
dirTree.BasicRuledFolder.<init>()
	DEBUG: new folder views at 
C:\Users\g.barri\Documents\FCA_technology\repository-FCA\Greenplum\datalake\tl_net\views
dirTree.BasicRuledFolder.<init>()
	DEBUG: new folder tables at 
C:\Users\g.barri\Documents\FCA_technology\repository-FCA\Greenplum\datalake\tl_net\tables
dirTree.BasicRuledFolder.<init>()
	DEBUG: new folder cns at 
C:\Users\g.barri\Documents\FCA_technology\repository-FCA\Greenplum\datalake\tl_net\tables\cns
dirTree.BasicRuledFolder.<init>()
	DEBUG: new folder idx at 
C:\Users\g.barri\Documents\FCA_technology\repository-FCA\Greenplum\datalake\tl_net\tables\idx
dirTree.BasicRuledFolder.<init>()
	DEBUG: new folder functions at 
C:\Users\g.barri\Documents\FCA_technology\repository-FCA\Greenplum\datalake\tl_net\functions
dirTree.BasicRuledFolder.<init>()
	DEBUG: new folder sequences at 
C:\Users\g.barri\Documents\FCA_technology\repository-FCA\Greenplum\datalake\tl_net\sequences
dirTree.BasicRuledFolder.<init>()
	DEBUG: new folder tl_scm_ind at 
C:\Users\g.barri\Documents\FCA_technology\repository-FCA\Greenplum\datalake\tl_scm_ind
dirTree.BasicRuledFolder.<init>()
	DEBUG: new folder views at 
C:\Users\g.barri\Documents\FCA_technology\repository-FCA\Greenplum\datalake\tl_scm_ind\views
dirTree.BasicRuledFolder.<init>()
	DEBUG: new folder tables at 
C:\Users\g.barri\Documents\FCA_technology\repository-FCA\Greenplum\datalake\tl_scm_ind\tables
dirTree.BasicRuledFolder.<init>()
	DEBUG: new folder cns at 
C:\Users\g.barri\Documents\FCA_technology\repository-FCA\Greenplum\datalake\tl_scm_ind\tables\cns
dirTree.BasicRuledFolder.<init>()
	DEBUG: new folder idx at 
C:\Users\g.barri\Documents\FCA_technology\repository-FCA\Greenplum\datalake\tl_scm_ind\tables\idx
dirTree.BasicRuledFolder.<init>()
	DEBUG: new folder functions at 
C:\Users\g.barri\Documents\FCA_technology\repository-FCA\Greenplum\datalake\tl_scm_ind\functions
dirTree.BasicRuledFolder.<init>()
	DEBUG: new folder sequences at 
C:\Users\g.barri\Documents\FCA_technology\repository-FCA\Greenplum\datalake\tl_scm_ind\sequences
dirTree.BasicRuledFolder.<init>()
	DEBUG: new folder tl_pur at 
C:\Users\g.barri\Documents\FCA_technology\repository-FCA\Greenplum\datalake\tl_pur
dirTree.BasicRuledFolder.<init>()
	DEBUG: new folder views at 
C:\Users\g.barri\Documents\FCA_technology\repository-FCA\Greenplum\datalake\tl_pur\views
dirTree.BasicRuledFolder.<init>()
	DEBUG: new folder tables at 
C:\Users\g.barri\Documents\FCA_technology\repository-FCA\Greenplum\datalake\tl_pur\tables
dirTree.BasicRuledFolder.<init>()
	DEBUG: new folder cns at 
C:\Users\g.barri\Documents\FCA_technology\repository-FCA\Greenplum\datalake\tl_pur\tables\cns
dirTree.BasicRuledFolder.<init>()
	DEBUG: new folder idx at 
C:\Users\g.barri\Documents\FCA_technology\repository-FCA\Greenplum\datalake\tl_pur\tables\idx
dirTree.BasicRuledFolder.<init>()
	DEBUG: new folder functions at 
C:\Users\g.barri\Documents\FCA_technology\repository-FCA\Greenplum\datalake\tl_pur\functions
dirTree.BasicRuledFolder.<init>()
	DEBUG: new folder sequences at 
C:\Users\g.barri\Documents\FCA_technology\repository-FCA\Greenplum\datalake\tl_pur\sequences
dirTree.BasicRuledFolder.<init>()
	DEBUG: new folder tl_mfg at 
C:\Users\g.barri\Documents\FCA_technology\repository-FCA\Greenplum\datalake\tl_mfg
dirTree.BasicRuledFolder.<init>()
	DEBUG: new folder views at 
C:\Users\g.barri\Documents\FCA_technology\repository-FCA\Greenplum\datalake\tl_mfg\views
dirTree.BasicRuledFolder.<init>()
	DEBUG: new folder tables at 
C:\Users\g.barri\Documents\FCA_technology\repository-FCA\Greenplum\datalake\tl_mfg\tables
dirTree.BasicRuledFolder.<init>()
	DEBUG: new folder cns at 
C:\Users\g.barri\Documents\FCA_technology\repository-FCA\Greenplum\datalake\tl_mfg\tables\cns
dirTree.BasicRuledFolder.<init>()
	DEBUG: new folder idx at 
C:\Users\g.barri\Documents\FCA_technology\repository-FCA\Greenplum\datalake\tl_mfg\tables\idx
dirTree.BasicRuledFolder.<init>()
	DEBUG: new folder functions at 
C:\Users\g.barri\Documents\FCA_technology\repository-FCA\Greenplum\datalake\tl_mfg\functions
dirTree.BasicRuledFolder.<init>()
	DEBUG: new folder sequences at 
C:\Users\g.barri\Documents\FCA_technology\repository-FCA\Greenplum\datalake\tl_mfg\sequences
dirTree.BasicRuledFolder.<init>()
	DEBUG: new folder tl_analytics at 
C:\Users\g.barri\Documents\FCA_technology\repository-FCA\Greenplum\datalake\tl_analytics
dirTree.BasicRuledFolder.<init>()
	DEBUG: new folder views at 
C:\Users\g.barri\Documents\FCA_technology\repository-FCA\Greenplum\datalake\tl_analytics\views
dirTree.BasicRuledFolder.<init>()
	DEBUG: new folder tables at 
C:\Users\g.barri\Documents\FCA_technology\repository-FCA\Greenplum\datalake\tl_analytics\tables
dirTree.BasicRuledFolder.<init>()
	DEBUG: new folder cns at 
C:\Users\g.barri\Documents\FCA_technology\repository-FCA\Greenplum\datalake\tl_analytics\tables\cns
dirTree.BasicRuledFolder.<init>()
	DEBUG: new folder idx at 
C:\Users\g.barri\Documents\FCA_technology\repository-FCA\Greenplum\datalake\tl_analytics\tables\idx
dirTree.BasicRuledFolder.<init>()
	DEBUG: new folder functions at 
C:\Users\g.barri\Documents\FCA_technology\repository-FCA\Greenplum\datalake\tl_analytics\functions
dirTree.BasicRuledFolder.<init>()
	DEBUG: new folder sequences at 
C:\Users\g.barri\Documents\FCA_technology\repository-FCA\Greenplum\datalake\tl_analytics\sequences
dirTree.BasicRuledFolder.<init>()
	DEBUG: new folder oracompat at 
C:\Users\g.barri\Documents\FCA_technology\repository-FCA\Greenplum\datalake\oracompat
dirTree.BasicRuledFolder.<init>()
	DEBUG: new folder views at 
C:\Users\g.barri\Documents\FCA_technology\repository-FCA\Greenplum\datalake\oracompat\views
dirTree.BasicRuledFolder.<init>()
	DEBUG: new folder tables at 
C:\Users\g.barri\Documents\FCA_technology\repository-FCA\Greenplum\datalake\oracompat\tables
dirTree.BasicRuledFolder.<init>()
	DEBUG: new folder cns at 
C:\Users\g.barri\Documents\FCA_technology\repository-FCA\Greenplum\datalake\oracompat\tables\cns
dirTree.BasicRuledFolder.<init>()
	DEBUG: new folder idx at 
C:\Users\g.barri\Documents\FCA_technology\repository-FCA\Greenplum\datalake\oracompat\tables\idx
dirTree.BasicRuledFolder.<init>()
	DEBUG: new folder functions at 
C:\Users\g.barri\Documents\FCA_technology\repository-FCA\Greenplum\datalake\oracompat\functions
dirTree.BasicRuledFolder.<init>()
	DEBUG: new folder sequences at 
C:\Users\g.barri\Documents\FCA_technology\repository-FCA\Greenplum\datalake\oracompat\sequences
dirTree.BasicRuledFolder.<init>()
	DEBUG: new folder ds_mfg at 
C:\Users\g.barri\Documents\FCA_technology\repository-FCA\Greenplum\datalake\ds_mfg
dirTree.BasicRuledFolder.<init>()
	DEBUG: new folder views at 
C:\Users\g.barri\Documents\FCA_technology\repository-FCA\Greenplum\datalake\ds_mfg\views
dirTree.BasicRuledFolder.<init>()
	DEBUG: new folder tables at 
C:\Users\g.barri\Documents\FCA_technology\repository-FCA\Greenplum\datalake\ds_mfg\tables
dirTree.BasicRuledFolder.<init>()
	DEBUG: new folder cns at 
C:\Users\g.barri\Documents\FCA_technology\repository-FCA\Greenplum\datalake\ds_mfg\tables\cns
dirTree.BasicRuledFolder.<init>()
	DEBUG: new folder idx at 
C:\Users\g.barri\Documents\FCA_technology\repository-FCA\Greenplum\datalake\ds_mfg\tables\idx
dirTree.BasicRuledFolder.<init>()
	DEBUG: new folder functions at 
C:\Users\g.barri\Documents\FCA_technology\repository-FCA\Greenplum\datalake\ds_mfg\functions
dirTree.BasicRuledFolder.<init>()
	DEBUG: new folder sequences at 
C:\Users\g.barri\Documents\FCA_technology\repository-FCA\Greenplum\datalake\ds_mfg\sequences
dirTree.BasicRuledFolder.<init>()
	DEBUG: new folder dg_utilities at 
C:\Users\g.barri\Documents\FCA_technology\repository-FCA\Greenplum\datalake\dg_utilities
dirTree.BasicRuledFolder.<init>()
	DEBUG: new folder views at 
C:\Users\g.barri\Documents\FCA_technology\repository-FCA\Greenplum\datalake\dg_utilities\views
dirTree.BasicRuledFolder.<init>()
	DEBUG: new folder tables at 
C:\Users\g.barri\Documents\FCA_technology\repository-FCA\Greenplum\datalake\dg_utilities\tables
dirTree.BasicRuledFolder.<init>()
	DEBUG: new folder cns at 
C:\Users\g.barri\Documents\FCA_technology\repository-FCA\Greenplum\datalake\dg_utilities\tables\cns
dirTree.BasicRuledFolder.<init>()
	DEBUG: new folder idx at 
C:\Users\g.barri\Documents\FCA_technology\repository-FCA\Greenplum\datalake\dg_utilities\tables\idx
dirTree.BasicRuledFolder.<init>()
	DEBUG: new folder functions at 
C:\Users\g.barri\Documents\FCA_technology\repository-FCA\Greenplum\datalake\dg_utilities\functions
dirTree.BasicRuledFolder.<init>()
	DEBUG: new folder sequences at 
C:\Users\g.barri\Documents\FCA_technology\repository-FCA\Greenplum\datalake\dg_utilities\sequences
dirTree.BasicRuledFolder.<init>()
	DEBUG: new folder bl_scm_ind at 
C:\Users\g.barri\Documents\FCA_technology\repository-FCA\Greenplum\datalake\bl_scm_ind
dirTree.BasicRuledFolder.<init>()
	DEBUG: new folder views at 
C:\Users\g.barri\Documents\FCA_technology\repository-FCA\Greenplum\datalake\bl_scm_ind\views
dirTree.BasicRuledFolder.<init>()
	DEBUG: new folder tables at 
C:\Users\g.barri\Documents\FCA_technology\repository-FCA\Greenplum\datalake\bl_scm_ind\tables
dirTree.BasicRuledFolder.<init>()
	DEBUG: new folder cns at 
C:\Users\g.barri\Documents\FCA_technology\repository-FCA\Greenplum\datalake\bl_scm_ind\tables\cns
dirTree.BasicRuledFolder.<init>()
	DEBUG: new folder idx at 
C:\Users\g.barri\Documents\FCA_technology\repository-FCA\Greenplum\datalake\bl_scm_ind\tables\idx
dirTree.BasicRuledFolder.<init>()
	DEBUG: new folder functions at 
C:\Users\g.barri\Documents\FCA_technology\repository-FCA\Greenplum\datalake\bl_scm_ind\functions
dirTree.BasicRuledFolder.<init>()
	DEBUG: new folder sequences at 
C:\Users\g.barri\Documents\FCA_technology\repository-FCA\Greenplum\datalake\bl_scm_ind\sequences
dirTree.BasicRuledFolder.<init>()
	DEBUG: new folder bl_scm_com at 
C:\Users\g.barri\Documents\FCA_technology\repository-FCA\Greenplum\datalake\bl_scm_com
dirTree.BasicRuledFolder.<init>()
	DEBUG: new folder views at 
C:\Users\g.barri\Documents\FCA_technology\repository-FCA\Greenplum\datalake\bl_scm_com\views
dirTree.BasicRuledFolder.<init>()
	DEBUG: new folder tables at 
C:\Users\g.barri\Documents\FCA_technology\repository-FCA\Greenplum\datalake\bl_scm_com\tables
dirTree.BasicRuledFolder.<init>()
	DEBUG: new folder cns at 
C:\Users\g.barri\Documents\FCA_technology\repository-FCA\Greenplum\datalake\bl_scm_com\tables\cns
dirTree.BasicRuledFolder.<init>()
	DEBUG: new folder idx at 
C:\Users\g.barri\Documents\FCA_technology\repository-FCA\Greenplum\datalake\bl_scm_com\tables\idx
dirTree.BasicRuledFolder.<init>()
	DEBUG: new folder functions at 
C:\Users\g.barri\Documents\FCA_technology\repository-FCA\Greenplum\datalake\bl_scm_com\functions
dirTree.BasicRuledFolder.<init>()
	DEBUG: new folder sequences at 
C:\Users\g.barri\Documents\FCA_technology\repository-FCA\Greenplum\datalake\bl_scm_com\sequences
dirTree.BasicRuledFolder.<init>()
	DEBUG: new folder bl_mfg at 
C:\Users\g.barri\Documents\FCA_technology\repository-FCA\Greenplum\datalake\bl_mfg
dirTree.BasicRuledFolder.<init>()
	DEBUG: new folder views at 
C:\Users\g.barri\Documents\FCA_technology\repository-FCA\Greenplum\datalake\bl_mfg\views
dirTree.BasicRuledFolder.<init>()
	DEBUG: new folder tables at 
C:\Users\g.barri\Documents\FCA_technology\repository-FCA\Greenplum\datalake\bl_mfg\tables
dirTree.BasicRuledFolder.<init>()
	DEBUG: new folder cns at 
C:\Users\g.barri\Documents\FCA_technology\repository-FCA\Greenplum\datalake\bl_mfg\tables\cns
dirTree.BasicRuledFolder.<init>()
	DEBUG: new folder idx at 
C:\Users\g.barri\Documents\FCA_technology\repository-FCA\Greenplum\datalake\bl_mfg\tables\idx
dirTree.BasicRuledFolder.<init>()
	DEBUG: new folder functions at 
C:\Users\g.barri\Documents\FCA_technology\repository-FCA\Greenplum\datalake\bl_mfg\functions
dirTree.BasicRuledFolder.<init>()
	DEBUG: new folder sequences at 
C:\Users\g.barri\Documents\FCA_technology\repository-FCA\Greenplum\datalake\bl_mfg\sequences
movements.Move.main()
	TRACE: Result of movements printed at C:\Users\g.barri\git\repository\fatherProject\schemaNameReplace\target\listFile_14-02-19_19-01-03.txt
movements.Move.main()
	INFO: Ending main of class movements.Move
